###############################################################################
#
# Crusader Kings II (developed by Paradox Development Studio) MOD
# Nova Monumenta Iaponiae Historica (NMIH)
# Character data file for 10 - 14 century historical characters.
# 
# @param file_name 12C-14_tokai_characters.txt
# @param culture tokai
# @param id_range 2,390,000 - 2,419,999
# 
###############################################################################

#----------------------------------------------------------
## Suruga, Tachibana Clan
#----------------------------------------------------------
2390100={
	name="Kimito"
	dynasty=5006 # Tachibana
	father=2690603 # Tachibana Yasumoto
#mother=
	religion="buddhist"
	culture="tokai"
#	martial=
#	diplomacy=
#	intrigue=
#	stewardship=
	learning=1
	disallow_random_traits=yes
	1075.1.1={
		birth=yes
	}
	1125.1.1={
		death=yes
	}
}

2390101={
	name="Toshige"
	dynasty=5006 # Tachibana
	father=2390100 # Tachibana Kimito
#mother=
	religion="buddhist"
	culture="tokai"
#	martial=
#	diplomacy=
#	intrigue=
#	stewardship=
	learning=1
	disallow_random_traits=yes
	1095.1.1={
		birth=yes
	}
	1145.1.1={
		death=yes
	}
}

2390102={
	name="Totada"
	dynasty=5006 # Tachibana
	father=2390101 # Tachibana Toshige
#mother=
	religion="buddhist"
	culture="tokai"
#	martial=
#	diplomacy=
#	intrigue=
#	stewardship=
	learning=1
	disallow_random_traits=yes
	1115.1.1={
		birth=yes
	}
	1180.11.3={
		death={
			death_reason = death_execution
		}
	}
}

2390103={
	name="Tomochi"
	dynasty=5006 # Tachibana
	father=2390102 # Tachibana Totada
#mother=
	religion="buddhist"
	culture="tokai"
#	martial=
#	diplomacy=
#	intrigue=
#	stewardship=
	learning=1
	add_trait="naive_appeaser"
	disallow_random_traits=yes
	1135.1.1={
		birth=yes
	}
	1180.11.3={
		death={
			death_reason=death_battle
			killer=130838 # Kato Mitsukazu
		}
	}
}

2390104={
	name="Tohisa"
	dynasty=5006 # Tachibana
	father=2390102 # Tachibana Totada
#mother=
	religion="buddhist"
	culture="tokai"
#	martial=
#	diplomacy=
#	intrigue=
#	stewardship=
	learning=1
	disallow_random_traits=yes
	1137.1.1={
		birth=yes
	}
	1180.11.3={
		death={
			death_reason = death_execution
		}
	}
}

2390105={
	name="Tonaka"
	dynasty=5006 # Tachibana
	father=2390102 # Tachibana Totada
#mother=
	religion="buddhist"
	culture="tokai"
#	martial=
#	diplomacy=
#	intrigue=
#	stewardship=
	learning=1
	disallow_random_traits=yes
	1140.1.1={
		birth=yes
	}
	1180.11.3={
		death={
			death_reason = death_execution
		}
	}
}

2390106={
	name="Tameshige"
	dynasty=5006 # Tachibana
	father=2390103 # Tachibana Toshige
#mother=
	religion="buddhist"
	culture="tokai"
#	martial=
#	diplomacy=
#	intrigue=
#	stewardship=
	learning=1
	disallow_random_traits=yes
	1165.1.1={
		birth=yes
	}
	1225.1.1={
		death=yes
	}
}

2390107={
	name="Mochikane"
	dynasty=5006 # Tachibana
	father=2390106 # Tachibana Tameshige
#mother=
	religion="buddhist"
	culture="tokai"
#	martial=
#	diplomacy=
#	intrigue=
#	stewardship=
	learning=1
	disallow_random_traits=yes
	1190.1.1={
		birth=yes
	}
	1240.1.1={
		death=yes
	}
}

2390108={
	name="Mochiyasu"
	dynasty=5006 # Tachibana
	father=2390106 # Tachibana Tameshige
#mother=
	religion="buddhist"
	culture="tokai"
#	martial=
#	diplomacy=
#	intrigue=
#	stewardship=
	learning=1
	disallow_random_traits=yes
	1195.1.1={
		birth=yes
	}
	1245.1.1={
		death=yes
	}
}

#----------------------------------------------------------
## Yokochi Clan
#----------------------------------------------------------
2390200={
	name="Ienaga"
	dynasty=6165 # Yokochi
#father=
#mother=
	religion="buddhist"
	culture="tokai"
#	martial=
#	diplomacy=
#	intrigue=
#	stewardship=
	learning=1
	disallow_random_traits=yes
	1053.1.1={
		birth=yes
	}
	1110.1.1={
		death=yes
	}
}

2390210={
	name="Yorikane"
	dynasty=6165 # Yokochi
	father=2390200 # Yokochi Ienaga
#mother=
	religion="buddhist"
	culture="tokai"
#	martial=
#	diplomacy=
#	intrigue=
#	stewardship=
	learning=1
	disallow_random_traits=yes
	1107.1.1={
		birth=yes
	}
	1143.1.1={
		death=yes
	}
}

2390220={
	name="Nagamune"
	dynasty=6165 # Yokochi
	father=2390210 # Yokochi Yorikane
#mother=
	religion="buddhist"
	culture="tokai"
#	martial=
#	diplomacy=
#	intrigue=
#	stewardship=
	learning=1
	disallow_random_traits=yes
	1132.1.1={
		birth=yes
	}
	1176.1.1={
		death=yes
	}
}

2390230={
	name="Nagashige"
	dynasty=6165 # Yokochi
	father=2390220 # Yokochi Nagamune
#mother=
	religion="buddhist"
	culture="tokai"
#	martial=
#	diplomacy=
#	intrigue=
#	stewardship=
	learning=1
	disallow_random_traits=yes
	1162.1.1={
		birth=yes
	}
	1222.1.1={
		death=yes
	}
}

2390235={
	name="Naganao"
	dynasty=6165 # Yokochi
	father=2390230 # Yokochi Nagashige
#	mother=
	religion="buddhist"
	culture="tokai"
	1214.1.1={
		birth=yes
	}
	1276.1.1={
		death=yes
	}
}
2390240={
	name="Moroshige"
	dynasty=6165 # Yokochi
	father=2390235 # Yokochi Naganao
#	mother=
	religion="buddhist"
	culture="tokai"
	1235.1.1={
		birth=yes
	}
	1277.1.1={
		death=yes
	}
}
2390245={
	name="Moronaga"
	dynasty=6165 # Yokochi
	father=2390240 # Yokochi Moroshige
#	mother=
	religion="buddhist"
	culture="tokai"
	1257.1.1={
		birth=yes
	}
	1307.1.1={
		death=yes
	}
}
2390250={
	name="Nagakuni"
	dynasty=6165 # Yokochi
	father=2390245 # Yokochi Moronaga
#	mother=
	religion="buddhist"
	culture="tokai"
	1279.1.1={
		birth=yes
	}
	1332.1.1={
		death=yes
	}
}
2390255={
	name="Naganori"
	dynasty=6165 # Yokochi
	father=2390250 # Yokochi Nagakuni
#	mother=
	religion="buddhist"
	culture="tokai"
	1314.1.1={
		birth=yes
	}
	1361.1.1={
		death=yes
	}
}
2390260={
	name="Ienaga"
	dynasty=6165 # Yokochi
	father=2390255 # Yokochi Naganori
#	mother=
	religion="buddhist"
	culture="tokai"
	1337.1.1={
		birth=yes
	}
	1409.1.1={
		death=yes
	}
}
2390265={
	name="Nagatoyo"
	dynasty=6165 # Yokochi
	father=2390260 # Yokochi Ienaga
#	mother=
	religion="buddhist"
	culture="tokai"
	1383.1.1={
		birth=yes
	}
	1437.1.1={
		death=yes
	}
}
2390270={
	name="Nagayasu"
	dynasty=6165 # Yokochi
	father=2390265 # Yokochi Nagatoyo
#	mother=
	religion="buddhist"
	culture="tokai"
	1413.1.1={
		birth=yes
	}
	1439.1.1={
		death=yes
	}
}
2390275={
	name="Nagahide"
	dynasty=6165 # Yokochi
	father=2390270 # Yokochi Nagayasu
#	mother=
	religion="buddhist"
	culture="tokai"
	1434.1.1={
		birth=yes
	}
	1494.1.1={
		death=yes
	}
}
2390280={
	name="Hidekuni"
	dynasty=6165 # Yokochi
	father=2390275 # Yokochi Nagahide
#	mother=
	religion="buddhist"
	culture="tokai"
	1465.1.1={
		birth=yes
	}
	1506.1.1={
		death=yes
	}
}

#----------------------------------------------------------
## Asaba Clan
#----------------------------------------------------------
2390300={
	name="Munenobu"
	dynasty=6166 # Asaba
#father=
#mother=
	religion="buddhist"
	culture="tokai"
#	martial=
#	diplomacy=
#	intrigue=
#	stewardship=
	learning=1
	disallow_random_traits=yes
	1140.1.1={
		birth=yes
	}
	1190.1.1={
		death=yes
	}
}

#----------------------------------------------------------
## Mikawa, Tomo Clan
#----------------------------------------------------------
2390400={
	name="Yoshio"
	dynasty=5605 # Tomo
#father=
#mother=
	religion="buddhist"
	culture="tokai"
#	martial=
#	diplomacy=
#	intrigue=
#	stewardship=
	learning=5
	disallow_random_traits=yes
	0875.1.1={
		birth=yes
	}
	0950.1.1={
		death=yes
	}
}

2390401={
	name="Sukekiyo"
	dynasty=5605 # Tomo
	father=2390400 # Otomo Yoshio
#mother=
	religion="buddhist"
	culture="tokai"
#	martial=
#	diplomacy=
#	intrigue=
#	stewardship=
	learning=5
	disallow_random_traits=yes
	0900.1.1={
		birth=yes
	}
	0975.1.1={
		death=yes
	}
}

2390402={
	name="Kiyotsune"
	dynasty=5605 # Tomo
	father=2390400 # Otomo Yoshio
#mother=
	religion="buddhist"
	culture="tokai"
#	martial=
#	diplomacy=
#	intrigue=
#	stewardship=
	learning=5
	disallow_random_traits=yes
	0905.1.1={
		birth=yes
	}
	0977.1.1={
		death=yes
	}
}

2390403={
	name="Kiyochika"
	dynasty=5605 # Tomo
	father=2390400 # Otomo Yoshio
#mother=
	religion="buddhist"
	culture="tokai"
#	martial=
#	diplomacy=
#	intrigue=
#	stewardship=
	learning=5
	disallow_random_traits=yes
	0910.1.1={
		birth=yes
	}
	0980.1.1={
		death=yes
	}
}

2390404={
	name="Yorisuke"
	dynasty=5605 # Tomo
	father=2390401 # Otomo Sukekiyo
#mother=
	religion="buddhist"
	culture="tokai"
#	martial=
#	diplomacy=
#	intrigue=
#	stewardship=
	learning=4
	disallow_random_traits=yes
	0925.1.1={
		birth=yes
	}
	1000.1.1={
		death=yes
	}
}

2390405={
	name="Chikataka"
	dynasty=5605 # Tomo
	father=2390401 # Otomo Sukekiyo
#mother=
	religion="buddhist"
	culture="tokai"
#	martial=
#	diplomacy=
#	intrigue=
#	stewardship=
	learning=4
	disallow_random_traits=yes
	0932.1.1={
		birth=yes
	}
	1002.1.1={
		death=yes
	}
}

2390406={
	female=yes
	name="Yana"
	dynasty=5605 # Tomo
	father=2390401 # Otomo Sukekiyo
#mother=
	religion="buddhist"
	culture="tokai"
#	martial=
#	diplomacy=
#	intrigue=
#	stewardship=
	learning=4
	disallow_random_traits=yes
	0917.1.1={
		birth=yes
	}
	0977.1.1={
		death=yes
	}
}

2390410={
	name="Mitsukane"
	dynasty=5605 # Tomo
	father=2390404 # Otomo Yorisuke
#mother=
	religion="buddhist"
	culture="tokai"
#	martial=
#	diplomacy=
#	intrigue=
#	stewardship=
	learning=4
	disallow_random_traits=yes
	0975.1.1={
		birth=yes
	}
	1025.1.1={
		death=yes
	}
}

2390411={
	name="Kunisuke"
	dynasty=5605 # Tomo
	father=2390410 # Otomo Mitsukane
#mother=
	religion="buddhist"
	culture="tokai"
#	martial=
#	diplomacy=
#	intrigue=
#	stewardship=
	learning=3
	disallow_random_traits=yes
	1000.1.1={
		birth=yes
	}
	1050.1.1={
		death=yes
	}
}

2390412={
	name="Sukenaga"
	dynasty=5605 # Tomo
	father=2390410 # Otomo Mitsukane
#mother=
	religion="buddhist"
	culture="tokai"
#	martial=
#	diplomacy=
#	intrigue=
#	stewardship=
	learning=3
	disallow_random_traits=yes
	1002.1.1={
		birth=yes
	}
	1052.1.1={
		death=yes
	}
}

2390413={
	name="Sukeshige"
	dynasty=5605 # Tomo
	father=2390410 # Otomo Mitsukane
#mother=
	religion="buddhist"
	culture="tokai"
#	martial=
#	diplomacy=
#	intrigue=
#	stewardship=
	learning=3
	disallow_random_traits=yes
	1003.1.1={
		birth=yes
	}
	1053.1.1={
		death=yes
	}
}

2390414={
	name="Sukemoto"
	dynasty=5605 # Tomo
	father=2390411 # Otomo Kunisuke
#mother=
	religion="buddhist"
	culture="tokai"
#	martial=
#	diplomacy=
#	intrigue=
#	stewardship=
	learning=3
	disallow_random_traits=yes
	1025.1.1={
		birth=yes
	}
	1075.1.1={
		death=yes
	}
}

2390415={
	name="Sanehira"
	dynasty=5605 # Tomo
	father=2390414 # Otomo Sukemoto
#mother=
	religion="buddhist"
	culture="tokai"
#	martial=
#	diplomacy=
#	intrigue=
#	stewardship=
	learning=2
	disallow_random_traits=yes
	1050.1.1={
		birth=yes
	}
	1100.1.1={
		death=yes
	}
}

2390416={
	name="Sukeyasu"
	dynasty=5605 # Tomo
	father=2390414 # Otomo Sukemoto
#mother=
	religion="buddhist"
	culture="tokai"
#	martial=
#	diplomacy=
#	intrigue=
#	stewardship=
	learning=2
	disallow_random_traits=yes
	1055.1.1={
		birth=yes
	}
	1105.1.1={
		death=yes
	}
}

2390417={
	name="Suketo"
	dynasty=5605 # Tomo
	father=2390416 # Otomo Sukeyasu
#mother=
	religion="buddhist"
	culture="tokai"
#	martial=
#	diplomacy=
#	intrigue=
#	stewardship=
	learning=2
	disallow_random_traits=yes
	1080.1.1={
		birth=yes
	}
	1130.1.1={
		death=yes
	}
}

2390420={
	name="Sukehira"
	dynasty=5605 # Tomo
	father=2390413 # Otomo Sukeshige
#mother=
	religion="buddhist"
	culture="tokai"
#	martial=
#	diplomacy=
#	intrigue=
#	stewardship=
	learning=2
	disallow_random_traits=yes
	1028.1.1={
		birth=yes
	}
	1078.1.1={
		death=yes
	}
}

2390421={
	name="Suketaka"
	dynasty=5605 # Tomo
	father=2390413 # Otomo Sukeshige
#mother=
	religion="buddhist"
	culture="tokai"
#	martial=
#	diplomacy=
#	intrigue=
#	stewardship=
	learning=2
	disallow_random_traits=yes
	1030.1.1={
		birth=yes
	}
	1080.1.1={
		death=yes
	}
}

2390422={
	name="Suketada"
	dynasty=5605 # Tomo
	father=2390420 # Otomo Sukehira
#mother=
	religion="buddhist"
	culture="tokai"
#	martial=
#	diplomacy=
#	intrigue=
#	stewardship=
	learning=1
	disallow_random_traits=yes
	1053.1.1={
		birth=yes
	}
	1103.1.1={
		death=yes
	}
}

2390423={
	name="Chikasuke"
	dynasty=5605 # Tomo
	father=2390422 # Otomo Suketada
#mother=
	religion="buddhist"
	culture="tokai"
#	martial=
#	diplomacy=
#	intrigue=
#	stewardship=
	learning=1
	disallow_random_traits=yes
	1078.1.1={
		birth=yes
	}
	1128.1.1={
		death=yes
	}
}

2390424={
	name="Chikashige"
	dynasty=5605 # Tomo
	father=2390423 # Otomo Chikasuke
#mother=
	religion="buddhist"
	culture="tokai"
#	martial=
#	diplomacy=
#	intrigue=
#	stewardship=
	learning=1
	disallow_random_traits=yes
	1103.1.1={
		birth=yes
	}
	1153.1.1={
		death=yes
	}
}

2390425={
	name="Mitsuhira"
	dynasty=5605 # Tomo
	father=2390423 # Otomo Chikasuke
#mother=
	religion="buddhist"
	culture="tokai"
#	martial=
#	diplomacy=
#	intrigue=
#	stewardship=
	learning=1
	disallow_random_traits=yes
	1104.1.1={
		birth=yes
	}
	1154.1.1={
		death=yes
	}
}

2390426={
	name="Sukeyoshi"
	dynasty=5605 # Tomo
	father=2390423 # Otomo Chikasuke
#mother=
	religion="buddhist"
	culture="tokai"
#	martial=
#	diplomacy=
#	intrigue=
#	stewardship=
	learning=1
	disallow_random_traits=yes
	1105.1.1={
		birth=yes
	}
	1155.1.1={
		death=yes
	}
}

2390427={
	name="Chikahira"
	dynasty=5605 # Tomo
	father=2390425 # Otomo Mitsuhira
#mother=
	religion="buddhist"
	culture="tokai"
#	martial=
#	diplomacy=
#	intrigue=
#	stewardship=
	learning=1
	disallow_random_traits=yes
	1129.1.1={
		birth=yes
	}
	1179.1.1={
		death=yes
	}
}

2390428={
	name="Sukeshige"
	dynasty=5605 # Tomo
	father=2390427 # Otomo Chikahira
#mother=
	religion="buddhist"
	culture="tokai"
#	martial=
#	diplomacy=
#	intrigue=
#	stewardship=
	learning=1
	disallow_random_traits=yes
	1149.1.1={
		birth=yes
	}
	1199.1.1={
		death=yes
	}
}

2390430={
	name="Sukeyuki"
	dynasty=5605 # Tomo
	father=2390421 # Otomo Suketaka
#mother=
	religion="buddhist"
	culture="tokai"
#	martial=
#	diplomacy=
#	intrigue=
#	stewardship=
	learning=1
	disallow_random_traits=yes
	1055.1.1={
		birth=yes
	}
	1105.1.1={
		death=yes
	}
}

2390431={
	name="Sukenaga"
	dynasty=5605 # Tomo
	father=2390421 # Otomo Suketaka
#mother=
	religion="buddhist"
	culture="tokai"
#	martial=
#	diplomacy=
#	intrigue=
#	stewardship=
	learning=1
	disallow_random_traits=yes
	1057.1.1={
		birth=yes
	}
	1107.1.1={
		death=yes
	}
}

2390432={
	name="Sukechika"
	dynasty=5605 # Tomo
	father=2390421 # Otomo Suketaka
#mother=
	religion="buddhist"
	culture="tokai"
#	martial=
#	diplomacy=
#	intrigue=
#	stewardship=
	learning=1
	disallow_random_traits=yes
	1058.1.1={
		birth=yes
	}
	1108.1.1={
		death=yes
	}
}

2390433={
	name="Sukekane"
	dynasty=5605 # Tomo
	father=2390421 # Otomo Suketaka
#mother=
	religion="buddhist"
	culture="tokai"
#	martial=
#	diplomacy=
#	intrigue=
#	stewardship=
	learning=1
	disallow_random_traits=yes
	1060.1.1={
		birth=yes
	}
	1120.1.1={
		death=yes
	}
}

2390434={
	female=yes
	name="Mikawa"
	dynasty=5605 # Tomo
	father=2390421 # Otomo Suketaka
#mother=
	religion="buddhist"
	culture="tokai"
#	martial=
#	diplomacy=
#	intrigue=
#	stewardship=
	learning=1
	disallow_random_traits=yes
	1062.1.1={
		birth=yes
	}
	1112.1.1={
		death=yes
	}
}

2390435={
	name="Masahiro"
	dynasty=5605 # Tomo
	father=2390421 # Otomo Suketaka
#mother=
	religion="buddhist"
	culture="tokai"
#	martial=
#	diplomacy=
#	intrigue=
#	stewardship=
	learning=1
	disallow_random_traits=yes
	1065.1.1={
		birth=yes
	}
	1115.1.1={
		death=yes
	}
}

2390436={
	name="Masakane"
	dynasty=5605 # Tomo
	father=2390421 # Otomo Suketaka
#mother=
	religion="buddhist"
	culture="tokai"
#	martial=
#	diplomacy=
#	intrigue=
#	stewardship=
	learning=1
	disallow_random_traits=yes
	1070.1.1={
		birth=yes
	}
	1080.1.1={
		add_trait="monk"
		effect = { set_character_flag = has_monk_name }
	}
	1120.1.1={
		death=yes
	}
}

2390440={
	name="Sukehiro"
	dynasty=5605 # Tomo
	father=2390430 # Otomo Sukeyuki
#mother=
	religion="buddhist"
	culture="tokai"
#	martial=
#	diplomacy=
#	intrigue=
#	stewardship=
	learning=1
	disallow_random_traits=yes
	1080.1.1={
		birth=yes
	}
	1130.1.1={
		death=yes
	}
}

2390441={
	name="Sukemitsu"
	dynasty=5605 # Tomo
	father=2390431 # Otomo Sukenaga
#mother=
	religion="buddhist"
	culture="tokai"
#	martial=
#	diplomacy=
#	intrigue=
#	stewardship=
	learning=1
	disallow_random_traits=yes
	1082.1.1={
		birth=yes
	}
	1132.1.1={
		death=yes
	}
}

2390442={
	name="Masachika"
	dynasty=5605 # Tomo
	father=2390432 # Otomo Sukechika
#mother=
	religion="buddhist"
	culture="tokai"
#	martial=
#	diplomacy=
#	intrigue=
#	stewardship=
	learning=1
	disallow_random_traits=yes
	1098.1.1={
		birth=yes
	}
	1148.1.1={
		death=yes
	}
}

2390443={
	name="Chikakane"
	dynasty=5605 # Tomo
	father=2390433 # Tomo Sukekane
#mother=
	religion="buddhist"
	culture="tokai"
#	martial=
#	diplomacy=
#	intrigue=
#	stewardship=
	learning=1
	disallow_random_traits=yes
	1100.1.1={
		birth=yes
	}
	1160.1.1={
		death=yes
	}
}

2390444={
	female=yes
	name="Sukeko"
	dynasty=5605 # Tomo
	father=2390433 # Tomo Sukekane
#mother=
	religion="buddhist"
	culture="tokai"
#	martial=
#	diplomacy=
#	intrigue=
#	stewardship=
	learning=1
	disallow_random_traits=yes
	1102.1.1={
		birth=yes
	}
	1152.1.1={
		death=yes
	}
}

2390445={
	name="Sukechika"
	dynasty=5605 # Tomo
	father=2390433 # Tomo Sukekane
#mother=
	religion="buddhist"
	culture="tokai"
#	martial=
#	diplomacy=
#	intrigue=
#	stewardship=
	learning=1
	disallow_random_traits=yes
	1105.1.1={
		birth=yes
	}
	1155.1.1={
		death=yes
	}
}

2390446={
	name="Chikatada"
	dynasty=5605 # Tomo
	father=2390433 # Tomo Sukekane
#mother=
	religion="buddhist"
	culture="tokai"
#	martial=
#	diplomacy=
#	intrigue=
#	stewardship=
	learning=1
	disallow_random_traits=yes
	1109.1.1={
		birth=yes
	}
	1159.1.1={
		death=yes
	}
}

2390447={
	name="Sukemasa"
	dynasty=5605 # Tomo
	father=2390433 # Tomo Sukekane
#mother=
	religion="buddhist"
	culture="tokai"
#	martial=
#	diplomacy=
#	intrigue=
#	stewardship=
	learning=1
	disallow_random_traits=yes
	1110.1.1={
		birth=yes
	}
	1139.2.1={
		death={
			death_reason = death_battle
		}
	}
}

2390448={
	name="Iechika"
	dynasty=5605 # Tomo
	father=2390445 # Otomo Sukechika
#mother=
	religion="buddhist"
	culture="tokai"
#	martial=
#	diplomacy=
#	intrigue=
#	stewardship=
	learning=1
	disallow_random_traits=yes
	1130.1.1={
		birth=yes
	}
	1180.1.1={
		death=yes
	}
}

2390449={
	name="Ietsugu"
	dynasty=5605 # Tomo
	father=2390448 # Otomo Iechika
#mother=
	religion="buddhist"
	culture="tokai"
#	martial=
#	diplomacy=
#	intrigue=
#	stewardship=
	learning=1
	disallow_random_traits=yes
	1155.1.1={
		birth=yes
	}
	1205.1.1={
		death=yes
	}
}

2390450={
	name="Sukekane"
	dynasty=5605 # Tomo
	father=2390443 # Tomo Chikakane
#mother=
	religion="buddhist"
	culture="tokai"
#	martial=
#	diplomacy=
#	intrigue=
#	stewardship=
	learning=1
	disallow_random_traits=yes
	1119.1.1={
		birth=yes
	}
	1169.1.1={
		death=yes
	}
}

2390451={
	name="Toshizane"
	dynasty=6164 # Shitara
	father=2390443 # Tomo Chikakane
#mother=
	religion="buddhist"
	culture="tokai"
#	martial=
#	diplomacy=
#	intrigue=
#	stewardship=
	learning=1
	disallow_random_traits=yes
	1120.1.1={
		birth=yes
	}
	1204.1.1={
		death=yes
	}
}

2390452={
	name="Sadayasu"
	dynasty=5605 # Tomo
	father=2390443 # Tomo Chikakane
#mother=
	religion="buddhist"
	culture="tokai"
#	martial=
#	diplomacy=
#	intrigue=
#	stewardship=
	learning=1
	disallow_random_traits=yes
	1125.1.1={
		birth=yes
	}
	1175.1.1={
		death=yes
	}
}

2390453={
	name="Sukeie"
	dynasty=5605 # Tomo
	father=2390450 # Tomo Sukekane
#mother=
	religion="buddhist"
	culture="tokai"
#	martial=
#	diplomacy=
#	intrigue=
#	stewardship=
	learning=1
	disallow_random_traits=yes
	1144.1.1={
		birth=yes
	}
	1194.1.1={
		death=yes
	}
}

2390460={
	name="Suketoki"
	dynasty=6164 # Shitara
	father=2390451 # Shitara Toshizane
#mother=
	religion="buddhist"
	culture="tokai"
#	martial=
#	diplomacy=
#	intrigue=
#	stewardship=
	learning=1
	disallow_random_traits=yes
	1150.1.1={
		birth=yes
	}
	1205.1.1={
		death=yes
	}
}

2390461={
	name="Suketaka"
	dynasty=6164 # Shitara
	father=2390451 # Shitara Toshizane
#mother=
	religion="buddhist"
	culture="tokai"
#	martial=
#	diplomacy=
#	intrigue=
#	stewardship=
	learning=1
	disallow_random_traits=yes
	1152.1.1={
		birth=yes
	}
	1212.1.1={
		death=yes
	}
}

2390462={
	name="Sukenori"
	dynasty=6164 # Shitara
	father=2390451 # Shitara Toshizane
#mother=
	religion="buddhist"
	culture="tokai"
#	martial=
#	diplomacy=
#	intrigue=
#	stewardship=
	learning=1
	disallow_random_traits=yes
	1154.1.1={
		birth=yes
	}
	1204.1.1={
		death=yes
	}
}

2390463={
	name="Sanetoki"
	dynasty=6164 # Shitara
	father=2390451 # Shitara Toshizane
#mother=
	religion="buddhist"
	culture="tokai"
#	martial=
#	diplomacy=
#	intrigue=
#	stewardship=
	learning=1
	disallow_random_traits=yes
	1156.1.1={
		birth=yes
	}
	1206.1.1={
		death=yes
	}
}

2390464={
	name="Sukenari"
	dynasty=6164 # Shitara
	father=2390451 # Shitara Toshizane
#mother=
	religion="buddhist"
	culture="tokai"
#	martial=
#	diplomacy=
#	intrigue=
#	stewardship=
	learning=1
	disallow_random_traits=yes
	1158.1.1={
		birth=yes
	}
	1208.1.1={
		death=yes
	}
}

2390465={
	name="Sukemitsu"
	dynasty=6164 # Shitara
	father=2390451 # Shitara Toshizane
#mother=
	religion="buddhist"
	culture="tokai"
#	martial=
#	diplomacy=
#	intrigue=
#	stewardship=
	learning=1
	disallow_random_traits=yes
	1175.1.1={
		birth=yes
	}
	1225.1.1={
		death=yes
	}
}

2390466={
	name="Suketomo"
	dynasty=6164 # Shitara
	father=2390451 # Shitara Toshizane
#mother=
	religion="buddhist"
	culture="tokai"
#	martial=
#	diplomacy=
#	intrigue=
#	stewardship=
	learning=1
	disallow_random_traits=yes
	1177.1.1={
		birth=yes
	}
	1227.1.1={
		death=yes
	}
}

2390467={
	name="Suketoshi"
	dynasty=6164 # Shitara
	father=2390451 # Shitara Toshizane
#mother=
	religion="buddhist"
	culture="tokai"
#	martial=
#	diplomacy=
#	intrigue=
#	stewardship=
	learning=1
	disallow_random_traits=yes
	1179.1.1={
		birth=yes
	}
	1229.1.1={
		death=yes
	}
}

2390470={
	name="Suketsugu"
	dynasty=6164 # Shitara
	father=2390460 # Shitara Suketoki
#mother=
	religion="buddhist"
	culture="tokai"
#	martial=
#	diplomacy=
#	intrigue=
#	stewardship=
	learning=1
	disallow_random_traits=yes
	1180.1.1={
		birth=yes
	}
	1240.1.1={
		death=yes
	}
}

2390471={
	name="Sukeshige"
	dynasty=6164 # Shitara
	father=2390460 # Shitara Suketoki
#mother=
	religion="buddhist"
	culture="tokai"
#	martial=
#	diplomacy=
#	intrigue=
#	stewardship=
	learning=1
	disallow_random_traits=yes
	1182.1.1={
		birth=yes
	}
	1232.1.1={
		death=yes
	}
}

#----------------------------------------------------------
## Totomi, Ii Clan
#----------------------------------------------------------

2390500 = {
	name="Tomoyasu"
	dynasty=233 # Ii
#	father=
	religion="buddhist"
	culture="tokai"
	1010.1.18={
		birth=yes
	}
	1093.9.8={
		death=yes
	}
}
2390501 = {
	name="Tomomune"
	dynasty=233 # Ii
	father=2390500
	religion="buddhist"
	culture="tokai"
	1030.1.1={
		birth=yes
	}
	1090.1.1={
		death=yes
	}
}
2390502 = {
	name="Tomotsuna"
	dynasty=233 # Ii
	father=2390501
	religion="buddhist"
	culture="tokai"
	1050.1.1={
		birth=yes
	}
	1110.1.1={
		death=yes
	}
}
2390503 = {
	name="Tomoaki"
	dynasty=233 # Ii
	father=2390502
	religion="buddhist"
	culture="tokai"
	1075.1.1={
		birth=yes
	}
	1147.1.1={
		death=yes
	}
}
2390504 = {
	name="Tomoie"
	dynasty=233 # Ii
	father=2390503
	religion="buddhist"
	culture="tokai"
	1095.1.1={
		birth=yes
	}
	1165.10.8={
		death=yes
	}
}
2390505 = {
	name="Tomonao"
	dynasty=233 # Ii
	father=2390504
	religion="buddhist"
	culture="tokai"
	1120.1.1={
		birth=yes
	}
	1180.1.1={
		death=yes
	}
}
2390506 = {
	name="Koretomo"
	dynasty=233 # Ii
	father=2390504
	religion="buddhist"
	culture="tokai"
	1122.1.1={
		birth=yes
	}
	1170.1.1={
		death=yes
	}
}
2390507 = {
	name="Korenao"
	dynasty=233 # Ii
	father=2390505
	religion="buddhist"
	culture="tokai"
	1150.1.1={
		birth=yes
	}
	1210.1.1={
		death=yes
	}
}
2390508 = {
	name="Morinao"
	dynasty=233 # Ii
	father=2390507
	religion="buddhist"
	culture="tokai"
	1180.1.1={
		birth=yes
	}
	1240.1.1={
		death=yes
	}
}
2390509 = {
	name="Yoshinao"
	dynasty=233 # Ii
	father=2390508
	religion="buddhist"
	culture="tokai"
	1210.1.1={
		birth=yes
	}
	1270.1.1={
		death=yes
	}
}
2390510 = {
	name="Iyanao"
	dynasty=233 # Ii
	father=2390509
	religion="buddhist"
	culture="tokai"
	1240.1.1={
		birth=yes
	}
	1300.1.1={
		death=yes
	}
}
2390511 = {
	name="Yasunao"
	dynasty=233 # Ii
	father=2390510
	religion="buddhist"
	culture="tokai"
	1270.1.1={
		birth=yes
	}
	1330.1.1={
		death=yes
	}
}
2390512 = {
	name="Yukinao"
	dynasty=233 # Ii
	father=2390511
	religion="buddhist"
	culture="tokai"
	1309.1.1={
		birth=yes
	}
	1404.1.1={
		death=yes
	}
}
2390513 = {
	name="Kagenao"
	dynasty=233 # Ii
	father=2390512
	religion="buddhist"
	culture="tokai"
	1370.1.1={
		birth=yes
	}
	1430.1.1={
		death=yes
	}
}
2390514 = {
	name="Tadanao"
	dynasty=233 # Ii
	father=2390513
	religion="buddhist"
	culture="tokai"
	1410.1.1={
		birth=yes
	}
	1485.1.1={
		death=yes
	}
}

2390550 = {
	name="Munemasu"
	dynasty=7157 # Matsuba
	father=2390506
	religion="buddhist"
	culture="tokai"
	1145.1.1={
		birth=yes
	}
	1180.1.1={
		employer=110140 # Taira Kiyosada
	}
	1181.12.14={
		death=yes
	}
}
2390551 = {
	name="Sukemune"
	dynasty=7157 # Matsuba
	father=2390550
	religion="buddhist"
	culture="tokai"
	1170.1.1={
		birth=yes
	}
	1180.1.1={
		employer=110140 # Taira Kiyosada
	}
	1266.2.12={
		death=yes
	}
}

#----------------------------------------------------------
## Suruga=Okabe Clan
#----------------------------------------------------------

2390600 = {
	name = "Yasutsuna"
	dynasty = 7212	# Okabe
	religion = "buddhist"
	culture = "tokai"
	father = 130112	#Funakoshi Kiyotsuna
	1110.1.1 = {
		birth = yes
	}
	1190.1.1 = {
		death = yes
	}
}

2390605 = {
	name = "Tadatsuna"
	dynasty = 7212	# Okabe
	religion = "buddhist"
	culture = "tokai"
	father = 2390600 # Okabe Yasutsuna
	1130.1.1 = {
		birth = yes
	}
	1190.1.1 = {
		death = yes
	}
}

2390610 = {
	name = "Tokitsuna"
	dynasty = 7212	# Okabe
	religion = "buddhist"
	culture = "tokai"
	father = 2390605 # Okabe Tadatsuna
	1160.1.1 = {
		birth = yes
	}
	1220.1.1 = {
		death = yes
	}
}



2390611={
	name="Nagatsuna"
	dynasty=7212 # Okabe
	father=2390605 # Okabe Tadatsuna
#	mother=
	religion="buddhist"
	culture="tokai"
	1180.1.1={
		birth=yes
	}
	1240.1.1={
		death=yes
	}
}
2390615={
	name="Ietsuna"
	dynasty=7212 # Okabe
	father=2390611 # Okabe Nagatsuna
#	mother=
	religion="buddhist"
	culture="tokai"
	1210.1.1={
		birth=yes
	}
	1270.1.1={
		death=yes
	}
}
2390620={
	name="Yasutsuna"
	dynasty=7212 # Okabe
	father=2390615 # Okabe Ietsuna
#	mother=
	religion="buddhist"
	culture="tokai"
	1250.1.1={
		birth=yes
	}
	1310.1.1={
		death=yes
	}
}
2390625={
	name="Terutsuna"
	dynasty=7212 # Okabe
	father=2390620 # Okabe Yasutsuna
#	mother=
	religion="buddhist"
	culture="tokai"
	1280.1.1={
		birth=yes
	}
	1340.1.1={
		death=yes
	}
}
2390630={
	name="Tokitsuna"
	dynasty=7212 # Okabe
	father=2390625 # Okabe Terutsuna
#	mother=
	religion="buddhist"
	culture="tokai"
	1320.1.1={
		birth=yes
	}
	1380.1.1={
		death=yes
	}
}
2390635={
	name="Nagatsuna"
	dynasty=7212 # Okabe
	father=2390630 # Okabe Tokitsuna
#	mother=
	religion="buddhist"
	culture="tokai"
	1350.1.1={
		birth=yes
	}
	1410.1.1={
		death=yes
	}
}
2390640={
	name="Yoshinobu"
	dynasty=7212 # Okabe
	father=2390635 # Okabe Nagatsuna
#	mother=
	religion="buddhist"
	culture="tokai"
	1390.1.1={
		birth=yes
	}
	1450.1.1={
		death=yes
	}
}
2390645={
	name="Yoshitsuna"
	dynasty=7212 # Okabe
	father=2390640 # Okabe Yoshinobu
#	mother=
	religion="buddhist"
	culture="tokai"
	1420.1.1={
		birth=yes
	}
	1480.1.1={
		death=yes
	}
}
2390646={
	name="IzumiNoKami"
	dynasty=7212 # Okabe
	father=2390640 # Okabe Yoshinobu
#	mother=
	religion="buddhist"
	culture="tokai"
	1430.1.1={
		birth=yes
	}
	1490.1.1={
		death=yes
	}
}

#----------------------------------------------------------
## Suruga=Maki Clan
#----------------------------------------------------------

2390700={
	name="Munechika"
	dynasty=7213 # Maki
#	father=
#	mother=
	religion="buddhist"
	culture="tokai"
	add_trait = "underhanded_rogue"
	1130.1.1={
		birth=yes
	}
	1180.6.15={
		employer = 120075 # Minamoto Yoritomo
	}
	1190.1.1={
		death=yes
	}
}
2390701={
	name="Tokichika"
	dynasty=7213 # Maki
	father=2390700 # 
#	mother=
	religion="buddhist"
	culture="tokai"
	add_trait = "underhanded_rogue"
	1160.1.1={
		birth=yes
	}
	1180.6.15={
		employer = 120075 # Minamoto Yoritomo
	}
	1210.1.1={
		death=yes
	}
}
2390702={
	name="Makinokata"
	female=yes
	dynasty=7213 # Maki
	father=2390700 # 
#	mother=
	religion="buddhist"
	culture="tokai"
	add_trait = "intricate_webweaver"
	1162.1.1={
		birth=yes
	}
	1230.1.1={
		death=yes
	}
}

#----------------------------------------------------------
## Totomi=Katsumata Clan
#----------------------------------------------------------

2390800={
	name="Narinaga"
	dynasty=7214 # Katsumata
#	father=
#	mother=
	religion="buddhist"
	culture="tokai"
	1164.1.1={
		birth=yes
	}
	1220.1.1={
		death=yes
	}
}

#----------------------------------------------------------
## Kondo Clan
#----------------------------------------------------------

2390900={
	name="Kunishige"
	dynasty=6042 # Kondo
	father=130535 # Kondo Kunihira
#	mother=
	religion="buddhist"
	culture="tokai"
	1200.1.1={
		birth=yes
	}
	1260.1.1={
		death=yes
	}
}
2390901={
	name="Kunitsune"
	dynasty=6042 # Kondo
	father=2390900 # Kondo Kunishige
#	mother=
	religion="buddhist"
	culture="tokai"
	1240.1.1={
		birth=yes
	}
	1300.1.1={
		death=yes
	}
}
2390905={
	name="Munemitsu"
	dynasty=6042 # Kondo
	father=2390901 # Kondo Kunitsune
#	mother=
	religion="buddhist"
	culture="tokai"
	1280.1.1={
		birth=yes
	}
	1325.1.1={
		death=yes
	}
}
2390906={
	name="Kunimitsu"
	dynasty=6042 # Kondo
	father=2390901 # Kondo Kunitsune
#	mother=
	religion="buddhist"
	culture="tokai"
	1282.1.1={
		birth=yes
	}
	1340.1.1 ={
		death=yes
	}
}
2390910={
	name="Shigetaka"
	dynasty=6042 # Kondo
	father=2390906 # Kondo Munemitsu
#	mother=
	religion="buddhist"
	culture="tokai"
	1310.1.1={
		birth=yes
	}
	1370.1.1={
		death=yes
	}
}
2390915={
	name="Nagayasu"
	dynasty=6042 # Kondo
	father=2390910 # Kondo Shigetaka
#	mother=
	religion="buddhist"
	culture="tokai"
	1340.1.1={
		birth=yes
	}
	1400.1.1={
		death=yes
	}
}
2390920={
	name="Kageyoshi"
	dynasty=6042 # Kondo
	father=2390915 # Kondo Nagayasu
#	mother=
	religion="buddhist"
	culture="tokai"
	1370.1.1={
		birth=yes
	}
	1430.1.1={
		death=yes
	}
}
2390925={
	name="Yoshiyuki"
	dynasty=6042 # Kondo
	father=2390920 # Kondo Kageyoshi
#	mother=
	religion="buddhist"
	culture="tokai"
	1400.1.1={
		birth=yes
	}
	1460.1.1={
		death=yes
	}
}
2390930={
	name="Kageshige"
	dynasty=6042 # Kondo
	father=2390925 # Kondo Yoshiyuki
#	mother=
	religion="buddhist"
	culture="tokai"
	1430.1.1={
		birth=yes
	}
	1490.1.1={
		death=yes
	}
}
2390935={
	name="Kagemasa"
	dynasty=6042 # Kondo
	father=2390930 # Kondo Kageshige
#	mother=
	religion="buddhist"
	culture="tokai"
	1460.1.1={
		birth=yes
	}
	1520.1.1={
		death=yes
	}
}
2390940={
	name="Korekage"
	dynasty=6042 # Kondo
	father=2390935 # Kondo Kagemasa
#	mother=
	religion="buddhist"
	culture="tokai"
	1490.1.1={
		birth=yes
	}
	1540.1.1={
		death=yes
	}
}
2390945={
	name="Kageharu"
	dynasty=6042 # Kondo
	father=2390940 # Kondo Korekage
#	mother=
	religion="buddhist"
	culture="tokai"
	1520.1.1={
		birth=yes
	}
	1560.6.24={
		death={
			death_reason = death_battle
		}
	}
}

#----------------------------------------------------------
## Suruga=Omori Clan
#----------------------------------------------------------
2391000={
	name="Koreyasu"
	dynasty=165 # Omori
#	father=
#	mother=
	religion="buddhist"
	culture="tokai"
	1040.1.1={
		birth=yes
	}
	1100.1.1={
		death=yes
	}
}

2391005={
	name="Chikayasu"
	dynasty=165 # Omori
	father=2391000 # Omori Koreyasu
#	mother=
	religion="buddhist"
	culture="tokai"
	1080.1.1={
		birth=yes
	}
	1140.1.1={
		death=yes
	}
}

2391006={
	name="Korekane"
	dynasty=236 # Katsurayama
	father=2391000 # Omori Koreyasu
#	mother=
	religion="buddhist"
	culture="tokai"
	1082.1.1={
		birth=yes
	}
	1140.1.1={
		death=yes
	}
}

2391010={
	name="Chikaie"
	dynasty=165 # Omori
	father=2391005 # Omori Chikayasu
#	mother=
	religion="buddhist"
	culture="tokai"
	1110.1.1={
		birth=yes
	}
	1170.1.1={
		death=yes
	}
}

2391015={
	name="Yoritada"
	dynasty=165 # Omori
	father=2391010 # Omori Chikaie
#	mother=
	religion="buddhist"
	culture="tokai"
	1140.1.1={
		birth=yes
	}
	1200.1.1={
		death=yes
	}
}

2391020={
	name="Moritada"
	dynasty=165 # Omori
	father=2391015 # Omori Yoritada
#	mother=
	religion="buddhist"
	culture="tokai"
	1170.1.1={
		birth=yes
	}
	1230.1.1={
		death=yes
	}
}

2391025={
	name="Yorimori"
	dynasty=165 # Omori
	father=2391020 # Omori Moritada
#	mother=
	religion="buddhist"
	culture="tokai"
	1200.1.1={
		birth=yes
	}
	1260.1.1={
		death=yes
	}
}

2391030={
	name="Tsuneyori"
	dynasty=165 # Omori
	father=2391025 # Omori Yorimori
#	mother=
	religion="buddhist"
	culture="tokai"
	1230.1.1={
		birth=yes
	}
	1290.1.1={
		death=yes
	}
}

2391035={
	name="Koreyori"
	dynasty=165 # Omori
	father=2391030 # Omori Tsuneyori
#	mother=
	religion="buddhist"
	culture="tokai"
	1260.1.1={
		birth=yes
	}
	1320.1.1={
		death=yes
	}
}

2391040={
	name="Yoriaki"
	dynasty=165 # Omori
	father=2391035 # Omori Koreyori
#	mother=
	religion="buddhist"
	culture="tokai"
	1290.1.1={
		birth=yes
	}
	1340.1.1={
		death=yes
	}
}

2391045={
	name="Fujiyori"
	dynasty=165 # Omori
	father=2391040 # Omori Yoriaki
#	mother=
	religion="buddhist"
	culture="tokai"
	1320.1.1={
		birth=yes
	}
	1370.1.1={
		death=yes
	}
}

2391050={
	name="Yoriaki"
	dynasty=165 # Omori
	father=2391045 # Omori Fujiyori
#	mother=
	religion="buddhist"
	culture="tokai"
	1340.1.1={
		birth=yes
	}
	1400.1.1={
		death=yes
	}
}

#----------------------------------------------------------
## Suruga=Katsurayama Clan
#----------------------------------------------------------

2391100={
	name="Koretada"
	dynasty=236 # Katsurayama
	father=2391006 # Katsurayama Korekane
#	mother=
	religion="buddhist"
	culture="tokai"
	add_trait="scholarly_theologian"
	1120.1.1={
		birth=yes
	}
	1190.1.1={
		death=yes
	}
}

2391105={
	name="Koreshige"
	dynasty=236 # Katsurayama
	father=2391100 # Katsurayama Koretada
#	mother=
	religion="buddhist"
	culture="tokai"
	martial=8
	add_trait="tough_soldier"
	1150.1.1={
		birth=yes
	}
	1210.1.1={
		death=yes
	}
}

2391106={
	name="Korehira"
	dynasty=236 # Katsurayama
	father=2391100 # Katsurayama Koretada
#	mother=
	religion="buddhist"
	culture="tokai"
	martial=7
	add_trait="skilled_tactician"
	add_trait="brave"
	1152.1.1={
		birth=yes
	}
	1180.11.26={
		employer = 120075 # Minamoto Yoritomo
	}
	1189.11.15 = {
		dynasty=7322 # Yuri
	}
	1190.1.1={
		death=yes
	}
}

2391107={
	name="Kagetada"
	dynasty=236 # Katsurayama
	father=2391100 # Katsurayama Koretada
#	mother=
	religion="buddhist"
	culture="tokai"
	1154.1.1={
		birth=yes
	}
	1210.1.1={
		death=yes
	}
}

2391110={
	name="Korehisa"
	dynasty=236 # Katsurayama
	father=2391106 # Katsurayama Korehira
#	mother=
	religion="buddhist"
	culture="tokai"
	1180.1.1={
		birth=yes
	}
	1189.11.15 = {
		dynasty=7322 # Yuri
	}
	1220.1.1={
		death=yes
	}
}

2391115={
	name="Kagenori"
	dynasty=236 # Katsurayama
	father=2391107 # Katsurayama Kagetada
#	mother=
	religion="buddhist"
	culture="tokai"
	1196.1.1={
		birth=yes
	}
	1276.4.23={
		death=yes
	}
}

#----------------------------------------------------------
## Mikawa=Kira Clan
#----------------------------------------------------------

2395010={
	name="Tsuneuji"
	dynasty=173 # Oshu=Kira
	father=2139007 # Ashikaga (Kira) Yoshitsugu
	religion="buddhist"
	culture="tokai"
	add_trait="ashikaga_family"
#	martial=
#	diplomacy=
#	intrigue=
#	stewardship=
#	learning=
	1245.1.1={
		birth=yes
	}
	1275.1.1={
		add_trait="jugoi_ge"
	}
	1305.1.1={
		death=yes
	}
}

2395011={
	name="Tsuneuji"
	dynasty=173 # Oshu=Kira
	father=2395010
	religion="buddhist"
	culture="tokai"
	add_trait="ashikaga_family"
#	martial=
#	diplomacy=
#	intrigue=
#	stewardship=
#	learning=
	1265.1.1={
		birth=yes
	}
	1325.1.1={
		death=yes
	}
}

2395012={
	name="Tsuneie"
	dynasty=173 # Oshu=Kira
	father=2395011
	religion="buddhist"
	culture="tokai"
	add_trait="ashikaga_family"
#	martial=
#	diplomacy=
#	intrigue=
#	stewardship=
#	learning=
	1285.1.1={
		birth=yes
	}
	1345.1.1={
		death=yes
	}
}

2395015={
	name="Sadaie"
	dynasty=173 # Oshu=Kira
	father=2395012
	religion="buddhist"
	culture="tokai"
	add_trait="ashikaga_family"
#	martial=
#	diplomacy=
#	intrigue=
#	stewardship=
#	learning=
	1305.1.1={
		birth=yes
	}
	1335.1.1={
		add_trait="jugoi_ge"
	}
	1345.1.1={
		culture="southern_oshu"
	}
	1354.1.1={
		death=yes
	}
}

2395016={
	name="Sadatsune"
	dynasty=173 # Oshu=Kira
	father=2395012
	religion="buddhist"
	culture="tokai"
	add_trait="ashikaga_family"
#	martial=
#	diplomacy=
#	intrigue=
#	stewardship=
#	learning=
	1308.1.1={
		birth=yes
	}
	1338.1.1={
		add_trait="jugoi_ge"
	}
	1345.1.1={
		culture="southern_oshu"
	}
	1367.1.1={
		death=yes
	}
}

2395017={
	name="Ujiie"
	dynasty=246 # Kira
	father=2395012
	religion="buddhist"
	culture="tokai"
	add_trait="ashikaga_family"
#	martial=
#	diplomacy=
#	intrigue=
#	stewardship=
#	learning=
	1312.1.1={
		birth=yes
	}
	1342.1.1={
		add_trait="jugoi_ge"
	}
	1345.1.1={
		dynasty=173 # Oshu=Kira
		culture="southern_oshu"
	}
	1360.1.1={
		death=yes
	}
}

2395020={
	name="Mitsuuji"
	dynasty=246 # Kira
	father=2139005 # Kira Nagauji
#mother=#unknown
	religion="buddhist"
	culture="tokai"
#	martial=
#	diplomacy=
#	intrigue=
#	stewardship=
#	learning=
	disallow_random_traits=yes
	add_trait="ashikaga_family"
	add_trait="zen_buddhist"
	1240.01.01={
		birth=yes
	}
	1270.1.1={
		add_trait="jugoi_ge"
	}
	1290.1.1={
		death=yes
	}
}

2395021={
	name="Kuniuji"
	dynasty=246 # Kira
	father=2139005 # Kira Nagauji
	martial=7
	diplomacy=6
	intrigue=8
	stewardship=7
	learning=7
	religion="buddhist"
	culture="tokai"
	add_trait="amateurish_plotter"
	add_trait="ashikaga_family"
	1243.1.1={
		birth=yes
	}
	1268.1.1={
		dynasty=230 # Imagawa
	}
	1282.4.3={
		death=yes
	}
}

#----------------------------------------------------------
## Oshu=Kira Clan
#----------------------------------------------------------
2395022={
	female=yes
	name="Nagako"
	dynasty=246 # Kira
	father=2139005 # Kira Nagauji
#mother=#unknown
	religion="buddhist"
	culture="tokai"
#	martial=
#	diplomacy=
#	intrigue=
#	stewardship=
#	learning=
	disallow_random_traits=yes
	add_trait="ashikaga_family"
	1241.01.01={
		birth=yes
	}
	1291.1.1={
		death=yes
	}
}

2395023={
	female=yes
	name="Kazusa"
	dynasty=246 # Kira
	father=2139005 # Kira Nagauji
#mother=#unknown
	religion="buddhist"
	culture="tokai"
#	martial=
#	diplomacy=
#	intrigue=
#	stewardship=
#	learning=
	disallow_random_traits=yes
	add_trait="ashikaga_family"
	1245.01.01={
		birth=yes
	}
	1295.1.1={
		death=yes
	}
}

2395025={
	name="Sadayoshi"
	dynasty=246 # Kira
	father=2395020 # Kira Mitsuuji
#mother=#unknown
	religion="buddhist"
	culture="tokai"
#	martial=
#	diplomacy=
#	intrigue=
#	stewardship=
#	learning=
	disallow_random_traits=yes
	add_trait="ashikaga_family"
	1275.01.01={
		birth=yes
	}
	1305.1.1={
		add_trait="jugoi_ge"
	}
	1346.1.1={
		death=yes
	}
}

2395026={
	name="Sadauji"
	dynasty=246 # Kira
	father=2395020 # Kira Mitsuuji
#mother=#unknown
	religion="buddhist"
	culture="tokai"
#	martial=
#	diplomacy=
#	intrigue=
#	stewardship=
#	learning=
	disallow_random_traits=yes
	add_trait="ashikaga_family"
	1277.01.01={
		birth=yes
	}
	1327.01.01={
		death=yes
	}
}

2395027={
	female=yes
	name="Mitsuko"
	dynasty=246 # Kira
	father=2395020 # Kira Mitsuuji
#mother=#unknown
	religion="buddhist"
	culture="tokai"
#	martial=
#	diplomacy=
#	intrigue=
#	stewardship=
#	learning=
	disallow_random_traits=yes
	add_trait="ashikaga_family"
	1279.1.1={
		birth=yes
	}
	1329.1.1={
		death=yes
	}
}

2395030={
	name="Mitsuyoshi"
	dynasty=246 # Kira
	father=2395025 # Kira Sadayoshi
#mother=#unknown
	religion="buddhist"
	culture="tokai"
#	martial=
#	diplomacy=
#	intrigue=
#	stewardship=
#	learning=
	disallow_random_traits=yes
	add_trait="ashikaga_family"
	1310.1.1={
		birth=yes
	}
	1340.1.1={
		add_trait="jushii_ge"
	}
	1356.10.17={
		death=yes
	}
}

2395031={
	name="Suketoki"
	dynasty=246 # Kira
	father=2395025 # Kira Sadayoshi
#mother=#unknown
	religion="buddhist"
	culture="tokai"
#	martial=
#	diplomacy=
#	intrigue=
#	stewardship=
#	learning=
	disallow_random_traits=yes
	add_trait="ashikaga_family"
	1312.01.01={
		birth=yes
	}
	1362.1.1={
		death=yes
	}
}

2395035={
	name="Mitsusada"
	dynasty=246 # Kira
	father=2395030 # Kira Mitsuyoshi
#mother=#unknown
	religion="buddhist"
	culture="tokai"
#	martial=
#	diplomacy=
#	intrigue=
#	stewardship=
#	learning=
	disallow_random_traits=yes
	add_trait="ashikaga_family"
	1337.1.1={
		birth=yes
	}
	1364.01.01={
		add_matrilineal_spouse=2376041 # daughter of Suwa Yasutsugu
	}
	1384.9.28={
		death=yes
	}
}

2395036={
	name="Ariyoshi"
	dynasty=246 # Kira
	father=2395030 # Kira Mitsuyoshi
#mother=#unknown
	religion="buddhist"
	culture="tokai"
#	martial=
#	diplomacy=
#	intrigue=
#	stewardship=
#	learning=
	disallow_random_traits=yes
	add_trait="ashikaga_family"
	1347.1.1={
		birth=yes
	}
	1390.1.1={
		death=yes
	}
}

2395037={
	name="Yoshitaka"
	dynasty=246 # Kira
	father=2395030 # Kira Mitsuyoshi
#mother=#unknown
	religion="buddhist"
	culture="tokai"
#	martial=
#	diplomacy=
#	intrigue=
#	stewardship=
#	learning=
	disallow_random_traits=yes
	add_trait="ashikaga_family"
	1348.1.1={
		birth=yes
	}
	1398.1.1={
		death=yes
	}
}

2395040={
	name="Toshiuji"
	dynasty=246 # Kira
	father=2395035 # Kira Mitsusada
#mother=#unknown
	religion="buddhist"
	culture="tokai"
#	martial=
#	diplomacy=
#	intrigue=
#	stewardship=
#	learning=
	disallow_random_traits=yes
	add_trait="ashikaga_family"
	1362.1.1={
		birth=yes
	}
	1422.1.1={
		death=yes
	}
}

2395041={
	female=yes
	name="Sadako"
	dynasty=246 # Kira
	father=2395035 # Kira Mitsusada
#mother=#unknown
	religion="buddhist"
	culture="tokai"
#	martial=
#	diplomacy=
#	intrigue=
#	stewardship=
#	learning=
	disallow_random_traits=yes
	add_trait="ashikaga_family"
	1354.1.1={
		birth=yes
	}
	1404.1.1={
		death=yes
	}
}

2395045={
	name="Yoshinao"
	dynasty=246 # Kira
	father=2395040 # Kira Toshiuji
#mother=#unknown
	religion="buddhist"
	culture="tokai"
#	martial=
#	diplomacy=
#	intrigue=
#	stewardship=
#	learning=
	disallow_random_traits=yes
	add_trait="ashikaga_family"
	1398.1.1={
		birth=yes
	}
	1467.10.1={
		death=yes
	}
}

2395046={
	name="Yoriuji"
	dynasty=246 # Kira
	father=2395040 # Kira Toshiuji
#mother=#unknown
	religion="buddhist"
	culture="tokai"
#	martial=
#	diplomacy=
#	intrigue=
#	stewardship=
#	learning=
	disallow_random_traits=yes
	add_trait="ashikaga_family"
	1416.1.1={
		birth=yes
	}
	1446.1.1={
		death=yes
	}
}

2395048={
	female=yes
	name="Naoko"
	dynasty=246 # Kira
	father=2395045 # Kira Yoshinao
#mother=#unknown
	religion="buddhist"
	culture="tokai"
#	martial=
#	diplomacy=
#	intrigue=
#	stewardship=
#	learning=
	disallow_random_traits=yes
	add_trait="ashikaga_family"
	1435.1.1={
		birth=yes
	}
	1485.1.1={
		death=yes
	}
}

2395050 = {
	name="Yoshizane"
	dynasty=246 # Kira
	father=2395040 # Kira Toshiuji
	religion="buddhist"
	culture="tokai"
	add_trait="ashikaga_family"
	1422.1.1={
		birth=yes
	}
	1472.1.1={
		add_trait="jushii_ge"
	}
	1481.8.16={
		death=yes
	}
}

#----------------------------------------------------------
## Mikawa=Kira Clan
#----------------------------------------------------------
2395100={
	name="Tomouji"
	dynasty=246 # Kira
	father=2395037 # Kira Yoshitaka
#mother=#unknown
	religion="buddhist"
	culture="tokai"
#	martial=
#	diplomacy=
#	intrigue=
#	stewardship=
#	learning=
	disallow_random_traits=yes
	add_trait="ashikaga_family"
	1373.1.1={
		birth=yes
	}
	1428.6.8={
		death=yes
	}
}

2395102={
	name="Mochinaga"
	dynasty=246 # Kira
	father=2395100 # Kira Tomouji
#mother=#unknown
	religion="buddhist"
	culture="tokai"
#	martial=
#	diplomacy=
#	intrigue=
#	stewardship=
#	learning=
	disallow_random_traits=yes
	add_trait="ashikaga_family"
	1398.1.1={
		birth=yes
	}
	1448.1.1={
		death=yes
	}
}

2395104={
	name="Mochisuke"
	dynasty=246 # Kira
	father=2395102 # Kira Mochinaga
#mother=#unknown
	religion="buddhist"
	culture="tokai"
#	martial=
#	diplomacy=
#	intrigue=
#	stewardship=
#	learning=
	disallow_random_traits=yes
	add_trait="ashikaga_family"
	1420.1.1={
		birth=yes
	}
	1463.1.1={
		death=yes
	}
}

2395105={
	name="Yoritaka"
	dynasty=246 # Kira
	father=2395102 # Kira Mochinaga
#mother=#unknown
	religion="buddhist"
	culture="tokai"
#	martial=
#	diplomacy=
#	intrigue=
#	stewardship=
#	learning=
	disallow_random_traits=yes
	add_trait="ashikaga_family"
	1425.1.1={
		birth=yes
	}
	1475.1.1={
		death=yes
	}
}

2395107={
	name="Yoshifuji"
	dynasty=246 # Kira
	father=2395104 # Kira Mochisuke
#mother=#unknown
	religion="buddhist"
	culture="tokai"
#	martial=
#	diplomacy=
#	intrigue=
#	stewardship=
#	learning=
	disallow_random_traits=yes
	add_trait="ashikaga_family"
	1440.1.1={
		birth=yes
	}
	1498.1.1={
		death=yes
	}
}

2395108={
	name="Toko"
	dynasty=246 # Kira
	father=2395104 # Kira Mochisuke
#mother=#unknown
	religion="buddhist"
	culture="tokai"
#	martial=
#	diplomacy=
#	intrigue=
#	stewardship=
#	learning=
	disallow_random_traits=yes
	add_trait="ashikaga_family"
	1442.1.1={
		birth=yes
		add_trait="monk"
		effect={ set_character_flag=has_monk_name }
	}
	1492.1.1={
		death=yes
	}
}

2395109={
	name="Tanto"
	dynasty=246 # Kira
	father=2395104 # Kira Mochisuke
#mother=#unknown
	religion="buddhist"
	culture="tokai"
#	martial=
#	diplomacy=
#	intrigue=
#	stewardship=
#	learning=
	disallow_random_traits=yes
	add_trait="ashikaga_family"
	1445.1.1={
		birth=yes
		add_trait="monk"
		effect={ set_character_flag=has_monk_name }
	}
	1495.1.1={
		death=yes
	}
}

2395111={
	name="Mochikiyo"
	dynasty=246 # Kira
	father=2395107 # Kira Yoshifuji
#mother=#unknown
	religion="buddhist"
	culture="tokai"
#	martial=
#	diplomacy=
#	intrigue=
#	stewardship=
#	learning=
	disallow_random_traits=yes
	add_trait="ashikaga_family"
	1485.1.1={
		birth=yes
	}
	1532.2.28={
		death=yes
	}
}

2395113={
	name="Mochihiro"
	dynasty=246 # Kira
	father=2395111 # Kira Mochikiyo
#mother=#unknown
	religion="buddhist"
	culture="tokai"
#	martial=
#	diplomacy=
#	intrigue=
#	stewardship=
#	learning=
	disallow_random_traits=yes
	add_trait="ashikaga_family"
	1505.1.1={
		birth=yes
	}
	1539.12.2={
		death=yes
	}
}

2395114={
	name="Yoshihiro"
	dynasty=246 # Kira
	father=2395111 # Kira Mochikiyo
#mother=#unknown
	religion="buddhist"
	culture="tokai"
#	martial=
#	diplomacy=
#	intrigue=
#	stewardship=
#	learning=
	disallow_random_traits=yes
	add_trait="ashikaga_family"
	1510.1.1={
		birth=yes
	}
	1560.1.1={
		death=yes
	}
}

#----------------------------------------------------------
## Imagawa Clan
#----------------------------------------------------------
2395201={
	name="Motouji"
	dynasty=230 # Imagawa
	father=2395021 # Imagawa Kuniuji
	martial=7
	diplomacy=6
	intrigue=8
	stewardship=7
	learning=7
	religion="buddhist"
	culture="tokai"
	add_trait="naive_appeaser"
	add_trait="ashikaga_family"
	1259.1.1={
		birth=yes
	}
	1323.5.13={
		death=yes
	}
}

2395202={
	name="Tsuneuji"
	dynasty=230 # Imagawa
	father=2395021 # Imagawa Kuniuji
	martial=7
	diplomacy=6
	intrigue=8
	stewardship=7
	learning=7
	religion="buddhist"
	culture="tokai"
	add_trait="naive_appeaser"
	add_trait="ashikaga_family"
	1260.1.1={
		birth=yes
	}
	1290.01.01={
		dynasty=256 # Sekiguchi
	}
	1330.1.1={
		death=yes
	}
}

2395203={
	name="Toshiuji"
	dynasty=230 # Imagawa
	father=2395021 # Imagawa Kuniuji
	martial=7
	diplomacy=6
	intrigue=8
	stewardship=7
	learning=7
	religion="buddhist"
	culture="tokai"
	add_trait="naive_appeaser"
	add_trait="ashikaga_family"
	1263.1.1={
		birth=yes
	}
	1298.1.1={
		dynasty=257 # Niino
	}
	1333.1.1={
		death=yes
	}
}
2395204={
	name="Masauji"
	dynasty=230 # Imagawa
	father=2395021 # Imagawa Kuniuji
#mother=#unknown
	religion="buddhist"
	culture="tokai"
#	martial=
#	diplomacy=
#	intrigue=
#	stewardship=
#	learning=
	disallow_random_traits=yes
	add_trait="ashikaga_family"
	1264.1.1={
		birth=yes
	}
	1314.1.1={
		death=yes
	}
}

2395206={
	name="Chikauji"
	dynasty=230 # Imagawa
	father=2395021 # Imagawa Kuniuji
#mother=#unknown
	religion="buddhist"
	culture="tokai"
#	martial=
#	diplomacy=
#	intrigue=
#	stewardship=
#	learning=
	disallow_random_traits=yes
	add_trait="ashikaga_family"
	1266.1.1={
		birth=yes
	}
	1316.1.1={
		death=yes
	}
}

2395210={
	name="Yorikuni"
	dynasty=230 # Imagawa
	father=2395201 # Imagawa Motouji
#mother=#unknown
	religion="buddhist"
	culture="tokai"
#	martial=
#	diplomacy=
#	intrigue=
#	stewardship=
#	learning=
	disallow_random_traits=yes
	add_trait="ashikaga_family"
	1284.1.1={
		birth=yes
	}
	1333.07.16={
		death={
			death_reason=death_battle
		}
	}
}

2395211={
	name="Norimitsu"
	dynasty=230 # Imagawa
	father=2395201 # Imagawa Motouji
#mother=#unknown
	religion="buddhist"
	culture="tokai"
#	martial=
#	diplomacy=
#	intrigue=
#	stewardship=
#	learning=
	disallow_random_traits=yes
	add_trait="ashikaga_family"
	1287.1.1={
		birth=yes
	}
	1333.05.11={
		death={
			death_reason=death_battle
		}
	}
}

2395212={
	name="Yorichika"
	dynasty=230 # Imagawa
	father=2395201 # Imagawa Motouji
#mother=#unknown
	religion="buddhist"
	culture="tokai"
#	martial=
#	diplomacy=
#	intrigue=
#	stewardship=
#	learning=
	disallow_random_traits=yes
	add_trait="ashikaga_family"
	1290.1.1={
		birth=yes
	}
	1333.07.16={
		death={
			death_reason=death_battle
		}
	}
}

2395213={
	name="DaikiHokin"
	dynasty=230 # Imagawa
	father=2395201 # Imagawa Motouji
#mother=#unknown
	religion="buddhist"
	culture="tokai"
#	martial=
#	diplomacy=
#	intrigue=
#	stewardship=
#	learning=
	disallow_random_traits=yes
	add_trait="ashikaga_family"
	add_trait="zen_buddhist"
	1301.1.1={
		birth=yes
	}
	1311.1.1={
		add_trait="monk"
		effect={ set_character_flag=has_monk_name }
		culture="kanto_buddhist"
	}
	1368.9.24={
		death=yes
	}
}

2395214={
	name="Norikuni"
	dynasty=230 # Imagawa
	father=2395201 # Imagawa Motouji
	martial=7
	diplomacy=6
	intrigue=8
	stewardship=7
	learning=7
	religion="buddhist"
	culture="tokai"
	disallow_random_traits=yes
	add_trait="naive_appeaser"
	add_trait="ashikaga_family"
	add_trait="poet"
	1295.1.1={
		birth=yes
	}
	1325.1.1={
		add_trait="jugoi_ge"
	}
	1384.6.8={
		death=yes
	}
}

2395216={
	name="Yorisada"
	dynasty=230 # Imagawa
	father=2395210 # Imagawa Yorimoto
#mother=#unknown
	religion="buddhist"
	culture="tokai"
#	martial=
#	diplomacy=
#	intrigue=
#	stewardship=
#	learning=
	disallow_random_traits=yes
	add_trait="ashikaga_family"
	1309.1.1={
		birth=yes
	}
	1339.1.1={
		add_trait="jugoi_ge"
	}
	1359.1.1={
		death=yes
	}
}

2395217={
	name="Yorikane"
	dynasty=230 # Imagawa
	father=2395210 # Imagawa Yorimoto
#mother=#unknown
	religion="buddhist"
	culture="tokai"
#	martial=
#	diplomacy=
#	intrigue=
#	stewardship=
#	learning=
	disallow_random_traits=yes
	add_trait="ashikaga_family"
	1311.1.1={
		birth=yes
	}
	1341.1.1={
		add_trait="jugoi_ge"
	}
	1361.1.1={
		death=yes
	}
}

2395220={
	name="Noriuji"
	dynasty=230 # Imagawa
	father=2395214 # Imagawa Norikuni
	martial=7
	diplomacy=6
	intrigue=8
	stewardship=7
	learning=7
	religion="buddhist"
	culture="tokai"
	add_trait="amateurish_plotter"
	add_trait="ashikaga_family"
	1316.1.1={
		birth=yes
	}
	1346.1.1={
		add_trait="jugoi_ge"
	}
	1384.6.8={
		death=yes
	}
}

2395221={
	name="Sadayo"
	dynasty=230 # Imagawa
	father=2395214 # Imagawa Norikuni
	martial=7
	diplomacy=6
	intrigue=8
	stewardship=7
	learning=7
	religion="buddhist"
	culture="tokai"
	add_trait="charismatic_negotiator"
	add_trait="ashikaga_family"
	add_trait="quick"
	add_trait="poet"
	1326.1.1={
		birth=yes
	}
	1356.1.1={
		add_trait="shogoi_ge"
	}
	1367.12.29={
		name="Ryoshun"
	}
	1420.1.1={
		death=yes
	}
}

2395222={
	name="Ujikane"
	dynasty=230 # Imagawa
	father=2395214 # Imagawa Norikuni
	martial=7
	diplomacy=6
	intrigue=8
	stewardship=7
	learning=7
	religion="buddhist"
	culture="tokai"
	add_trait="flamboyant_schemer"
	add_trait="ashikaga_family"
	1329.1.1={
		birth=yes
	}
	1396.1.1={
		death=yes
	}
}

2395223={
	name="Nakaaki"
	dynasty=230 # Imagawa
	father=2395214 # Imagawa Norikuni
	martial=7
	diplomacy=6
	intrigue=8
	stewardship=7
	learning=7
	religion="buddhist"
	culture="tokai"
	add_trait="naive_appeaser"
	add_trait="ashikaga_family"
	1335.1.1={
		birth=yes
	}
	1365.1.1={
		add_trait="jugoi_ge"
	}
	1415.1.1={
		death=yes
	}
}

2395225={
	name="Ujiie"
	dynasty=230 # Imagawa
	father=2395220 # Imagawa Noriuji
#mother=#unknown
	religion="buddhist"
	culture="tokai"
#	martial=
#	diplomacy=
#	intrigue=
#	stewardship=
#	learning=
	disallow_random_traits=yes
	add_trait="ashikaga_family"
	1333.1.1={
		birth=yes
	}
	1363.1.1={
		add_trait="jugoi_ge"
	}
	1369.1.1={
		death=yes
	}
}

2395226={
	name="Yasunori"
	dynasty=230 # Imagawa
	father=2395220 # Imagawa Noriuji
	martial=7
	diplomacy=6
	intrigue=8
	stewardship=7
	learning=7
	religion="buddhist"
	culture="tokai"
	add_trait="amateurish_plotter"
	add_trait="ashikaga_family"
	add_trait="zen_buddhist"
	1334.1.1={
		birth=yes
	}
	1409.11.3={
		death=yes
	}
}

2395230={
	name="Norimasa"
	dynasty=230 # Imagawa
	father=2395226 # Imagawa Yasunori
	martial=7
	diplomacy=6
	intrigue=8
	stewardship=7
	learning=7
	religion="buddhist"
	culture="tokai"
	add_trait="misguided_warrior"
	add_trait="ashikaga_family"
	add_trait="poet"
	add_trait="scholar"
	1364.1.1={
		birth=yes
	}
	1394.1.1={
		add_trait="jushii_ge"
	}
	1409.11.3={
		effect={
			c_abe={
				ROOT={
					capital=PREV
				}
			}
		}
	}
	1433.4.1={
		add_trait="incapable"
	}
	1433.6.14={
		death=yes
	}
}

2395231={
	name="Yasukuni"
	dynasty=230 # Imagawa
	father=2395226 # Imagawa Yasunori
#mother=#unknown
	religion="buddhist"
	culture="tokai"
#	martial=
#	diplomacy=
#	intrigue=
#	stewardship=
#	learning=
	disallow_random_traits=yes
	add_trait="ashikaga_family"
	1335.1.1={
		birth=yes
	}
	1385.1.1={
		death=yes
	}
}

2395235={
	name="Noritoyo"
	dynasty=230 # Imagawa
	father=2395230 # Imagawa Norimasa
#mother=#unknown
	religion="buddhist"
	culture="tokai"
#	martial=
#	diplomacy=
#	intrigue=
#	stewardship=
#	learning=
	disallow_random_traits=yes
	add_trait="ashikaga_family"
	1389.1.1={
		birth=yes
	}
	1405.01.01={
		death=yes
	}
}

2395236={
	name="Noritada"
	dynasty=230 # Imagawa
	father=2395230 # Imagawa Norimasa
	martial=7
	diplomacy=6
	intrigue=8
	stewardship=7
	learning=7
	religion="buddhist"
	culture="tokai"
	add_trait="indulgent_wastrel"
	add_trait="ashikaga_family"
	1408.5.1={
		birth=yes
	}
	1433.6.14={
		effect={
			c_abe={
				ROOT={
					capital=PREV
				}
			}
		}
	}
	1438.1.1={
		add_trait="jushii_ge"
	}
	1461.07.04={
		death=yes
	}
}
2395237={
	name="Norikatsu"
	dynasty=230 # Imagawa
	father=2395230 # Imagawa Norimasa
#mother=#unknown
	religion="buddhist"
	culture="tokai"
#	martial=
#	diplomacy=
#	intrigue=
#	stewardship=
#	learning=
	disallow_random_traits=yes
	add_trait="ashikaga_family"
	1410.1.1={
		birth=yes
	}
	1440.1.1={
		death=yes
	}
}

2395238={
	name="Noriyori"
	dynasty=230 # Imagawa
	father=2395230 # Imagawa Norimasa
#mother=
	religion="buddhist"
	culture="tokai"
#	martial=
#	diplomacy=
#	intrigue=
#	stewardship=
#	learning=
	disallow_random_traits=yes
	add_trait="ashikaga_family"
	1425.1.1={
		birth=yes
	}
	1439.1.1={
		dynasty=259 # Oshika
	}
	1465.1.1={
		death=yes
	}
}

2395240={
	name="Norimitsu"
	dynasty=259 # Oshika
	father=2395238 # Oshika Noriyori
#mother=
	religion="buddhist"
	culture="tokai"
	diplomacy=7
	martial=7
	stewardship=7
	intrigue=9
	learning=5
	add_trait="underhanded_rogue"
	add_trait="ambitious"
	disallow_random_traits=yes
	add_trait="ashikaga_family"
	1450.1.1={
		birth=yes
	}
	1487.11.24={
		death={
			death_reason=death_suicide
		}
	}
}

2395241={
	name="Norinobu"
	dynasty=259 # Oshika
	father=2395240 # Oshika Norimitsu
#mother=#unknown
	religion="buddhist"
	culture="tokai"
#	martial=
#	diplomacy=
#	intrigue=
#	stewardship=
#	learning=
	disallow_random_traits=yes
	add_trait="ashikaga_family"
	1480.01.01={
		birth=yes
	}
	1530.1.1={
		death=yes
	}
}

2395242={
	name="Nobukatsu"
	dynasty=259 # Oshika
	father=2395241 # Oshika Norinobu
#mother=#unknown
	religion="buddhist"
	culture="tokai"
#	martial=
#	diplomacy=
#	intrigue=
#	stewardship=
#	learning=
	disallow_random_traits=yes
	add_trait="ashikaga_family"
	1505.1.1={
		birth=yes
	}
	1555.1.1={
		death=yes
	}
}

2395260={
	name="Sadaomi"
	dynasty=230 # Imagawa
	father=2395221 # Imagawa Sadayo
	martial=7
	diplomacy=6
	intrigue=8
	stewardship=7
	learning=7
	religion="buddhist"
	culture="tokai"
	add_trait="amateurish_plotter"
	add_trait="ashikaga_family"
	1350.1.1={
		birth=yes
	}
	1410.1.1={
		death=yes
	}
}
2395261={
	name="Sadatsugu"
	dynasty=230 # Imagawa
	father=2395221 # Imagawa Sadayo
#mother=#unknown
	religion="buddhist"
	culture="tokai"
#	martial=
#	diplomacy=
#	intrigue=
#	stewardship=
#	learning=
	disallow_random_traits=yes
	add_trait="ashikaga_family"
	1352.1.1={
		birth=yes
	}
	1402.1.1={
		death=yes
	}
}

2395262={
	name="Kotoyo"
	dynasty=230 # Imagawa
	father=2395221 # Imagawa Sadayo
#mother=#unknown
	religion="buddhist"
	culture="tokai"
#	martial=
#	diplomacy=
#	intrigue=
#	stewardship=
#	learning=
	disallow_random_traits=yes
	add_trait="ashikaga_family"
	1354.1.1={
		birth=yes
	}
	1404.1.1={
		death=yes
	}
}

2395263={
	name="Sadakane"
	dynasty=230 # Imagawa
	father=2395221 # Imagawa Sadayo
#mother=#unknown
	religion="buddhist"
	culture="tokai"
#	martial=
#	diplomacy=
#	intrigue=
#	stewardship=
#	learning=
	disallow_random_traits=yes
	add_trait="ashikaga_family"
	1356.1.1={
		birth=yes
	}
	1405.1.1={
		death=yes
	}
}

2395270={
	name="Sadasuke"
	dynasty=230 # Imagawa
	father=2395260 # Imagawa Sadaomi
	martial=7
	diplomacy=6
	intrigue=8
	stewardship=7
	learning=7
	religion="buddhist"
	culture="tokai"
	add_trait="naive_appeaser"
	add_trait="ashikaga_family"
	1370.1.1={
		birth=yes
	}
	1430.1.1={
		death=yes
	}
}

2395273={
	name="Norimasa"
	dynasty=230 # Imagawa
	father=2395270 # Imagawa Sadasuke
	martial=7
	diplomacy=6
	intrigue=8
	stewardship=7
	learning=7
	religion="buddhist"
	culture="tokai"
	add_trait="naive_appeaser"
	add_trait="ashikaga_family"
	1400.1.1={
		birth=yes
	}
	1459.10.1={
		death={
			death_reason=death_battle
		}
	}
}

2395276={
	name="Sadanobu"
	dynasty=230 # Imagawa
	father=2395273 # Imagawa Norimasa
	martial=7
	diplomacy=6
	intrigue=8
	stewardship=7
	learning=7
	religion="buddhist"
	culture="tokai"
	add_trait="amateurish_plotter"
	add_trait="ashikaga_family"
	1425.01.01={
		birth=yes
	}
	1475.1.1={
		death=yes
	}
}

2395278={
	name="Yoshihide" # Sena Kazuhide
	dynasty=230 # Imagawa
	father=2395276 # Imagawa Sadanobu
	martial=7
	diplomacy=6
	intrigue=8
	stewardship=7
	learning=7
	religion="buddhist"
	culture="tokai"
	add_trait="amateurish_plotter"
	add_trait="ashikaga_family"
	1450.01.01={
		birth=yes
	}
	1465.1.1={
		dynasty=247 # Sena
		name="Kazuhide"
		give_nickname="nick_mitsu_no_kami"
	}
	1490.1.1={
		name="Isshu"
		effect={ set_character_flag=has_monk_name }
	}
	1500.1.1={
		death=yes
	}
}

#----------------------------------------------------------
## Suruga=Imagawa/Kanbara family
#----------------------------------------------------------
2395280={
	name="Naotada"
	dynasty=230 # Imagawa
	father=2395222 # Imagawa Ujikane
#mother=#unknown
	religion="buddhist"
	culture="tokai"
#	martial=
#	diplomacy=
#	intrigue=
#	stewardship=
#	learning=
	disallow_random_traits=yes
	add_trait="ashikaga_family"
	1359.1.1={
		birth=yes
	}
	1419.1.1={
		death=yes
	}
}

2395281={
	name="Yoriharu"
	dynasty=230 # Imagawa
	father=2395222 # Imagawa Ujikane
#mother=#unknown
	religion="buddhist"
	culture="tokai"
#	martial=
#	diplomacy=
#	intrigue=
#	stewardship=
#	learning=
	disallow_random_traits=yes
	add_trait="ashikaga_family"
	1363.1.1={
		birth=yes
	}
	1413.1.1={
		death=yes
	}
}

2395282={
	name="Suekane"
	dynasty=230 # Imagawa
	father=2395222 # Imagawa Ujikane
#mother=#unknown
	religion="buddhist"
	culture="tokai"
#	martial=
#	diplomacy=
#	intrigue=
#	stewardship=
#	learning=
	disallow_random_traits=yes
	add_trait="ashikaga_family"
	1365.1.1={
		birth=yes
	}
	1415.1.1={
		death=yes
	}
}

2395283={
	name="Ujiyori"
	dynasty=230 # Imagawa
	father=2395281 # Imagawa Yoriharu
#mother=#unknown
	religion="buddhist"
	culture="tokai"
#	martial=
#	diplomacy=
#	intrigue=
#	stewardship=
#	learning=
	disallow_random_traits=yes
	add_trait="ashikaga_family"
	1393.1.1={
		birth=yes
	}
	1443.1.1={
		death=yes
	}
}

2395284={
	name="Haruuji"
	dynasty=230 # Imagawa
	father=2395281 # Imagawa Yoriharu
#mother=#unknown
	religion="buddhist"
	culture="tokai"
#	martial=
#	diplomacy=
#	intrigue=
#	stewardship=
#	learning=
	disallow_random_traits=yes
	add_trait="ashikaga_family"
	1395.1.1={
		birth=yes
	}
	1445.1.1={
		death=yes
	}
}

2395285={
	name="Ujiyoshi"
	dynasty=230 # Imagawa
	father=2395283 # Imagawa Ujiyori
#mother=#unknown
	religion="buddhist"
	culture="tokai"
#	martial=
#	diplomacy=
#	intrigue=
#	stewardship=
#	learning=
	disallow_random_traits=yes
	add_trait="ashikaga_family"
	1418.1.1={
		birth=yes
	}
	1438.1.1={
		dynasty=465 # Kanbara
	}
	1468.1.1={
		death=yes
	}
}

2395286={
	name="Sadauji"
	dynasty=465 # Kanbara
	father=2395285 # Imagawa Ujiyoshi
#mother=#unknown
	religion="buddhist"
	culture="tokai"
#	martial=
#	diplomacy=
#	intrigue=
#	stewardship=
#	learning=
	disallow_random_traits=yes
	add_trait="ashikaga_family"
	1443.1.1={
		birth=yes
	}
	1493.1.1={
		death=yes
	}
}

2395287={
	name="Mitsuuji"
	dynasty=465 # Kanbara
	father=2395286 # Kanbara Sadauji
#mother=#unknown
	religion="buddhist"
	culture="tokai"
#	martial=
#	diplomacy=
#	intrigue=
#	stewardship=
#	learning=
	disallow_random_traits=yes
	add_trait="ashikaga_family"
	1473.1.1={
		birth=yes
	}
	1536.1.1={
		death=yes
	}
}

2395290={
	name="Sadaaki"
	dynasty=230 # Imagawa
	father=2395223 # Imagawa Nakaaki
#mother=#unknown
	religion="buddhist"
	culture="tokai"
#	martial=
#	diplomacy=
#	intrigue=
#	stewardship=
#	learning=
	disallow_random_traits=yes
	add_trait="ashikaga_family"
	1360.01.01={
		birth=yes
	}
	1420.01.01={
		death=yes
	}
}

2395291={
	name="Ujiaki"
	dynasty=230 # Imagawa
	father=2395223 # Imagawa Nakaaki
#mother=#unknown
	religion="buddhist"
	culture="tokai"
#	martial=
#	diplomacy=
#	intrigue=
#	stewardship=
#	learning=
	disallow_random_traits=yes
	add_trait="ashikaga_family"
	1363.1.1={
		birth=yes
	}
	1413.1.1={
		death=yes
	}
}

2395292={
	name="Naoaki"
	dynasty=230 # Imagawa
	father=2395223 # Imagawa Nakaaki
#mother=#unknown
	religion="buddhist"
	culture="tokai"
#	martial=
#	diplomacy=
#	intrigue=
#	stewardship=
#	learning=
	disallow_random_traits=yes
	add_trait="ashikaga_family"
	1366.1.1={
		birth=yes
	}
	1416.01.01={
		death=yes
	}
}

2395295={
	name="Mochisada"
	dynasty=230 # Imagawa
	father=2395290 # Imagawa Sadaaki
#mother=#unknown
	religion="buddhist"
	culture="tokai"
#	martial=
#	diplomacy=
#	intrigue=
#	stewardship=
#	learning=
	disallow_random_traits=yes
	add_trait="ashikaga_family"
	1390.01.01={
		birth=yes
	}
	1440.1.1={
		death=yes
	}
}

#----------------------------------------------------------
## Sekiguchi Family
#----------------------------------------------------------

2395400={
	name="Akiuji"
	dynasty=256 # Sekiguchi
	father=2395202 # Sekiguchi Tsuneuji
	martial=7
	diplomacy=6
	intrigue=8
	stewardship=7
	learning=7
	religion="buddhist"
	culture="tokai"
	add_trait="naive_appeaser"
	add_trait="ashikaga_family"
	1290.1.1={
		birth=yes
	}
	1360.1.1={
		death=yes
	}
}

2395401={
	name="Sadakuni"
	dynasty=256 # Sekiguchi
	father=2395202 # Sekiguchi Tsuneuji
	martial=7
	diplomacy=6
	intrigue=8
	stewardship=7
	learning=7
	religion="buddhist"
	culture="tokai"
	add_trait="naive_appeaser"
	add_trait="ashikaga_family"
	1295.1.1={
		birth=yes
	}
	1350.1.1={
		death=yes
	}
}

2395403={
	name="Genki"
	dynasty=256 # Sekiguchi
	father=2395202 # Sekiguchi Tsuneuji
#mother=#unknown
	religion="buddhist"
	culture="tokai"
#	martial=
#	diplomacy=
#	intrigue=
#	stewardship=
#	learning=
	disallow_random_traits=yes
	add_trait="ashikaga_family"
	1297.1.1={
		birth=yes
	}
	1347.1.1={
		death=yes
	}
}

2395405={
	name="Kaneuji"
	dynasty=256 # Sekiguchi
	father=2395400 # Sekiguchi Akiuji
	martial=7
	diplomacy=6
	intrigue=8
	stewardship=7
	learning=7
	religion="buddhist"
	culture="tokai"
	add_trait="naive_appeaser"
	add_trait="ashikaga_family"
	1330.1.1={
		birth=yes
	}
	1380.1.1={
		death=yes
	}
}

2395407={
	name="Suketoki"
	dynasty=256 # Sekiguchi
	father=2395403 # Sekiguchi Genki
#mother=#unknown
	religion="buddhist"
	culture="tokai"
#	martial=
#	diplomacy=
#	intrigue=
#	stewardship=
#	learning=
	disallow_random_traits=yes
	add_trait="ashikaga_family"
	1323.1.1={
		birth=yes
	}
	1378.1.1={
		death=yes
	}
}

2395410={
	name="Mitsuyuki"
	dynasty=256 # Sekiguchi
	father=2395405 # Sekiguchi Kaneuji
	martial=7
	diplomacy=6
	intrigue=8
	stewardship=7
	learning=7
	religion="buddhist"
	culture="tokai"
	add_trait="naive_appeaser"
	add_trait="ashikaga_family"
	1370.1.1={
		birth=yes
	}
	1460.1.1={
		death=yes
	}
}

2395411={
	name="Mitsuoki"
	dynasty=256 # Sekiguchi
	father=2395410 # Sekiguchi Mitsuyuki
	martial=7
	diplomacy=6
	intrigue=8
	stewardship=7
	learning=7
	religion="buddhist"
	culture="tokai"
	add_trait="naive_appeaser"
	add_trait="ashikaga_family"
	1410.1.1={
		birth=yes
	}
	1440.1.1={
		add_trait="jugoi_ge"
	}
	1480.1.1={
		death=yes
	}
}

2395412={
	name="Naoyuki"
	dynasty=256 # Sekiguchi
	father=2395410 # Sekiguchi Mitsuyuki
	martial=7
	diplomacy=6
	intrigue=8
	stewardship=7
	learning=7
	religion="buddhist"
	culture="tokai"
	add_trait="naive_appeaser"
	add_trait="ashikaga_family"
	1415.1.1={
		birth=yes
	}
	1490.1.1={
		death=yes
	}
}

2395415={
	name="Norikane"
	dynasty=256 # Sekiguchi
	father=2395411 # Sekiguchi Mitsuoki
	martial=7
	diplomacy=6
	intrigue=8
	stewardship=7
	learning=7
	religion="buddhist"
	culture="tokai"
	add_trait="naive_appeaser"
	add_trait="ashikaga_family"
	1440.1.1={
		birth=yes
	}
	1470.1.1={
		add_trait="jugoi_ge"
	}
	1510.1.1={
		death=yes
	}
}

2395417={
	name="Masaoki"
	dynasty=256 # Sekiguchi
	father=2395415 # Sekiguchi Mitsuoki
	martial=7
	diplomacy=6
	intrigue=8
	stewardship=7
	learning=7
	religion="buddhist"
	culture="tokai"
	add_trait="naive_appeaser"
	add_trait="ashikaga_family"
	1480.1.1={
		birth=yes
	}
	1550.9.1={
		death=yes
	}
}

2395418={
	name="Kaneoki" #
	dynasty=256 # Sekiguchi
	father=2395415 # Sekiguchi Mitsuoki
	martial=7
	diplomacy=6
	intrigue=8
	stewardship=7
	learning=7
	religion="buddhist"
	culture="tokai"
	add_trait="naive_appeaser"
	add_trait="ashikaga_family"
	1490.1.1={
		birth=yes
	}
	1550.1.1={
		death=yes
	}
}

#----------------------------------------------------------
## Totoumi=Imagawa/Horikoshi Clan
#----------------------------------------------------------
2395500={
	name="Sadamoto"
	dynasty=230 # Imagawa
	father=2395276 # Imagawa Sadanobu
#mother=#unknown
	religion="buddhist"
	culture="tokai"
#	martial=
#	diplomacy=
#	intrigue=
#	stewardship=
#	learning=
	disallow_random_traits=yes
	add_trait="ashikaga_family"
	1465.1.1={
		birth=yes
	}
	1537.1.1={
		death=yes
	}
}

#----------------------------------------------------------
## Nikki Clan
#----------------------------------------------------------

2396000={
	name="Sanekuni"
	dynasty=7330 # Nikki
	father=2139061 # Ashikaga Yoshizane
#	mother=
	religion="buddhist"
	culture="northern_kanto"
	add_trait="ashikaga_family"
	1200.1.1={
		birth=yes
	}
	1260.1.1={
		death=yes
	}
}
2396001={
	name="Yoshitoshi"
	dynasty=7330 # Nikki
	father=2396000 # Nikki Sanekuni
#	mother=
	religion="buddhist"
	culture="northern_kanto"
	add_trait="ashikaga_family"
	1220.1.1={
		birth=yes
	}
	1280.1.1={
		death=yes
	}
}
2396005={
	name="Yoshitsugu"
	dynasty=7330 # Nikki
	father=2396001 # Nikki Yoshitoshi
#	mother=
	religion="buddhist"
	culture="northern_kanto"
	add_trait="ashikaga_family"
	1240.1.1={
		birth=yes
	}
	1300.1.1={
		death=yes
	}
}
2396010={
	name="Moroyoshi"
	dynasty=7330 # Nikki
	father=2396005 # Nikki Yoshitsugu
#	mother=
	religion="buddhist"
	culture="northern_kanto"
	add_trait="ashikaga_family"
	1260.1.1={
		birth=yes
	}
	1320.1.1={
		death=yes
	}
}
2396015={
	name="Yoshikatsu"
	dynasty=7330 # Nikki
	father=2396010 # Nikki Moroyoshi
#	mother=
	religion="buddhist"
	culture="central_kinai"
	add_trait="ashikaga_family"
	1280.1.1={
		birth=yes
	}
	1335.1.1={
		death=yes
	}
}
2396016={
	name="Yorikatsu"
	dynasty=7330 # Nikki
	father=2396010 # Nikki Moroyoshi
#	mother=
	religion="buddhist"
	culture="central_kinai"
	1278.1.1={
		birth=yes
	}
	1330.1.1={
		death=yes
	}
}
2396020={
	name="Yoriaki"
	dynasty=7330 # Nikki
	father=2396015 # Nikki Yoshikatsu
#	mother=
	religion="buddhist"
	culture="central_kinai"
	add_trait="ashikaga_family"
	1299.1.1={
		birth=yes
	}
	1359.11.4={
		death=yes
	}
}
2396021={
	name="Yoshinaga"
	dynasty=7330 # Nikki
	father=2396015 # Nikki Yoshikatsu
#	mother=
	religion="buddhist"
	culture="central_kinai"
	add_trait="ashikaga_family"
	1310.1.1={
		birth=yes
	}
	1376.10.23={
		death=yes
	}
}
2396022={
	name="Yorikatsu"
	dynasty=7330 # Nikki
	father=2396015 # Nikki Yoshikatsu
#	mother=
	religion="buddhist"
	culture="central_kinai"
	add_trait="ashikaga_family"
	1312.1.1={
		birth=yes
	}
	1370.1.1={
		death=yes
	}
}
2396025={
	name="Yoshitada"
	dynasty=7330 # Nikki
	father=2396020 # Nikki Yoriaki
#	mother=
	religion="buddhist"
	culture="central_kinai"
	add_trait="ashikaga_family"
	1330.1.1={
		birth=yes
	}
	1380.1.1={
		death=yes
	}
}
2396030={
	name="Kiyotada"
	dynasty=7330 # Nikki
	father=2396025 # Nikki Yoshitada
#	mother=
	religion="buddhist"
	culture="central_kinai"
	add_trait="ashikaga_family"
	1350.1.1={
		birth=yes
	}
	1400.1.1={
		death=yes
	}
}
2396035={
	name="Mochitada"
	dynasty=7330 # Nikki
	father=2396030 # Nikki Kiyotada
#	mother=
	religion="buddhist"
	culture="central_kinai"
	add_trait="ashikaga_family"
	1375.1.1={
		birth=yes
	}
	1415.1.1={
		death=yes
	}
}
2396040={
	name="Mochinaga"
	dynasty=7330 # Nikki
	father=2396035 # Nikki Mochitada
#	mother=
	religion="buddhist"
	culture="central_kinai"
	add_trait="ashikaga_family"
	1400.1.1={
		birth=yes
	}
	1429.1.1={
		death=yes
	}
}
2396045={
	name="Shigenaga"
	dynasty=7330 # Nikki
	father=2396040 # Nikki Mochinaga
#	mother=
	religion="buddhist"
	culture="central_kinai"
	add_trait="ashikaga_family"
	1425.1.1={
		birth=yes
	}
	1480.1.1={
		death=yes
	}
}
2396050={
	name="Masamitsu"
	dynasty=7330 # Nikki
	father=2396045 # Nikki Shigenaga
#	mother=
	religion="buddhist"
	culture="central_kinai"
	add_trait="ashikaga_family"
	1452.1.1={
		birth=yes
	}
	1510.1.1={
		death=yes
	}
}

2396060={
	name="Yoshinao"
	dynasty=7330 # Nikki
	father=2396016 # Nikki Yorikatsu
#	mother=
	religion="buddhist"
	culture="central_kinai"
	1300.1.1={
		birth=yes
	}
	1350.1.1={
		death=yes
	}
}

2396100={
	name="Kuniyuki"
	dynasty=7330 # Nikki
	father=2396040 # Nikki Mochinaga
#	mother=
	religion="buddhist"
	culture="central_kinai"
	add_trait="ashikaga_family"
	1420.1.1={
		birth=yes
	}
	1460.1.1={
		death=yes
	}
}
2396105={
	name="Masanaga"
	dynasty=7330 # Nikki
	father=2396100 # Nikki Kuniyuki
#	mother=
	religion="buddhist"
	culture="central_kinai"
	add_trait="ashikaga_family"
	1450.1.1={
		birth=yes
	}
	1510.1.1={
		death=yes
	}
}
2396110={
	name="Nagayori"
	dynasty=7330 # Nikki
	father=2396105 # Nikki Masanaga
#	mother=
	religion="buddhist"
	culture="central_kinai"
	add_trait="ashikaga_family"
	1480.1.1={
		birth=yes
	}
	1540.1.1={
		death=yes
	}
}
2396111={
	name="Shichiro"
	dynasty=7330 # Nikki
	father=2396105 # Nikki Masanaga
#	mother=
	religion="buddhist"
	culture="central_kinai"
	add_trait="ashikaga_family"
	1490.1.1={
		birth=yes
	}
	1550.1.1={
		death=yes
	}
}
2396115={
	name="Nagamasa"
	dynasty=7330 # Nikki
	father=2396110 # Nikki Nagayori
#	mother=
	religion="buddhist"
	culture="central_kinai"
	add_trait="ashikaga_family"
	1510.1.1={
		birth=yes
	}
	1575.1.1={
		death=yes
	}
}
2396120={
	name="Masachika"
	dynasty=7330 # Nikki
	father=2396115 # Nikki Nagamasa
#	mother=
	religion="buddhist"
	culture="central_kinai"
	add_trait="ashikaga_family"
	1540.1.1={
		birth=yes
	}
	1590.1.1={
		death=yes
	}
}
2396150={
	name="Yoshikazu"
	dynasty=7330 # Nikki
	father=2396021 # Nikki Yoshinaga
#	mother=
	religion="buddhist"
	culture="central_kinai"
	add_trait="ashikaga_family"
	1350.1.1={
		birth=yes
	}
	1410.1.1={
		death=yes
	}
}
2396151={
	name="Mitsunaga"
	dynasty=7330 # Nikki
	father=2396021 # Nikki Yoshinaga
#	mother=
	religion="buddhist"
	culture="central_kinai"
	add_trait="ashikaga_family"
	1352.1.1={
		birth=yes
	}
	1410.1.1={
		death=yes
	}
}
2396155={
	name="Mitsumasa"
	dynasty=7330 # Nikki
	father=2396151 # Nikki Mitsunaga
#	mother=
	religion="buddhist"
	culture="western_chubu"
	add_trait="ashikaga_family"
	1380.1.1={
		birth=yes
	}
	1440.1.1={
		death=yes
	}
}
2396160={
	name="Norimasa"
	dynasty=7330 # Nikki
	father=2396155 # Nikki Mitsumasa
#	mother=
	religion="buddhist"
	culture="western_chubu"
	add_trait="ashikaga_family"
	1410.1.1={
		birth=yes
	}
	1470.1.1={
		death=yes
	}
}
2396165={
	name="Shigemasa"
	dynasty=7330 # Nikki
	father=2396160 # Nikki Norimasa
#	mother=
	religion="buddhist"
	culture="western_chubu"
	add_trait="ashikaga_family"
	1435.1.1={
		birth=yes
	}
	1480.1.1={
		death=yes
	}
}
2396170={
	name="Sadanaga"
	dynasty=7330 # Nikki
	father=2396165 # Nikki Shigemasa
#	mother=
	religion="buddhist"
	culture="western_chubu"
	add_trait="ashikaga_family"
	1460.1.1={
		birth=yes
	}
	1487.9.1={
		death=yes
	}
}
2396175={
	name="Takanaga"
	dynasty=7330 # Nikki
	father=2396170 # Nikki Sadanaga
#	mother=
	religion="buddhist"
	culture="western_chubu"
	add_trait="ashikaga_family"
	1480.1.1={
		birth=yes
	}
	1540.1.1={
		death=yes
	}
}

#----------------------------------------------------------
## Totomi=Kuno Clan
#----------------------------------------------------------

2400100={
	name="Munetaka"
	dynasty=829 # Kuno
#	father=
#	mother=
	religion="buddhist"
	culture="tokai"
	1450.1.1={
		birth=yes
	}
	1510.1.1={
		death=yes
	}
}
2400101={
	name="Munetada"
	dynasty=829 # Kuno
	father=2400100 # Kuno Munetaka
#	mother=
	religion="buddhist"
	culture="tokai"
	1480.1.1={
		birth=yes
	}
	1530.1.1={
		death=yes
	}
}
2400105={
	name="Muneshige"
	dynasty=829 # Kuno
	father=2400101 # Kuno Munetada
#	mother=
	religion="buddhist"
	culture="tokai"
	1500.1.1={
		birth=yes
	}
	1550.1.1={
		death=yes
	}
}
2400110={
	name="Motomune"
	dynasty=829 # Kuno
	father=2400105 # Kuno Muneshige
#	mother=
	religion="buddhist"
	culture="tokai"
	1520.1.1={
		birth=yes
	}
	1560.6.12={
		death=yes
	}
}
2400111={
	name="Munetsune"
	dynasty=829 # Kuno
	father=2400105 # Kuno Muneshige
#	mother=
	religion="buddhist"
	culture="tokai"
	1522.1.1={
		birth=yes
	}
	1560.6.12={
		death=yes
	}
}
2400112={
	name="Muneyoshi"
	dynasty=829 # Kuno
	father=2400105 # Kuno Muneshige
#	mother=
	religion="buddhist"
	culture="tokai"
	1527.1.1={
		birth=yes
	}
	1609.11.4={
		death=yes
	}
}

#----------------------------------------------------------
## Totomi=Okouchi Clan
#----------------------------------------------------------

2400200={
	name="Sadatsuna"
	dynasty=830 # Okouchi
#	father=
#	mother=
	religion="buddhist"
	culture="tokai"
	martial=7
	add_trait="skilled_tactician"
	add_trait="patient"
	add_trait="defensive_leader"
	1460.1.1={
		birth=yes
	}
	1517.9.4={
		death=yes
	}
}

#----------------------------------------------------------
## Mikawa=Tominaga Clan
#----------------------------------------------------------

2410100={
	name="Saneyuki"
	dynasty=831 # Tominaga
	father=2390461 # Tominaga Suketaka
#	mother=
	religion="buddhist"
	culture="tokai"
	1175.1.1={
		birth=yes
	}
	1235.1.1={
		death=yes
	}
}
2410101={
	name="Sanehira"
	dynasty=831 # Tominaga
	father=2410100 # Tominaga Saneyuki
#	mother=
	religion="buddhist"
	culture="tokai"
	1200.1.1={
		birth=yes
	}
	1260.1.1={
		death=yes
	}
}
2410105={
	name="Suketsuna"
	dynasty=831 # Tominaga
	father=2410101 # Tominaga Sanehira
#	mother=
	religion="buddhist"
	culture="tokai"
	1225.1.1={
		birth=yes
	}
	1285.1.1={
		death=yes
	}
}
2410110={
	name="Sukekuni"
	dynasty=831 # Tominaga
	father=2410105 # Tominaga Suketsuna
#	mother=
	religion="buddhist"
	culture="tokai"
	1250.1.1={
		birth=yes
	}
	1310.1.1={
		death=yes
	}
}
2410115={
	name="Sukesato"
	dynasty=831 # Tominaga
	father=2410110 # Tominaga Sukekuni
#	mother=
	religion="buddhist"
	culture="tokai"
	1275.1.1={
		birth=yes
	}
	1325.1.1={
		death=yes
	}
}
2410120={
	name="Naosato"
	dynasty=831 # Tominaga
	father=2410115 # Tominaga Sukesato
#	mother=
	religion="buddhist"
	culture="tokai"
	1300.1.1={
		birth=yes
	}
	1360.1.1={
		death=yes
	}
}
2410121={
	name="Sukenao"
	dynasty=831 # Tominaga
	father=2410115 # Tominaga Sukesato
#	mother=
	religion="buddhist"
	culture="tokai"
	1302.1.1={
		birth=yes
	}
	1360.1.1={
		death=yes
	}
}
2410125={
	name="Naokane"
	dynasty=831 # Tominaga
	father=2410120 # Tominaga Naosato
#	mother=
	religion="buddhist"
	culture="tokai"
	1325.1.1={
		birth=yes
	}
	1385.1.1={
		death=yes
	}
}
2410130={
	name="Takakane"
	dynasty=831 # Tominaga
	father=2410125 # Tominaga Naokane
#	mother=
	religion="buddhist"
	culture="tokai"
	1350.1.1={
		birth=yes
	}
	1410.1.1={
		death=yes
	}
}
2410135={
	name="Sukekazu"
	dynasty=831 # Tominaga
	father=2410130 # Tominaga Takakane
#	mother=
	religion="buddhist"
	culture="tokai"
	1380.1.1={
		birth=yes
	}
	1440.1.1={
		death=yes
	}
}
2410140={
	name="Nobusuke"
	dynasty=831 # Tominaga
	father=2410135 # Tominaga Sukekazu
#	mother=
	religion="buddhist"
	culture="tokai"
	1410.1.1={
		birth=yes
	}
	1470.1.1={
		death=yes
	}
}
2410145={
	name="Tomisuke"
	dynasty=831 # Tominaga
	father=2410140 # Tominaga Nobusuke
#	mother=
	religion="buddhist"
	culture="tokai"
	1440.1.1={
		birth=yes
	}
	1490.1.1={
		death=yes
	}
}
2410150={
	name="Hisakane"
	dynasty=831 # Tominaga
	father=2410145 # Tominaga Tomisuke
#	mother=
	religion="buddhist"
	culture="tokai"
	1470.1.1={
		birth=yes
	}
	1500.1.1={
		death=yes
	}
}
2410155={
	name="Senwakamaru"
	dynasty=831 # Tominaga
	father=2410150 # Tominaga Hisakane
#	mother=
	religion="buddhist"
	culture="tokai"
	1500.1.1={
		birth=yes
	}
	1506.1.1={
		death=yes
	}
}

#----------------------------------------------------------
## Mikawa=Tojo Clan
#----------------------------------------------------------

2410200={
	name="Kuniuji"
	dynasty=832 # Tojo
#	father=
#	mother=
	religion="buddhist"
	culture="tokai"
	stewardship=9
	add_trait="thrifty_clerk"
	1430.1.1={
		birth=yes
	}
	1476.9.1={
		death=yes
	}
}

#----------------------------------------------------------
## Mikawa=Hatano Clan
#----------------------------------------------------------

2410300={
	name="Tokimasa"
	dynasty=833 # Hatano
#	father=
#	mother=
	religion="buddhist"
	culture="tokai"
	1440.1.1={
		birth=yes
	}
	1493.1.1 ={
		death=yes
	}
}
