###############################################################################
#
# Crusader Kings II (developed by Paradox Development Studio) MOD
# Nova Monumenta Iaponiae Historica (NMIH)
# Character data file for 10 - 14 century historical characters.
# 
# @param file_name 12C-03_southern_oshu_characters.txt
# @param culture southern_oshu
# @param id_range 2,060,000 - 2,089,999
# 
###############################################################################

#----------------------------------------------------------
## Shinobu=Sato Family
#----------------------------------------------------------

2060000={
	name="Nagayuki"
	dynasty=6147 # Sato
	father=1004666 # 
#	mother=
	religion="buddhist"
	culture="southern_oshu"
	add_trait = "tough_soldier"
	1010.1.1={
		birth=yes
	}
	1070.1.1={
		death=yes
	}
}
2060005={
	name="Kimisuke"
	dynasty=6147 # Sato
	father=2060000 # 
#	mother=
	religion="buddhist"
	culture="southern_oshu"
	add_trait = "tough_soldier"
	1030.1.1={
		birth=yes
	}
	1090.1.1={
		death=yes
	}
}
2060010={
	name="Morokiyo"
	dynasty=6147 # Sato
	father=2060005 # 
#	mother=
	religion="buddhist"
	culture="southern_oshu"
	add_trait = "tough_soldier"
	1050.1.1={
		birth=yes
	}
	1110.1.1={
		death=yes
	}
}
2060015={
	name="Morofumi"
	dynasty=6147 # Sato
	father=2060010 # 
#	mother=
	religion="buddhist"
	culture="southern_oshu"
	add_trait = "tough_soldier"
	1070.1.1={
		birth=yes
	}
	1130.1.1={
		death=yes
	}
}


2060050={
	name="Moroharu"
	dynasty=6147 # Sato
	father=2060015
#mother=
	religion="buddhist"
	culture="southern_oshu"
#	martial=
#	diplomacy=
#	intrigue=
#	stewardship=
	learning=1
	disallow_random_traits=yes
	1090.1.1={
		birth=yes
	}
	1142.1.1={
		death=yes
	}
}


2060051={
	name="Takatsuna"
	dynasty=7204 # Kawabe
	father=2060015 # 
#	mother=
	religion="buddhist"
	culture="southern_oshu"
	add_trait = "tough_soldier"
	1120.1.1={
		birth=yes
	}
	1180.1.1={
		employer=2060060
	}
	1189.9.21={
		death=yes
	}
}

2060052={
	name="Takashige"
	dynasty=7205 # Igarame
	father=2060015 # 
#	mother=
	religion="buddhist"
	culture="southern_oshu"
	add_trait = "tough_soldier"
	1122.1.1={
		birth=yes
	}
	1180.1.1={
		employer=2060060
	}
	1189.9.21={
		death=yes
	}
}

2060060={
	name="Motoharu"
	dynasty=6147 # Sato
	father=2060050 # Sato Moroharu
#mother=
	religion="buddhist"
	culture="southern_oshu"
#	martial=
#	diplomacy=
#	intrigue=
#	stewardship=
	learning=1
	add_trait="skilled_tactician"
	add_trait="strategist"
	disallow_random_traits=yes
	1113.1.1={
		birth=yes
	}
	1157.1.1={
		add_spouse=2030042
	}
	1189.9.21={
		death=yes
	}
}

2060070={
	name="Takaharu"
	dynasty=6147 # Sato
	father=2060060 # Sato Motoharu
#mother=
	religion="buddhist"
	culture="southern_oshu"
#	martial=
#	diplomacy=
#	intrigue=
#	stewardship=
	learning=1
	disallow_random_traits=yes
	add_trait="legit_bastard"
	1140.1.1={
		birth=yes
	}
	1189.9.21={
		death=yes
	}
}

2060071={
	name="Harukiyo"
	dynasty=6147 # Sato
	father=2060060 # Sato Motoharu
#mother=
	religion="buddhist"
	culture="southern_oshu"
#	martial=
#	diplomacy=
#	intrigue=
#	stewardship=
	learning=1
	disallow_random_traits=yes
	add_trait="legit_bastard"
	1145.1.1={
		birth=yes
	}
	1189.9.21={
		death=yes
	}
}

2060072={
	name="Tsugunobu"
	dynasty=6147 # Sato
	father=2060060 # Sato Motoharu
	mother=2030042 # Fujiwara Towako
	religion="buddhist"
	culture="southern_oshu"
#	martial=
#	diplomacy=
#	intrigue=
#	stewardship=
	learning=1
	add_trait="skilled_tactician"
	add_trait="brave"
	disallow_random_traits=yes
	1158.1.1={
		birth=yes
		employer=2030020 # Fujiwara Hidehira
		effect = {
			set_character_flag = vassal_of_yoshitsune
		}
	}
	1180.11.10={
		employer=120075 # Minamoto Yoritomo
	}
	1184.3.5={
		employer=120081 # Minamoto Yoshitsune
	}
	1185.3.22={
		death=yes
	}
}

2060073={
	name="Tadanobu"
	dynasty=6147 # Sato
	father=2060060 # Sato Motoharu
	mother=2030042 # Fujiwara Towako
	religion="buddhist"
	culture="southern_oshu"
#	martial=
#	diplomacy=
#	intrigue=
#	stewardship=
	learning=1
	add_trait="skilled_tactician"
	add_trait="strong"
	disallow_random_traits=yes
	1161.1.1={
		birth=yes
		employer=2030020 # Fujiwara Hidehira
		effect = {
			set_character_flag = vassal_of_yoshitsune
		}
	}
	1180.11.10={
		employer=120075 # Minamoto Yoritomo
	}
	1184.3.5={
		employer=120081 # Minamoto Yoshitsune
	}
	1186.11.4={
		death=yes
	}
}

2060074={
	name="Fujinoe"
	female=yes
	dynasty=6147 # Sato
	father=2060060 # Sato Motoharu
	mother=2030042 # Fujiwara Towako
	religion="buddhist"
	culture="southern_oshu"
#	martial=
#	diplomacy=
#	intrigue=
#	stewardship=
	learning=1
	disallow_random_traits=yes
	1163.1.1={
		birth=yes
	}
	1189.8.9={
		death=yes
	}
}

2060075={
	name="Naminoe"
	female=yes
	dynasty=6147 # Sato
	father=2060060 # Sato Motoharu
	mother=2030042 # Fujiwara Towako
	religion="buddhist"
	culture="southern_oshu"
#	martial=
#	diplomacy=
#	intrigue=
#	stewardship=
	learning=1
	disallow_random_traits=yes
	1164.1.1={
		birth=yes
	}
	1189.9.21={
		death=yes
	}
}

#----------------------------------------------------------
## Mutsu=Ishikawa Family
#----------------------------------------------------------
2060500={
	name="Mitsusuke"
	dynasty=85 # Ishikawa
	father=120151 # Minamoto Arimitsu
#mother=
	religion="buddhist"
	culture="southern_oshu"
#	martial=
#	diplomacy=
#	intrigue=
#	stewardship=
	learning=1
	disallow_random_traits=yes
	1057.1.1={
		birth=yes
	}
	1107.1.1={
		death=yes
	}
}

2060501={
	name="Mitsuhira"
	dynasty=85 # Ishikawa
	father=120151 # Minamoto Arimitsu
#mother=
	religion="buddhist"
	culture="southern_oshu"
#	martial=
#	diplomacy=
#	intrigue=
#	stewardship=
	learning=1
	disallow_random_traits=yes
	1058.1.1={
		birth=yes
	}
	1108.1.1={
		death=yes
	}
}

2060502={
	name="Motomitsu"
	dynasty=85 # Ishikawa
	father=120151 # Minamoto Arimitsu
#mother=
	religion="buddhist"
	culture="southern_oshu"
#	martial=
#	diplomacy=
#	intrigue=
#	stewardship=
	learning=1
	disallow_random_traits=yes
	1060.1.1={
		birth=yes
	}
	1099.9.24={
		death=yes
	}
}

2060503={
	name="Kofu"
	dynasty=85 # Ishikawa
	father=120151 # Minamoto Arimitsu
#mother=
	religion="buddhist"
	culture="southern_oshu"
#	martial=
#	diplomacy=
#	intrigue=
#	stewardship=
	learning=1
	disallow_random_traits=yes
	1061.1.1={
		birth=yes
	}
	1111.1.1={
		death=yes
	}
}

2060504={
	name="Mitsufusa"
	dynasty=85 # Ishikawa
	father=120151 # Minamoto Arimitsu
#mother=
	religion="buddhist"
	culture="southern_oshu"
#	martial=
#	diplomacy=
#	intrigue=
#	stewardship=
	learning=1
	disallow_random_traits=yes
	1062.1.1={
		birth=yes
	}
	1112.1.1={
		death=yes
	}
}

2060505={
	female=yes
	name="Ariko"
	dynasty=85 # Ishikawa
	father=120151 # Minamoto Arimitsu
#mother=
	religion="buddhist"
	culture="southern_oshu"
#	martial=
#	diplomacy=
#	intrigue=
#	stewardship=
	learning=1
	disallow_random_traits=yes
	1063.1.1={
		birth=yes
	}
	1113.1.1={
		death=yes
	}
}

2060506={
	name="Mitsunori"
	dynasty=85 # Ishikawa
	father=120151 # Minamoto Arimitsu
#mother=
	religion="buddhist"
	culture="southern_oshu"
#	martial=
#	diplomacy=
#	intrigue=
#	stewardship=
	learning=1
	disallow_random_traits=yes
	1064.1.1={
		birth=yes
	}
	1114.1.1={
		death=yes
	}
}

2060507={
	name="Mitsusuke"
	dynasty=85 # Ishikawa
	father=120151 # Minamoto Arimitsu
#mother=
	religion="buddhist"
	culture="southern_oshu"
#	martial=
#	diplomacy=
#	intrigue=
#	stewardship=
	learning=1
	disallow_random_traits=yes
	1065.1.1={
		birth=yes
	}
	1115.1.1={
		death=yes
	}
}

2060508={
	name="Arisuke"
	dynasty=85 # Ishikawa
	father=120151 # Minamoto Arimitsu
#mother=
	religion="buddhist"
	culture="southern_oshu"
#	martial=
#	diplomacy=
#	intrigue=
#	stewardship=
	learning=1
	disallow_random_traits=yes
	1066.1.1={
		birth=yes
	}
	1116.1.1={
		death=yes
	}
}

2060510={
	name="Kochu"
	dynasty=85 # Ishikawa
	father=2060502 # Ishikawa Motomitsu
#mother=
	religion="buddhist"
	culture="southern_oshu"
#	martial=
#	diplomacy=
#	intrigue=
#	stewardship=
	learning=1
	disallow_random_traits=yes
	1080.1.1={
		birth=yes
	}
	1130.1.1={
		death=yes
	}
}

2060511={
	name="Mitsuyoshi"
	dynasty=85 # Ishikawa
	father=2060502 # Ishikawa Motomitsu
#mother=
	religion="buddhist"
	culture="southern_oshu"
#	martial=
#	diplomacy=
#	intrigue=
#	stewardship=
	learning=1
	disallow_random_traits=yes
	1082.1.1={
		birth=yes
	}
	1121.4.19={
		death=yes
	}
}

2060512={
	name="Sueyasu"
	dynasty=85 # Ishikawa
	father=2060502 # Ishikawa Motomitsu
#mother=
	religion="buddhist"
	culture="southern_oshu"
#	martial=
#	diplomacy=
#	intrigue=
#	stewardship=
	learning=1
	disallow_random_traits=yes
	1083.1.1={
		birth=yes
	}
	1133.1.1={
		death=yes
	}
}

2060513={
	name="Saburo"
	dynasty=85 # Ishikawa
	father=2060502 # Ishikawa Motomitsu
#mother=
	religion="buddhist"
	culture="southern_oshu"
#	martial=
#	diplomacy=
#	intrigue=
#	stewardship=
	learning=1
	disallow_random_traits=yes
	1084.1.1={
		birth=yes
	}
	1094.1.1={
		death=yes
	}
}

2060514={
	name="Masamitsu"
	dynasty=85 # Ishikawa
	father=2060502 # Ishikawa Motomitsu
#mother=
	religion="buddhist"
	culture="southern_oshu"
#	martial=
#	diplomacy=
#	intrigue=
#	stewardship=
	learning=1
	disallow_random_traits=yes
	1086.1.1={
		birth=yes
	}
	1136.1.1={
		death=yes
	}
}

2060515={
	name="Tadashige"
	dynasty=85 # Ishikawa
	father=2060502 # Ishikawa Motomitsu
#mother=
	religion="buddhist"
	culture="southern_oshu"
#	martial=
#	diplomacy=
#	intrigue=
#	stewardship=
	learning=1
	disallow_random_traits=yes
	1088.1.1={
		birth=yes
	}
	1108.1.1={
		death=yes
	}
}

2060516={
	name="Rokuro"
	dynasty=85 # Ishikawa
	father=2060502 # Ishikawa Motomitsu
#mother=
	religion="buddhist"
	culture="southern_oshu"
#	martial=
#	diplomacy=
#	intrigue=
#	stewardship=
	learning=1
	disallow_random_traits=yes
	1090.1.1={
		birth=yes
	}
	1100.1.1={
		death=yes
	}
}

2060517={
	name="Yoshimoto"
	dynasty=85 # Ishikawa
	father=2060502 # Ishikawa Motomitsu
#mother=
	religion="buddhist"
	culture="southern_oshu"
#	martial=
#	diplomacy=
#	intrigue=
#	stewardship=
	learning=1
	disallow_random_traits=yes
	1092.1.1={
		birth=yes
	}
	1142.1.1={
		death=yes
	}
}

2060520={
	female=yes
	name="Mitsuko"
	dynasty=85 # Ishikawa
	father=2060511 # Ishikawa Mitsuyoshi
#mother=
	religion="buddhist"
	culture="southern_oshu"
#	martial=
#	diplomacy=
#	intrigue=
#	stewardship=
	learning=1
	disallow_random_traits=yes
	1107.1.1={
		birth=yes
	}
	1136.1.1={
		death=yes
	}
}

2060521={
	name="Yoshisue"
	dynasty=85 # Ishikawa
	father=2060511 # Ishikawa Mitsuyoshi
#mother=
	religion="buddhist"
	culture="southern_oshu"
#	martial=
#	diplomacy=
#	intrigue=
#	stewardship=
	learning=1
	disallow_random_traits=yes
	1109.1.1={
		birth=yes
	}
	1177.8.1={
		death=yes
	}
}

2060522={
	name="Yoshimitsu"
	dynasty=85 # Ishikawa
	father=2060511 # Ishikawa Mitsuyoshi
#mother=
	religion="buddhist"
	culture="southern_oshu"
#	martial=
#	diplomacy=
#	intrigue=
#	stewardship=
	learning=1
	disallow_random_traits=yes
	1111.1.1={
		birth=yes
	}
	1161.1.1={
		death=yes
	}
}

2060523={
	female=yes
	name="Akiko"
	dynasty=85 # Ishikawa
	father=2060511 # Ishikawa Mitsuyoshi
#mother=
	religion="buddhist"
	culture="southern_oshu"
#	martial=
#	diplomacy=
#	intrigue=
#	stewardship=
	learning=1
	disallow_random_traits=yes
	1112.1.1={
		birth=yes
	}
	1122.1.1={
		death=yes
	}
}

2060524={
	female=yes
	name="Kaneko"
	dynasty=85 # Ishikawa
	father=2060511 # Ishikawa Mitsuyoshi
#mother=
	religion="buddhist"
	culture="southern_oshu"
#	martial=
#	diplomacy=
#	intrigue=
#	stewardship=
	learning=1
	disallow_random_traits=yes
	1114.1.1={
		birth=yes
	}
	1164.1.1={
		death=yes
	}
}

2060525={
	name="Mitsuharu"
	dynasty=85 # Ishikawa
	father=2060511 # Ishikawa Mitsuyoshi
#mother=
	religion="buddhist"
	culture="southern_oshu"
#	martial=
#	diplomacy=
#	intrigue=
#	stewardship=
	learning=1
	disallow_random_traits=yes
	1115.1.1={
		birth=yes
	}
	1180.1.1={
		employer=2060531 # Ishikawa Motomitsu
	}
	1200.1.1={
		death=yes
	}
}

2060526={
	female=yes
	name="Teruko"
	dynasty=85 # Ishikawa
	father=2060511 # Ishikawa Mitsuyoshi
#mother=
	religion="buddhist"
	culture="southern_oshu"
#	martial=
#	diplomacy=
#	intrigue=
#	stewardship=
	learning=1
	disallow_random_traits=yes
	1116.1.1={
		birth=yes
	}
	1201.1.1={
		death=yes
	}
}

2060527={
	name="Mitsushige"
	dynasty=85 # Ishikawa
	father=2060511 # Ishikawa Mitsuyoshi
#mother=
	religion="buddhist"
	culture="southern_oshu"
#	martial=
#	diplomacy=
#	intrigue=
#	stewardship=
	learning=1
	disallow_random_traits=yes
	1117.1.1={
		birth=yes
	}
	1180.1.1={
		employer=2060531 # Ishikawa Motomitsu
	}
	1202.1.1={
		death=yes
	}
}

2060530={
	name="Taro"
	dynasty=85 # Ishikawa
	father=2060521 # Ishikawa Yoshisue
#mother=
	religion="buddhist"
	culture="southern_oshu"
#	martial=
#	diplomacy=
#	intrigue=
#	stewardship=
	learning=1
	disallow_random_traits=yes
	1129.1.1={
		birth=yes
	}
	1139.1.1={
		death=yes
	}
}

2060531={
	name="Motomitsu"
	dynasty=85 # Ishikawa
	father=2060521 # Ishikawa Yoshisue
#mother=
	religion="buddhist"
	culture="southern_oshu"
#	martial=
#	diplomacy=
#	intrigue=
#	stewardship=
	learning=1
	disallow_random_traits=yes
	1139.1.1={
		birth=yes
	}
	1180.1.1={
		employer=2060531 # Ishikawa Motomitsu
	}
	1199.4.29={
		death=yes
	}
}

2060540={
	name="Hirosue"
	dynasty=85 # Ishikawa
	father=2060531 # Ishikawa Motomitsu
#mother=
	religion="buddhist"
	culture="southern_oshu"
#	martial=
#	diplomacy=
#	intrigue=
#	stewardship=
	learning=1
	disallow_random_traits=yes
	1168.1.1={
		birth=yes
	}
	1180.1.1={
		employer=2060531 # Ishikawa Motomitsu
	}
	1248.3.30={
		death=yes
	}
}

#----------------------------------------------------------
## Tamura Clan
#----------------------------------------------------------
2061000={
	name="Yukifumi"
	dynasty=69 # Tamura
	father=2061110
	#mother=
	religion="buddhist"
	culture="southern_oshu"
	learning=1
	disallow_random_traits=yes
	1150.1.1={
		birth=yes
	}
	1210.1.1={
		death=yes
	}
}
2061001={
	name="Yukinori"
	dynasty=69 # Tamura
	father=2061000
	#mother=
	religion="buddhist"
	culture="southern_oshu"
	learning=1
	disallow_random_traits=yes
	1180.1.1={
		birth=yes
	}
	1240.1.1={
		death=yes
	}
}
2061002={
	name="Mitsuyoshi"
	dynasty=69 # Tamura
	father=2061001
	#mother=
	religion="buddhist"
	culture="southern_oshu"
	learning=1
	disallow_random_traits=yes
	1210.1.1={
		birth=yes
	}
	1270.1.1={
		death=yes
	}
}
2061003={
	name="Yukiyoshi"
	dynasty=69 # Tamura
	father=2061002
	#mother=
	religion="buddhist"
	culture="southern_oshu"
	learning=1
	disallow_random_traits=yes
	1240.1.1={
		birth=yes
	}
	1300.1.1={
		death=yes
	}
}
2061004={
	name="Terusada"
	dynasty=69 # Tamura
	father=2061003
	#mother=
	religion="buddhist"
	culture="southern_oshu"
	learning=1
	disallow_random_traits=yes
	1270.1.1={
		birth=yes
	}
	1330.1.1={
		death=yes
	}
}
2061005={
	name="Sadayoshi"
	dynasty=69 # Tamura
	father=2061004
	#mother=
	religion="buddhist"
	culture="southern_oshu"
	learning=1
	disallow_random_traits=yes
	1300.1.1={
		birth=yes
	}
	1360.1.1={
		death=yes
	}
}
2061006={
	name="Ieyoshi"
	dynasty=69 # Tamura
	father=2061004
	#mother=
	religion="buddhist"
	culture="southern_oshu"
	learning=1
	disallow_random_traits=yes
	1305.1.1={
		birth=yes
	}
	1365.1.1={
		death=yes
	}
}
2061007={
	name="Noriyoshi"
	dynasty=69 # Tamura
	father=2061005
	#mother=
	religion="buddhist"
	culture="southern_oshu"
	learning=1
	disallow_random_traits=yes
	1330.1.1={
		birth=yes
	}
	1396.1.1={
		death={
			death_reason=death_battle
		}
	}
}
2061008={
	name="Kiyokane"
	dynasty=69 # Tamura
	father=2061007
	#mother=
	religion="buddhist"
	culture="southern_oshu"
	learning=1
	disallow_random_traits=yes
	1360.1.1={
		birth=yes
	}
	1396.1.1={
		death={
			death_reason=death_battle
		}
	}
}
2061009={
	name="Mitsuaki"
	dynasty=69 # Tamura
	father=2061006
	#mother=
	religion="buddhist"
	culture="southern_oshu"
	learning=1
	disallow_random_traits=yes
	1340.1.1={
		birth=yes
	}
	1400.1.1={
		death=yes
	}
}
2061010={
	name="Mochiaki"
	dynasty=69 # Tamura
	father=2061009
	#mother=
	religion="buddhist"
	culture="southern_oshu"
	learning=1
	disallow_random_traits=yes
	1375.1.1={
		birth=yes
	}
	1435.1.1={
		death=yes
	}
}
2061011={
	name="Naoaki"
	dynasty=69 # Tamura
	father=2061010
	#mother=
	religion="buddhist"
	culture="southern_oshu"
	learning=1
	disallow_random_traits=yes
	1410.1.1={
		birth=yes
	}
	1470.1.1={
		death=yes
	}
}

# Ancestors (Sakanoue Tamuramaro's line)

2061100={
	name="Mineo"
	dynasty=5533 # Sakanoue
	father=252036
	#mother=
	religion="buddhist"
	culture="southern_oshu"
	learning=1
	disallow_random_traits=yes
	820.1.1={
		birth=yes
	}
	880.1.1={
		death=yes
	}
}

2061101={
	name="Minemasu"
	dynasty=5533 # Sakanoue
	father=2061100
	#mother=
	religion="buddhist"
	culture="southern_oshu"
	learning=1
	disallow_random_traits=yes
	850.1.1={
		birth=yes
	}
	910.1.1={
		death=yes
	}
}
2061102={
	name="Yukimatsu"
	dynasty=5533 # Sakanoue
	father=2061101
	#mother=
	religion="buddhist"
	culture="southern_oshu"
	learning=1
	disallow_random_traits=yes
	880.1.1={
		birth=yes
	}
	940.1.1={
		death=yes
	}
}
2061103={
	name="Takatoki"
	dynasty=5533 # Sakanoue
	father=2061102
	#mother=
	religion="buddhist"
	culture="southern_oshu"
	learning=1
	disallow_random_traits=yes
	910.1.1={
		birth=yes
	}
	970.1.1={
		death=yes
	}
}
2061104={
	name="Kimimune"
	dynasty=5533 # Sakanoue
	father=2061103
	#mother=
	religion="buddhist"
	culture="southern_oshu"
	learning=1
	disallow_random_traits=yes
	940.1.1={
		birth=yes
	}
	1000.1.1={
		death=yes
	}
}
2061105={
	name="Ariyuki"
	dynasty=5533 # Sakanoue
	father=2061104
	#mother=
	religion="buddhist"
	culture="southern_oshu"
	learning=1
	disallow_random_traits=yes
	970.1.1={
		birth=yes
	}
	1030.1.1={
		death=yes
	}
}
2061106={
	name="Arito"
	dynasty=5533 # Sakanoue
	father=2061105
	#mother=
	religion="buddhist"
	culture="southern_oshu"
	learning=1
	disallow_random_traits=yes
	1000.1.1={
		birth=yes
	}
	1060.1.1={
		death=yes
	}
}
2061107={
	name="Kiyoto"
	dynasty=5533 # Sakanoue
	father=2061106
	#mother=
	religion="buddhist"
	culture="southern_oshu"
	learning=1
	disallow_random_traits=yes
	1030.1.1={
		birth=yes
	}
	1090.1.1={
		death=yes
	}
}
2061108={
	name="Kiyoyuki"
	dynasty=5533 # Sakanoue
	father=2061107
	#mother=
	religion="buddhist"
	culture="southern_oshu"
	learning=1
	disallow_random_traits=yes
	1060.1.1={
		birth=yes
	}
	1120.1.1={
		death=yes
	}
}
2061109={
	name="Yukihira"
	dynasty=5533 # Sakanoue
	father=2061108
	#mother=
	religion="buddhist"
	culture="southern_oshu"
	learning=1
	disallow_random_traits=yes
	1090.1.1={
		birth=yes
	}
	1150.1.1={
		death=yes
	}
}
2061110={
	name="Yukimune"
	dynasty=5533 # Sakanoue
	father=2061109
	#mother=
	religion="buddhist"
	culture="southern_oshu"
	learning=1
	disallow_random_traits=yes
	1120.1.1={
		birth=yes
	}
	1180.1.1={
		death=yes
	}
}

#----------------------------------------------------------
## Iwaki Clan
#----------------------------------------------------------
2061550={
	name="Tadakiyo"
	dynasty=72 # Iwaki
#father=
#mother=
	religion="buddhist"
	culture="southern_oshu"
#	martial=
#	diplomacy=
#	intrigue=
#	stewardship=
	learning=1
	disallow_random_traits=yes
	1100.1.1={
		birth=yes
	}
	1170.1.1={
		death=yes
	}
}

2061560={
	name="Kiyotaka"
	dynasty=72 # Iwaki
	father=2061550 # Iwaki Tadakiyo
#mother=
	religion="buddhist"
	culture="southern_oshu"
#	martial=
#	diplomacy=
#	intrigue=
#	stewardship=
	learning=1
	disallow_random_traits=yes
	1140.1.1={
		birth=yes
	}
	1200.1.1={
		death=yes
	}
}

2061570={
	name="Morotaka"
	dynasty=72 # Iwaki
	father=2061560 # Iwaki Kiyotaka
#mother=
	religion="buddhist"
	culture="southern_oshu"
#	martial=
#	diplomacy=
#	intrigue=
#	stewardship=
	learning=1
	disallow_random_traits=yes
	1170.1.1={
		birth=yes
	}
	1230.1.1={
		death=yes
	}
}

2061575={
	name="Takayoshi"
	dynasty=72 # Iwaki
	father=2061570 # Iwaki Morotaka
#mother=#unknown
	religion="buddhist"
	culture="aristocrats"
#	martial=
#	diplomacy=
#	intrigue=
#	stewardship=
#	learning=
	disallow_random_traits=yes
	1190.1.1={
		birth=yes
	}
	1240.1.1={
		death=yes
	}
}

2061571={
	name="Shigetaka"
	dynasty=72 # Iwaki
	father=2061570 # Iwaki Morotaka
#mother=#unknown
	religion="buddhist"
	culture="aristocrats"
#	martial=
#	diplomacy=
#	intrigue=
#	stewardship=
#	learning=
	disallow_random_traits=yes
	1192.1.1={
		birth=yes
	}
	1242.1.1={
		death=yes
	}
}

2061572={
	name="Takayuki"
	dynasty=72 # Iwaki
	father=2061570 # Iwaki Morotaka
#mother=#unknown
	religion="buddhist"
	culture="aristocrats"
#	martial=
#	diplomacy=
#	intrigue=
#	stewardship=
#	learning=
	disallow_random_traits=yes
	1195.1.1={
		birth=yes
	}
	1211.1.1={
		give_nickname="nick_jio"
	}
	1245.1.1={
		death=yes
	}
}

2061580={
	name="Takahira"
	dynasty=72 # Iwaki
	father=2061572 # Iwaki Takayuki
#mother=#unknown
	religion="buddhist"
	culture="aristocrats"
#	martial=
#	diplomacy=
#	intrigue=
#	stewardship=
#	learning=
	disallow_random_traits=yes
	1215.1.1={
		birth=yes
	}
	1231.1.1={
		give_nickname="nick_jio"
	}
	1265.1.1={
		death=yes
	}
}

2061590={
	name="Takamori"
	dynasty=72 # Iwaki
	father=2061580 # Iwaki Takahira
#mother=#unknown
	religion="buddhist"
	culture="aristocrats"
#	martial=
#	diplomacy=
#	intrigue=
#	stewardship=
#	learning=
	disallow_random_traits=yes
	1236.1.1={
		birth=yes
	}
	1252.1.1={
		give_nickname="nick_jio"
	}
	1286.1.1={
		death=yes
	}
}

2061600={
	name="Yoshihira"
	dynasty=72 # Iwaki
	father=2061590 # Iwaki Takamori
#mother=#unknown
	religion="buddhist"
	culture="aristocrats"
#	martial=
#	diplomacy=
#	intrigue=
#	stewardship=
#	learning=
	disallow_random_traits=yes
	1256.1.1={
		birth=yes
	}
	1272.1.1={
		give_nickname="nick_jio"
	}
	1306.1.1={
		death=yes
	}
}

2061610={
	name="Teruhira"
	dynasty=72 # Iwaki
	father=2061600 # Iwaki Yoshihira
#mother=#unknown
	religion="buddhist"
	culture="aristocrats"
#	martial=
#	diplomacy=
#	intrigue=
#	stewardship=
#	learning=
	disallow_random_traits=yes
	1277.1.1={
		birth=yes
	}
	1293.1.1={
		give_nickname="nick_jio"
	}
	1327.1.1={
		death=yes
	}
}

2061620={
	name="Teruyoshi"
	dynasty=72 # Iwaki
	father=2061610 # Iwaki Teruhira
#mother=#unknown
	religion="buddhist"
	culture="aristocrats"
#	martial=
#	diplomacy=
#	intrigue=
#	stewardship=
#	learning=
	disallow_random_traits=yes
	1297.1.1={
		birth=yes
	}
	1313.1.1={
		give_nickname="nick_jio"
	}
	1347.1.1={
		death=yes
	}
}

2061630={
	name="Tomoyoshi"
	dynasty=72 # Iwaki
	father=2061620 # Iwaki Teruyoshi
#mother=#unknown
	religion="buddhist"
	culture="aristocrats"
#	martial=
#	diplomacy=
#	intrigue=
#	stewardship=
#	learning=
	disallow_random_traits=yes
	1318.1.1={
		birth=yes
	}
	1334.1.1={
		give_nickname="nick_jio"
	}
	1368.1.1={
		death=yes
	}
}

2061640={
	name="Tsunetomo"
	dynasty=72 # Iwaki
	father=2061630 # Iwaki Tomoyoshi 
#mother=#unknown
	religion="buddhist"
	culture="aristocrats"
#	martial=
#	diplomacy=
#	intrigue=
#	stewardship=
#	learning=
	disallow_random_traits=yes
	1338.1.1={
		birth=yes
	}
	1354.1.1={
		give_nickname="nick_jio"
	}
	1388.1.1={
		death=yes
	}
}

2061650={
	name="Kiyotane"
	dynasty=72 # Iwaki
	father=2061640 # Iwaki Tsunetomo
#mother=#unknown
	religion="buddhist"
	culture="aristocrats"
#	martial=
#	diplomacy=
#	intrigue=
#	stewardship=
#	learning=
	disallow_random_traits=yes
	1359.1.1={
		birth=yes
	}
	1375.1.1={
		give_nickname="nick_jio"
	}
	1409.1.1={
		death=yes
	}
}

#----------------------------------------------------------
## Natori Family
#----------------------------------------------------------
2061700={
	name="Hidetsuna"
	dynasty=6148 # Natori
#father=
#mother=
	religion="buddhist"
	culture="southern_oshu"
#	martial=
#	diplomacy=
#	intrigue=
#	stewardship=
	learning=1
	add_trait="martial_cleric"
	add_trait="strategist"
	disallow_random_traits=yes
	1140.1.1={
		birth=yes
	}
	1189.9.21={
		death=yes
	}
}

2061710={
	name="Hidekata"
	dynasty=6148 # Natori
	father=2061700 # Natori Hidetsuna
#mother=
	religion="buddhist"
	culture="southern_oshu"
#	martial=
#	diplomacy=
#	intrigue=
#	stewardship=
	learning=1
	add_trait="martial_cleric"
	add_trait="brave"
	disallow_random_traits=yes
	1173.1.1={
		birth=yes
	}
	1189.9.21={
		death=yes
	}
}

#----------------------------------------------------------
## Kon Family
#----------------------------------------------------------
2061900={
	name="Hidetoki"
	dynasty=6149 # Kon
#father=
#mother=
	religion="buddhist"
	culture="southern_oshu"
#	martial=
#	diplomacy=
#	intrigue=
#	stewardship=
	learning=1
	disallow_random_traits=yes
	1120.1.1={
		birth=yes
	}
	1180.1.1={
		death=yes
	}
}

2061910={
	name="Tametoshi"
	dynasty=6149 # Kon
	father=2061900 # Kon Hidetoki
#mother=
	religion="buddhist"
	culture="southern_oshu"
#	martial=
#	diplomacy=
#	intrigue=
#	stewardship=
	learning=1
	disallow_random_traits=yes
	1140.1.1={
		birth=yes
	}
	1200.1.1={
		death=yes
	}
}

2061920={
	name="Sadatoshi"
	dynasty=6149 # Kon
	father=2061910 # Kon Tametoshi
#mother=
	religion="buddhist"
	culture="southern_oshu"
#	martial=
#	diplomacy=
#	intrigue=
#	stewardship=
	learning=1
	disallow_random_traits=yes
	1170.1.1={
		birth=yes
	}
	1230.1.1={
		death=yes
	}
}

#----------------------------------------------------------
## Nagasaki Family
#----------------------------------------------------------
2062000={
	name="Takazane"
	dynasty=6150 # Nagasaki
#father=
#mother=
	religion="buddhist"
	culture="southern_oshu"
#	martial=
#	diplomacy=
#	intrigue=
#	stewardship=
	learning=1
	disallow_random_traits=yes
	1160.1.1={
		birth=yes
	}
	1189.9.23={
		death=yes
	}
}

#----------------------------------------------------------
## Terui Family
#----------------------------------------------------------
2062200={
	name="Takaharu"
	dynasty=6151 # Terui
#father=
#mother=
	religion="buddhist"
	culture="southern_oshu"
#	martial=
#	diplomacy=
#	intrigue=
#	stewardship=
	learning=1
	disallow_random_traits=yes
	1160.1.1={
		birth=yes
	}
	1189.9.23={
		death=yes
	}
}

#----------------------------------------------------------
## Tachikawa Family
#----------------------------------------------------------

2062220={
	name="Jiro"
	dynasty=7257 # Tachikawa
#	father=
#	mother=
	religion="buddhist"
	culture="southern_oshu"
	1154.1.1={
		birth=yes
	}
	1181.7.25={
		death=yes
	}
}

#----------------------------------------------------------
## Oze Family
#----------------------------------------------------------

2062240={
	name="Yorikuni"
	dynasty=7258 # Oze
#	father=
#	mother=
	religion="buddhist"
	culture="southern_oshu"
	1145.1.1={
		birth=yes
	}
	1185.1.1={
		death=yes
	}
}

#----------------------------------------------------------
## Oshu=Kokubu Clan
#----------------------------------------------------------
2063000={
	name="Moritsune"
	dynasty=7026 # Kokubu
	father=2150491 # Kokubu Moritane
#mother=#unknown
	religion="buddhist"
	culture="southern_oshu"
#	martial=
#	diplomacy=
#	intrigue=
#	stewardship=
	learning=1
	disallow_random_traits=yes
	1345.1.1={
		birth=yes
	}
	1416.9.1={
		death={
			death_reason=death_battle
			#killer= # Watari Shigetane
		}
	}
}


#----------------------------------------------------------
## Shirakawa=Yuki Clan
#----------------------------------------------------------

2064000={
	name="Sukehiro"
	dynasty=102 # Yuki
	father=10225 # 
#	mother=
	religion="buddhist"
	culture="southern_oshu"
	1230.1.1={
		birth=yes
	}
	1246.1.1={
		give_nickname="nick_Yashichiro"
	}
	1290.1.1={
		death=yes
	}
}
2064005={
	name="Munehiro"
	dynasty=102 # Yuki
	father=2064000 # 
#	mother=
	religion="buddhist"
	culture="southern_oshu"
	1266.1.1={
		birth=yes
	}
	1326.1.1={
		give_nickname="nick_kamitsukeno_no_suke"
	}
	1338.10.5={
		add_trait="ill"
		death={
			death_reason=death_trait
		}
	}
}
2064010={
	name="Chikatomo"
	dynasty=102 # Yuki
	father=2064005 # 
#	mother=
	religion="buddhist"
	culture="southern_oshu"
	1290.1.1={
		birth=yes
	}
	1340.1.1={
		give_nickname="nick_shuri_daibu"
	}
	1347.1.1={
		death=yes
	}
}
2064011={
	name="Chikamitsu"
	dynasty=102 # Yuki
	father=2064005 # 
#	mother=
	religion="buddhist"
	culture="southern_oshu"
	1292.1.1={
		birth=yes
	}
	1308.1.1={
		give_nickname="nick_shichiro"
	}
	1336.2.23={
		death={
			death_reason=death_murder
			killer=64011 #　Otomo Sadatoshi
		}
	}
}
2064015={
	name="Akitomo"
	dynasty=102 # Yuki
	father=2064010 # 
#	mother=
	religion="buddhist"
	culture="southern_oshu"
	1320.1.1={
		birth=yes
	}
	1340.1.1={
		give_nickname="nick_daizen_daihu"
	}
	1370.1.1={
		death=yes
	}
}
2064020={
	name="Mitsutomo"
	dynasty=102 # Yuki
	father=2064015 # 
#	mother=
	religion="buddhist"
	culture="southern_oshu"
	1350.1.1={
		birth=yes
	}
	1370.1.1={
		give_nickname="nick_sahyoe_no_jo"
	}
	1420.1.1={
		death=yes
	}
}
2064025={
	name="Ujitomo"
	dynasty=102 # Yuki
	father=2064020 # 
#	mother=
	religion="buddhist"
	culture="southern_oshu"
	1380.1.1={
		birth=yes
	}
	1400.1.1={
		give_nickname="nick_danjo_no_shohitsu"
	}
	1440.1.1={
		death=yes
	}
}

#----------------------------------------------------------
## Oshu=Yamanouchi Clan
#----------------------------------------------------------

2064500={
	name="Hidemoto"
	dynasty=79 # Yamanouchi
	father=130571 # 
#	mother=
	religion="buddhist"
	culture="southern_oshu"
	1210.1.1={
		birth=yes
	}
	1270.1.1={
		death=yes
	}
}
2064505={
	name="Toshiharu"
	dynasty=79 # Yamanouchi
	father=2064500 # 
#	mother=
	religion="buddhist"
	culture="southern_oshu"
	1250.1.1={
		birth=yes
	}
	1310.1.1={
		death=yes
	}
}
2064510={
	name="Yoritoshi"
	dynasty=79 # Yamanouchi
	father=2064505 # 
#	mother=
	religion="buddhist"
	culture="southern_oshu"
	1290.1.1={
		birth=yes
	}
	1350.1.1={
		death=yes
	}
}
2064515={
	name="Toshimoro"
	dynasty=79 # Yamanouchi
	father=2064510 # 
#	mother=
	religion="buddhist"
	culture="southern_oshu"
	1330.1.1={
		birth=yes
	}
	1390.1.1={
		death=yes
	}
}
2064520={
	name="Toshisuke"
	dynasty=79 # Yamanouchi
	father=2064515 # 
#	mother=
	religion="buddhist"
	culture="southern_oshu"
	1365.1.1={
		birth=yes
	}
	1425.1.1={
		death=yes
	}
}
2064525={
	name="Toshiakira"
	dynasty=79 # Yamanouchi
	father=2064520 # 
#	mother=
	religion="buddhist"
	culture="southern_oshu"
	1400.1.1={
		birth=yes
	}
	1475.1.1={
		death=yes
	}
}
2064530={
	name="Toshimitsu"
	dynasty=79 # Yamanouchi
	father=2064525 # 
#	mother=
	religion="buddhist"
	culture="southern_oshu"
	1430.1.1={
		birth=yes
	}
	1490.1.1={
		death=yes
	}
}

#----------------------------------------------------------
## Aidu=Ashina Clan
#----------------------------------------------------------
2070000={
	name="Tsunemitsu"
	dynasty=70 # Ashina
	father=2211223 # Ashina Mitsumori
#mother=#unknown
	religion="buddhist"
	culture="southern_oshu"
#	martial=
#	diplomacy=
#	intrigue=
#	stewardship=
#	learning=
	disallow_random_traits=yes
	1238.1.1={
		birth=yes
	}
	1258.1.1={
		give_nickname="nick_saemon_no_jo"
	}
	1288.1.1={
		death=yes
	}
}

2070001={
	name="Yasumori"
	dynasty=70 # Ashina
	father=2211223 # Ashina Mitsumori
#mother=#unknown
	religion="buddhist"
	culture="southern_oshu"
#	martial=
#	diplomacy=
#	intrigue=
#	stewardship=
#	learning=
	disallow_random_traits=yes
	1245.1.1={
		birth=yes
	}
	1275.1.1={
		give_nickname="nick_saemon_no_jo"
	}
	1295.1.1={
		death=yes
	}
}

2070002={
	name="Morinobu"
	dynasty=70 # Ashina
	father=2211223 # Ashina Mitsumori
#mother=#unknown
	religion="buddhist"
	culture="southern_oshu"
#	martial=
#	diplomacy=
#	intrigue=
#	stewardship=
#	learning=
	disallow_random_traits=yes
	1250.1.1={
		birth=yes
	}
	1280.1.1={
		give_nickname="nick_saemon_no_jo"
	}
	1300.1.1={
		death=yes
	}
}

2070005={
	name="Morimune"
	dynasty=70 # Ashina
	father=2070001 # Asahina Yasumori
#mother=#unknown
	religion="buddhist"
	culture="southern_oshu"
#	martial=
#	diplomacy=
#	intrigue=
#	stewardship=
#	learning=
	disallow_random_traits=yes
	1270.1.1={
		birth=yes
	}
	1286.1.1={
		give_nickname="nick_jio"
	}
	1290.1.1={
		give_nickname="nick_Jirozaemon"
	}
	1310.1.1={
		give_nickname="nick_totoumi_no_kami"
	}
	1320.1.1={
		death=yes
	}
}

2070006={
	name="Yasuchika"
	dynasty=70 # Ashina
	father=2070001 # Asahina Yasumori
#mother=#unknown
	religion="buddhist"
	culture="southern_oshu"
#	martial=
#	diplomacy=
#	intrigue=
#	stewardship=
#	learning=
	disallow_random_traits=yes
	1275.1.1={
		birth=yes
	}
	1291.1.1={
		give_nickname="nick_shiro"
	}
	1325.1.1={
		death=yes
	}
}

2070007={
	name="Moritsugu"
	dynasty=70 # Ashina
	father=2070001 # Asahina Yasumori
#mother=#unknown
	religion="buddhist"
	culture="southern_oshu"
#	martial=
#	diplomacy=
#	intrigue=
#	stewardship=
#	learning=
	disallow_random_traits=yes
	1280.1.1={
		birth=yes
	}
	1330.1.1={
		death=yes
	}
}

2070010={
	name="Morikazu"
	dynasty=70 # Ashina
	father=2070005 # Asahina Morimune
#mother=#unknown
	religion="buddhist"
	culture="southern_oshu"
#	martial=
#	diplomacy=
#	intrigue=
#	stewardship=
#	learning=
	disallow_random_traits=yes
	1296.1.1={
		birth=yes
	}
	1335.9.4={
		death=yes
	}
}

2070015={
	name="Takamori"
	dynasty=70 # Ashina
	father=2070010 # Asahina Morikazu
#mother=#unknown
	religion="buddhist"
	culture="southern_oshu"
#	martial=
#	diplomacy=
#	intrigue=
#	stewardship=
#	learning=
	disallow_random_traits=yes
	1316.1.1={
		birth=yes
	}
	1366.1.1={
		death=yes
	}
}

2070016={
	name="Naomori"
	dynasty=70 # Ashina
	father=2070010 # Asahina Morikazu
#mother=#unknown
	religion="buddhist"
	culture="southern_oshu"
#	martial=
#	diplomacy=
#	intrigue=
#	stewardship=
#	learning=
	disallow_random_traits=yes
	1323.1.1={
		birth=yes
	}
	1391.2.4={
		death=yes
	}
}

2070017={
	name="Naokoh"
	dynasty=70 # Ashina
	father=2070016 # Ashina Naomori
#mother=#unknown
	religion="buddhist"
	culture="southern_oshu"
#	martial=
#	diplomacy=
#	intrigue=
#	stewardship=
#	learning=
	disallow_random_traits=yes
	1345.1.1={
		birth=yes
	}
	1395.1.1={
		death=yes
	}
}

2070018={
	name="Moritsune"
	dynasty=70 # Ashina
	father=2070016 # Ashina Naomori
#mother=#unknown
	religion="buddhist"
	culture="southern_oshu"
#	martial=
#	diplomacy=
#	intrigue=
#	stewardship=
#	learning=
	disallow_random_traits=yes
	1347.1.1={
		birth=yes
	}
	1397.1.1={
		death=yes
	}
}

2070020={
	name="Akimori"
	dynasty=70 # Ashina
	father=2070016 # Ashina Naomori
#mother=#unknown
	religion="buddhist"
	culture="southern_oshu"
#	martial=
#	diplomacy=
#	intrigue=
#	stewardship=
#	learning=
	disallow_random_traits=yes
	1346.1.1={
		birth=yes
	}
	1407.10.6={
		death=yes
	}
}

2070025={
	name="Morimasa"
	dynasty=70 # Ashina
	father=2070020 # Ashina Akimori
#mother=#unknown
	religion="buddhist"
	culture="southern_oshu"
#	martial=
#	diplomacy=
#	intrigue=
#	stewardship=
#	learning=
	disallow_random_traits=yes
	1386.1.1={
		birth=yes
	}
	1434.1.1={
		death=yes
	}
}

2070026={
	name="Mitsumori"
	dynasty=70 # Ashina
	father=2070020 # Ashina Akimori
#mother=#unknown
	religion="buddhist"
	culture="southern_oshu"
#	martial=
#	diplomacy=
#	intrigue=
#	stewardship=
#	learning=
	disallow_random_traits=yes
	1390.1.1={
		birth=yes
	}
	1440.1.1={
		death=yes
	}
}

2070027={
	female=yes
	name="Akiko"
	dynasty=70 # Ashina
	father=2070020 # Ashina Akimori
#mother=#unknown
	religion="buddhist"
	culture="southern_oshu"
#	martial=
#	diplomacy=
#	intrigue=
#	stewardship=
#	learning=
	disallow_random_traits=yes
	1365.1.1={
		birth=yes
	}
	1445.1.1={
		death=yes
	}
}

2070030={
	name="Morihisa"
	dynasty=70 # Ashina
	father=2070025 # Ashina Morimasa
#mother=#unknown
	religion="buddhist"
	culture="southern_oshu"
#	martial=
#	diplomacy=
#	intrigue=
#	stewardship=
#	learning=
	disallow_random_traits=yes
	1405.1.1={
		birth=yes
	}
	1444.1.1={
		death=yes
	}
}

2070031={
	name="Morinobu"
	dynasty=70 # Ashina
	father=2070025 # Ashina Morimasa
#mother=#unknown
	religion="buddhist"
	culture="southern_oshu"
#	martial=
#	diplomacy=
#	intrigue=
#	stewardship=
#	learning=
	disallow_random_traits=yes
	1408.1.1={
		birth=yes
	}
	1451.1.1={
		death=yes
	}
}

#----------------------------------------------------------
## Kanagami Family characters
#----------------------------------------------------------
2070500={
	name="Morihiro"
	dynasty=84 # Kanagami
#	father= # Fujikura Moritsune
	religion="buddhist"
	culture="southern_oshu"
#	martial=
#	diplomacy=
#	intrigue=
#	stewardship=
#	learning=
	1233.1.1={
		birth=yes
	}
	1297.1.1={
		death=yes
	}
}

2070501={
	name="Morihito"
	dynasty=84 # Kanagami
	father=2070500 # Kanagami Morihiro
	religion="buddhist"
	culture="southern_oshu"
#	martial=
#	diplomacy=
#	intrigue=
#	stewardship=
#	learning=
	1252.1.1={
		birth=yes
	}
	1317.1.1={
		death=yes
	}
}

2070502={
	name="Masashige"
	dynasty=84 # Kanagami
	father=2070501 # Kanagami Morihito
	religion="buddhist"
	culture="southern_oshu"
#	martial=
#	diplomacy=
#	intrigue=
#	stewardship=
#	learning=
	1271.1.1={
		birth=yes
	}
	1337.1.1={
		death=yes
	}
}

2070503={
	name="Masamoto"
	dynasty=84 # Kanagami
	father=2070501 # Kanagami Morihito
	religion="buddhist"
	culture="southern_oshu"
#	martial=
#	diplomacy=
#	intrigue=
#	stewardship=
#	learning=
	1290.1.1={
		birth=yes
	}
	1357.1.1={
		death=yes
	}
}

2070504={
	name="Sukemichi"
	dynasty=84 # Kanagami
	father=2070502 # Kanagami Masashige
	religion="buddhist"
	culture="southern_oshu"
#	martial=
#	diplomacy=
#	intrigue=
#	stewardship=
#	learning=
	1309.1.1={
		birth=yes
	}
	1377.1.1={
		death=yes
	}
}

2070505={
	name="Kunimura"
	dynasty=84 # Kanagami
	father=2070504 # Kanagami Kunimura
	religion="buddhist"
	culture="southern_oshu"
#	martial=
#	diplomacy=
#	intrigue=
#	stewardship=
#	learning=
	1328.1.1={
		birth=yes
	}
	1397.1.1={
		death=yes
	}
}
#----------------------------------------------------------
## End of Kanagami Family characters
#----------------------------------------------------------

#----------------------------------------------------------
## Date Clan
#----------------------------------------------------------
2071000={
	name = "Tokitsuna"
	dynasty = 6120	#Isa
	#dna = ""
	#properties = ""
	#martial = 
	#diplomacy = 
	#stewardship = 
	#intrigue = 
	#learning = 
	religion = "buddhist"
	culture = "eastern_kanto"
	father =2121002	#Isa Tameshige
	1182.1.1 = {
		birth = yes
	}
	1189.11.15 = {
		dynasty =10	#Date Clan
	}
	1232.1.1 = {
		death = yes
	}
}

2071001={
	name = "Yoshihiro"
	dynasty = 6120	#Isa
	#dna = ""
	#properties = ""
	#martial = 
	#diplomacy = 
	#stewardship = 
	#intrigue = 
	#learning = 
	religion = "buddhist"
	culture = "eastern_kanto"
	father =2121002	#Isa Tameshige
	1185.1.1 = {
		birth = yes
	}
	1189.11.15 = {
		dynasty =10	#Date Clan
	}
	1225.1.1 = {
		add_trait ="jugoi_ge"
	}
	1256.10.12 = {
		death = yes
	}
}

2071005={
	name = "Masayori"
	dynasty = 10	#Date
	#dna = ""
	#properties = ""
	#martial = 
	#diplomacy = 
	#stewardship = 
	#intrigue = 
	#learning = 
	religion = "buddhist"
	culture = "eastern_kanto"
	father =2071001	#Isa Yoshihiro
	1227.1.1 = {
		birth = yes
	}
	1267.1.1 = {
		add_trait ="jugoi_ge"
	}
	1301.8.13 = {
		death = yes
	}
}

2071006={
	name="Chikanaga"
	dynasty=10 # Date
	father=2071001 # Date Yoshihiro
#mother=#unknown
	religion="buddhist"
	culture="southern_oshu"
#	martial=
#	diplomacy=
#	intrigue=
#	stewardship=
#	learning=
	disallow_random_traits=yes
	1210.1.1={
		birth=yes
	}
	1260.1.1={
		death=yes
	}
}
2071010={
	name="Munetsuna "
	dynasty=10 # Date
	father=2071005 # Date Masayori
#mother=#unknown
	religion="buddhist"
	culture="southern_oshu"
#	martial=
#	diplomacy=
#	intrigue=
#	stewardship=
#	learning=
	disallow_random_traits=yes
	1254.1.1={
		birth=yes
	}
	1317.3.20={
		death=yes
	}
}
2071015={
	name="Motomune"
	dynasty=10 # Date
	father=2071010 # Date Masayori
#mother=#unknown
	religion="buddhist"
	culture="southern_oshu"
#	martial=
#	diplomacy=
#	intrigue=
#	stewardship=
#	learning=
	disallow_random_traits=yes
	1280.1.1={
		birth=yes
	}
	1335.8.28={
		death=yes
	}
}
2071016={
	name="Yukitsuna"
	dynasty=10 # Date
	father=2071010 # Date Masayori
#mother=#unknown
	religion="buddhist"
	culture="southern_oshu"
#	martial=
#	diplomacy=
#	intrigue=
#	stewardship=
#	learning=
	disallow_random_traits=yes
	1290.1.1={
		birth=yes
	}
	1350.1.1={
		death=yes
	}
}
2071020={
	name="Yukitomo"
	dynasty=10 # Date
	father=2071015 # Date Masayori
#mother=#unknown
	religion="buddhist"
	culture="southern_oshu"
#	martial=
#	diplomacy=
#	intrigue=
#	stewardship=
#	learning=
	disallow_random_traits=yes
	1291.1.1={
		birth=yes
	}
	1348.6.6={
		death=yes
	}
}
2071025={
	name="Munetoo"
	dynasty=10 # Date
	father=2071020 # Date Masayori
#mother=
	religion="buddhist"
	culture="southern_oshu"
#	martial=
#	diplomacy=
#	intrigue=
#	stewardship=
#	learning=
	disallow_random_traits=yes
	1324.1.1={
		birth=yes
	}
	1385.6.28={
		death=yes
	}
}
2071030={
	name="Masamune"
	dynasty=10 # Date
	father=2071025 # Date Masayori
#mother=
	religion="buddhist"
	culture="southern_oshu"
#	martial=
#	diplomacy=
#	intrigue=
#	stewardship=
#	learning=
	disallow_random_traits=yes
	1353.1.1={
		birth=yes
	}
	1405.10.7={
		death=yes
	}
}
2071031={
	name="Muneyuki"
	dynasty=10 # Date
	father=2071025 # Date Masayori
#mother=
	religion="buddhist"
	culture="southern_oshu"
#	martial=
#	diplomacy=
#	intrigue=
#	stewardship=
#	learning=
	disallow_random_traits=yes
	1355.1.1={
		birth=yes
	}
	1405.1.1={
		death=yes
	}
}
2071032={
	female=yes
	name="Muneko"
	dynasty=10 # Date
	father=2071025 # Date Masayori
#mother=
	religion="buddhist"
	culture="southern_oshu"
#	martial=
#	diplomacy=
#	intrigue=
#	stewardship=
#	learning=
	disallow_random_traits=yes
	1344.1.1={
		birth=yes
	}
	1394.1.1={
		death=yes
	}
}
2071033={
	name="Ujimune"
	dynasty=10 # Date
	father=2071030 # Date Masayori
#mother=
	religion="buddhist"
	culture="southern_oshu"
#	martial=
#	diplomacy=
#	intrigue=
#	stewardship=
#	learning=
	disallow_random_traits=yes
	1371.1.1={
		birth=yes
	}
	1412.8.24={
		death=yes
	}
}

2071035={
	name="Mochimune"
	dynasty=10 # Date
	father=2071033 # Date Masayori
	religion="buddhist"
	culture="southern_oshu"
	1393.1.1={
		birth="1393.1.1"
	}
	1450.1.1={
		add_spouse=1017
	}
	1469.12.7={
		death="1469.12.7"
	}
}

2071040={
	name="Narimune"
	dynasty=10 # Date
	religion="buddhist"
	culture="southern_oshu"
	father=2071035 # Date Mochimune
	1435.1.1={
		birth="1435.1.1"
	}
	1450.1.1={
		add_spouse=1017
	}
	1487.10.11={
		death="1487.10.11"
	}
}

2071041={
	name="Morimune"
	dynasty=10 # Date
	father=2071035 # Date Mochimune
#mother=
	religion="buddhist"
	culture="southern_oshu"
#	martial=
#	diplomacy=
#	intrigue=
#	stewardship=
#	learning=
	disallow_random_traits=yes
	1440.1.1={
		birth=yes
	}
	1467.1.1={
		dynasty=86 # Koyanagawa
	}
	1500.11.19={
		death=yes
	}
}

2071045={
	name="Hisamune"
	dynasty=10 # Date
	religion="buddhist"
	culture="southern_oshu"
	father=2071040 # Date Narimune
	mother=1017
	1453.1.1={
		birth="1453.1.1"
	}
	1480.1.1={
		add_spouse=1015
	}
	1487.10.11={
		effect = {
			c_date = { ROOT = { capital = PREV } }
		}
	}
	1514.5.28={
		death="1514.5.28"
	}
}

#----------------------------------------------------------
## Koyanagawa Family
#----------------------------------------------------------
2071200={
	name="Chikatomo"
	dynasty=86 # Koyanagawa
	father=2071041 # Koyanagawa Narimune
#mother=
	religion="buddhist"
	culture="southern_oshu"
#	martial=
#	diplomacy=
#	intrigue=
#	stewardship=
#	learning=
	disallow_random_traits=yes
	1467.1.1={
		birth=yes
	}
	1520.1.1={
		death=yes
	}
}

2071201={
	name="Munetomo"
	dynasty=86 # Koyanagawa
	father=2071041 # Koyanagawa Narimune
#mother=
	religion="buddhist"
	culture="southern_oshu"
	martial=11
	diplomacy=10
	intrigue=11
	stewardship=9
	learning=5
	add_trait="tough_soldier"
	add_trait="strategist"
	add_trait="brave"
	disallow_random_traits=yes
	1469.1.1={
		birth=yes
	}
	1565.7.17={
		death=yes
	}
}

2071202={
	name="Chikamune"
	dynasty=86 # Koyanagawa
	father=2071200 # Koyanagawa Chikatomo
#mother=
	religion="buddhist"
	culture="southern_oshu"
#	martial=
#	diplomacy=
#	intrigue=
#	stewardship=
#	learning=
	disallow_random_traits=yes
	1497.1.1={
		birth=yes
	}
	1563.1.1={
		death=yes
	}
}

2071203={
	name="Munehide"
	dynasty=86 # Koyanagawa
	father=2071201 # Koyanagawa Munetomo
#mother=
	religion="buddhist"
	culture="southern_oshu"
	martial=10
	diplomacy=10
	intrigue=9
#	stewardship=
#	learning=
	disallow_random_traits=yes
	1510.1.1={
		birth=yes
	}
	1570.4.1={
		death=yes
	}
}

2071204={
	name="Morimune"
	dynasty=86 # Koyanagawa
	father=2071202 # Koyanagawa Chikamune
#mother=
	religion="buddhist"
	culture="southern_oshu"
#	martial=
#	diplomacy=
#	intrigue=
#	stewardship=
#	learning=
	disallow_random_traits=yes
	1523.1.1={
		birth=yes
	}
	1595.2.22={
		death=yes
	}
}

2071205={
	name="Muneshige"
	dynasty=86 # Koyanagawa
	father=2071204 # Koyanagawa Morimune
#mother=
	religion="buddhist"
	culture="southern_oshu"
#	martial=
#	diplomacy=
#	intrigue=
#	stewardship=
#	learning=
	disallow_random_traits=yes
	1545.1.1={
		birth=yes
	}
	1602.1.1={
		death=yes
	}
}

#----------------------------------------------------------
## Oeda Family
#----------------------------------------------------------
2071220={
	name="Munekage"
	dynasty=87 # Oeda
	father=2071031 # Oeda Masayori
#mother=
	religion="buddhist"
	culture="southern_oshu"
#	martial=
#	diplomacy=
#	intrigue=
#	stewardship=
#	learning=
	disallow_random_traits=yes
	1380.1.1={
		birth=yes
	}
	1430.1.1={
		death=yes
	}
}

2071221={
	name="Munemoto"
	dynasty=87 # Oeda
	father=2071220 # Oeda Munekage
#mother=
	religion="buddhist"
	culture="southern_oshu"
#	martial=
#	diplomacy=
#	intrigue=
#	stewardship=
#	learning=
	disallow_random_traits=yes
	1410.1.1={
		birth=yes
	}
	1460.1.1={
		death=yes
	}
}

2071222={
	name="Munesumi"
	dynasty=87 # Oeda
	father=2071221 # Oeda Munemoto
#mother=
	religion="buddhist"
	culture="southern_oshu"
#	martial=
#	diplomacy=
#	intrigue=
#	stewardship=
#	learning=
	disallow_random_traits=yes
	1435.1.1={
		birth=yes
	}
	1485.1.1={
		death=yes
	}
}

2071223={
	name="Munesuke"
	dynasty=87 # Oeda
	father=2071222 # Oeda Munesumi
#mother=
	religion="buddhist"
	culture="southern_oshu"
#	martial=
#	diplomacy=
#	intrigue=
#	stewardship=
#	learning=
	disallow_random_traits=yes
	1465.1.1={
		birth=yes
	}
	1525.1.1={
		death=yes
	}
}

#----------------------------------------------------------
## Kori Family
#----------------------------------------------------------
2071250={
	name="Masanaga"
	dynasty=82 # Kori
	father=2071006 # Kori Masayori
#mother=
	religion="buddhist"
	culture="southern_oshu"
#	martial=
#	diplomacy=
#	intrigue=
#	stewardship=
#	learning=
	disallow_random_traits=yes
	1245.1.1={
		birth=yes
	}
	1295.1.1={
		death=yes
	}
}

2071251={
	name="Muneyasu"
	dynasty=82 # Kori
	father=2071250 # Kori Masanaga
#mother=
	religion="buddhist"
	culture="southern_oshu"
#	martial=
#	diplomacy=
#	intrigue=
#	stewardship=
#	learning=
	disallow_random_traits=yes
	1280.1.1={
		birth=yes
	}
	1352.1.1={
		death=yes
	}
}

2071252={
	name="Yasunaga"
	dynasty=82 # Kori
	father=2071251 # Kori Muneyasu
#mother=
	religion="buddhist"
	culture="southern_oshu"
#	martial=
#	diplomacy=
#	intrigue=
#	stewardship=
#	learning=
	disallow_random_traits=yes
	1315.1.1={
		birth=yes
	}
	1360.1.1={
		death=yes
	}
}

2071253={
	name="Yorinaga"
	dynasty=82 # Kori
	father=2071252 # Kori Yasunaga
#mother=
	religion="buddhist"
	culture="southern_oshu"
#	martial=
#	diplomacy=
#	intrigue=
#	stewardship=
#	learning=
	disallow_random_traits=yes
	1345.1.1={
		birth=yes
	}
	1395.1.1={
		death=yes
	}
}

2071254={
	name="Kuninaga"
	dynasty=82 # Kori
	father=2071253 # Kori Yorinaga
#mother=
	religion="buddhist"
	culture="southern_oshu"
#	martial=
#	diplomacy=
#	intrigue=
#	stewardship=
#	learning=
	disallow_random_traits=yes
	1380.1.1={
		birth=yes
	}
	1430.1.1={
		death=yes
	}
}

2071255={
	name="Munehide"
	dynasty=82 # Kori
	father=2071254 # Kori Kuninaga
#mother=
	religion="buddhist"
	culture="southern_oshu"
#	martial=
#	diplomacy=
#	intrigue=
#	stewardship=
#	learning=
	disallow_random_traits=yes
	1410.1.1={
		birth=yes
	}
	1460.1.1={
		death=yes
	}
}

2071256={
	name="Muneyasu"
	dynasty=82 # Kori
	father=2071255 # Kori Munehide
#mother=
	religion="buddhist"
	culture="southern_oshu"
#	martial=
#	diplomacy=
#	intrigue=
#	stewardship=
#	learning=
	disallow_random_traits=yes
	1445.1.1={
		birth=yes
	}
	1495.1.1={
		death=yes
	}
}

2071257={
	name="Munesue"
	dynasty=82 # Kori
	father=2071256 # Kori Muneyasu
#mother=
	religion="buddhist"
	culture="southern_oshu"
#	martial=
#	diplomacy=
#	intrigue=
#	stewardship=
#	learning=
	disallow_random_traits=yes
	1475.1.1={
		birth=yes
	}
	1525.1.1={
		death=yes
	}
}

#----------------------------------------------------------
## Senoue Family
#----------------------------------------------------------
2071300={
	name="Yukiyasu"
	dynasty=88 # Senoue
	father=2071016 # Senoue Yukitsuna
#mother=
	religion="buddhist"
	culture="southern_oshu"
#	martial=
#	diplomacy=
#	intrigue=
#	stewardship=
#	learning=
	disallow_random_traits=yes
	1315.1.1={
		birth=yes
	}
	1365.1.1={
		death=yes
	}
}
2071301={
	name="Muneyasu"
	dynasty=88 # Senoue
	father=2071300 # Senoue Yukiyasu
#mother=
	religion="buddhist"
	culture="southern_oshu"
#	martial=
#	diplomacy=
#	intrigue=
#	stewardship=
#	learning=
	disallow_random_traits=yes
	1339.1.1={
		birth=yes
	}
	1389.1.1={
		death=yes
	}
}
2071302={
	name="Yasukiyo"
	dynasty=88 # Senoue
	father=2071301 # Senoue Muneyasu
#mother=
	religion="buddhist"
	culture="southern_oshu"
#	martial=
#	diplomacy=
#	intrigue=
#	stewardship=
#	learning=
	disallow_random_traits=yes
	1363.1.1={
		birth=yes
	}
	1413.1.1={
		death=yes
	}
}
2071303={
	name="Munekiyo"
	dynasty=88 # Senoue
	father=2071302 # Senoue Yasukiyo
#mother=
	religion="buddhist"
	culture="southern_oshu"
#	martial=
#	diplomacy=
#	intrigue=
#	stewardship=
#	learning=
	disallow_random_traits=yes
	1387.1.1={
		birth=yes
	}
	1437.1.1={
		death=yes
	}
}
2071304={
	name="Yasutoshi"
	dynasty=88 # Senoue
	father=2071303 # Senoue Munekiyo
#mother=
	religion="buddhist"
	culture="southern_oshu"
#	martial=
#	diplomacy=
#	intrigue=
#	stewardship=
#	learning=
	disallow_random_traits=yes
	1410.1.1={
		birth=yes
	}
	1460.1.1={
		death=yes
	}
}
2071305={
	name="Yasuie"
	dynasty=88 # Senoue
	father=2071304 # Senoue Yasutoshi
#mother=
	religion="buddhist"
	culture="southern_oshu"
#	martial=
#	diplomacy=
#	intrigue=
#	stewardship=
#	learning=
	disallow_random_traits=yes
	1434.1.1={
		birth=yes
	}
	1484.1.1={
		death=yes
	}
}
2071306={
	name="Yasuhide"
	dynasty=88 # Senoue
	father=2071305 # Senoue Yasuie
#mother=
	religion="buddhist"
	culture="southern_oshu"
#	martial=
#	diplomacy=
#	intrigue=
#	stewardship=
#	learning=
	disallow_random_traits=yes
	1458.1.1={
		birth=yes
	}
	1508.1.1={
		death=yes
	}
}
2071308={
	name="Muneyasu"
	dynasty=88 # Senoue
	father=2071306 # Senoue Yasuhide
#mother=
	religion="buddhist"
	culture="southern_oshu"
#	martial=
#	diplomacy=
#	intrigue=
#	stewardship=
#	learning=
	disallow_random_traits=yes
	1481.1.1={
		birth=yes
	}
	1531.1.1={
		death=yes
	}
}
2071309={
	name="Nobuyasu"
	dynasty=88 # Senoue
	father=2071308 # Senoue Muneyasu
#mother=
	religion="buddhist"
	culture="southern_oshu"
#	martial=
#	diplomacy=
#	intrigue=
#	stewardship=
#	learning=
	disallow_random_traits=yes
	1505.1.1={
		birth=yes
	}
	1555.1.1={
		death=yes
	}
}
2071310={
	name="Sadayasu"
	dynasty=88 # Senoue
	father=2071309 # Senoue Nobuyasu
#mother=
	religion="buddhist"
	culture="southern_oshu"
#	martial=
#	diplomacy=
#	intrigue=
#	stewardship=
#	learning=
	disallow_random_traits=yes
	1529.1.1={
		birth=yes
	}
	1579.1.1={
		death=yes
	}
}
2071311={
	name="Kageyasu"
	dynasty=88 # Senoue
	father=2071310 # Senoue Sadayasu
#mother=
	religion="buddhist"
	culture="southern_oshu"
#	martial=
#	diplomacy=
#	intrigue=
#	stewardship=
#	learning=
	disallow_random_traits=yes
	1553.1.1={
		birth=yes
	}
	1617.7.21={
		death=yes
	}
}

#----------------------------------------------------------
## a side line of Date
#----------------------------------------------------------
2071400={
	name = "Tamemasa"
	dynasty = 10	#Date
	#dna = ""
	#properties = ""
	#martial = 
	#diplomacy = 
	#stewardship = 
	#intrigue = 
	#learning = 
	religion = "buddhist"
	culture = "eastern_kanto"
	father =2121004	#Isa Tameie
	1190.1.1 = {
		birth = yes
	}
	1240.1.1 = {
		death = yes
	}
}

2071401={
	name = "Tsuneie"
	dynasty = 10	#Date
	#dna = ""
	#properties = ""
	#martial = 
	#diplomacy = 
	#stewardship = 
	#intrigue = 
	#learning = 
	religion = "buddhist"
	culture = "eastern_kanto"
	father =2121004	#Isa Tameie
	1193.1.1 = {
		birth = yes
	}
	1243.1.1 = {
		death = yes
	}
}

2071402={
	name = "Tsunekata"
	dynasty = 10	#Date
	#dna = ""
	#properties = ""
	#martial = 
	#diplomacy = 
	#stewardship = 
	#intrigue = 
	#learning = 
	religion = "buddhist"
	culture = "eastern_kanto"
	father =2121004	#Isa Tameie
	1195.1.1 = {
		birth = yes
	}
	1245.1.1 = {
		death = yes
	}
}

2071403={
	name = "Tsunemitsu"
	dynasty = 10	#Date
	#dna = ""
	#properties = ""
	#martial = 
	#diplomacy = 
	#stewardship = 
	#intrigue = 
	#learning = 
	religion = "buddhist"
	culture = "eastern_kanto"
	father =2121004	#Isa Tameie
	1198.1.1 = {
		birth = yes
	}
	1248.1.1 = {
		death = yes
	}
}

2071404={
	name = "Myoen"
	dynasty = 10	#Date
	#dna = ""
	#properties = ""
	#martial = 
	#diplomacy = 
	#stewardship = 
	#intrigue = 
	#learning = 
	religion = "buddhist"
	culture = "eastern_kanto"
	father=2121004 # Isa Tameie
	add_trait = "monk"
	1200.1.1 = {
		birth = yes
		effect = { set_character_flag = has_monk_name }
	}
	1250.1.1 = {
		death = yes
	}
}

2071405={
	name = "Shichiro"
	dynasty = 10	#Date
	#dna = ""
	#properties = ""
	#martial = 
	#diplomacy = 
	#stewardship = 
	#intrigue = 
	#learning = 
	religion = "buddhist"
	culture = "eastern_kanto"
	father =2121004	#Isa Tameie
	1201.1.1 = {
		birth = yes
	}
	1221.1.1 = {
		death = yes
	}
}

2071406={
	name = "Tokiie"
	dynasty = 10	#Date
	#dna = ""
	#properties = ""
	#martial = 
	#diplomacy = 
	#stewardship = 
	#intrigue = 
	#learning = 
	religion = "buddhist"
	culture = "eastern_kanto"
	father =2121004	#Isa Tameie
	1203.1.1 = {
		birth = yes
	}
	1253.1.1 = {
		death = yes
	}
}

2071407={
	name = "Tameko"
	dynasty = 10	#Date
	#dna = ""
	#properties = ""
	#martial = 
	#diplomacy = 
	#stewardship = 
	#intrigue = 
	#learning = 
	religion = "buddhist"
	culture = "eastern_kanto"
	female = yes
	father =2071400	#Date Tamemasa
	1210.1.1 = {
		birth = yes
	}
	1270.1.1 = {
		death = yes
	}
}


2071410={
	name = "Tsunetomo"
	dynasty = 10	#Date
	#dna = ""
	#properties = ""
	#martial = 
	#diplomacy = 
	#stewardship = 
	#intrigue = 
	#learning = 
	religion = "buddhist"
	culture = "eastern_kanto"
	father =2071401	#Date Tsuneie
	1213.1.1 = {
		birth = yes
	}
	1263.1.1 = {
		death = yes
	}
}

2071411={
	name = "Iemitsu"
	dynasty = 10	#Date
	#dna = ""
	#properties = ""
	#martial = 
	#diplomacy = 
	#stewardship = 
	#intrigue = 
	#learning = 
	religion = "buddhist"
	culture = "eastern_kanto"
	father =2071401	#Date Tsuneie
	1215.1.1 = {
		birth = yes
	}
	1265.1.1 = {
		death = yes
	}
}

2071412={
	name = "Tsunemasa"
	dynasty = 10	#Date
	#dna = ""
	#properties = ""
	#martial = 
	#diplomacy = 
	#stewardship = 
	#intrigue = 
	#learning = 
	religion = "buddhist"
	culture = "eastern_kanto"
	father =2071401	#Date Tsuneie
	1216.1.1 = {
		birth = yes
	}
	1266.1.1 = {
		death = yes
	}
}

2071413={
	name = "Tsunemitsu"
	dynasty = 10	#Date
	#dna = ""
	#properties = ""
	#martial = 
	#diplomacy = 
	#stewardship = 
	#intrigue = 
	#learning = 
	religion = "buddhist"
	culture = "eastern_kanto"
	father =2071401	#Date Tsuneie
	1219.1.1 = {
		birth = yes
	}
	1269.1.1 = {
		death = yes
	}
}

2071414={
	name = "Ietoki"
	dynasty = 10	#Date
	#dna = ""
	#properties = ""
	#martial = 
	#diplomacy = 
	#stewardship = 
	#intrigue = 
	#learning = 
	religion = "buddhist"
	culture = "eastern_kanto"
	father =2071401	#Date Tsuneie
	1220.1.1 = {
		birth = yes
	}
	1270.1.1 = {
		death = yes
	}
}

2071415={
	name = "Tadatsugu"
	dynasty = 10	#Date
	#dna = ""
	#properties = ""
	#martial = 
	#diplomacy = 
	#stewardship = 
	#intrigue = 
	#learning = 
	religion = "buddhist"
	culture = "eastern_kanto"
	father =2071410	#Date Tsunetomo
	1243.1.1 = {
		birth = yes
	}
	1293.1.1 = {
		death = yes
	}
}

2071416={
	name = "Munenaga"
	dynasty = 6123	#Ishida
	#dna = ""
	#properties = ""
	#martial = 
	#diplomacy = 
	#stewardship = 
	#intrigue = 
	#learning = 
	religion = "buddhist"
	culture = "eastern_kanto"
	father =2071410	#Date Tsunetomo
	1245.1.1 = {
		birth = yes
	}
	1295.1.1 = {
		death = yes
	}
}

2071420={
	name = "Tadatsune"
	dynasty = 10	#Date
	#dna = ""
	#properties = ""
	#martial = 
	#diplomacy = 
	#stewardship = 
	#intrigue = 
	#learning = 
	religion = "buddhist"
	culture = "eastern_kanto"
	father =2071412	#Date Tsunemasa
	1236.1.1 = {
		birth = yes
	}
	1286.1.1 = {
		death = yes
	}
}

2071421={
	name = "Munenori"
	dynasty = 10	#Date
	#dna = ""
	#properties = ""
	#martial = 
	#diplomacy = 
	#stewardship = 
	#intrigue = 
	#learning = 
	religion = "buddhist"
	culture = "eastern_kanto"
	father =2071412	#Date Tsunemasa
	1237.1.1 = {
		birth = yes
	}
	1287.1.1 = {
		death = yes
	}
}

2071422={
	name = "Yukitsune"
	dynasty = 10	#Date
	#dna = ""
	#properties = ""
	#martial = 
	#diplomacy = 
	#stewardship = 
	#intrigue = 
	#learning = 
	religion = "buddhist"
	culture = "eastern_kanto"
	father =2071412	#Date Tsunemasa
	1239.1.1 = {
		birth = yes
	}
	1289.1.1 = {
		death = yes
	}
}

2071423={
	name = "Yasutsune"
	dynasty = 10	#Date
	#dna = ""
	#properties = ""
	#martial = 
	#diplomacy = 
	#stewardship = 
	#intrigue = 
	#learning = 
	religion = "buddhist"
	culture = "eastern_kanto"
	father =2071412	#Date Tsunemasa
	1242.1.1 = {
		birth = yes
	}
	1292.1.1 = {
		death = yes
	}
}

2071424={
	name = "Tsunesada"
	dynasty = 10	#Date
	#dna = ""
	#properties = ""
	#martial = 
	#diplomacy = 
	#stewardship = 
	#intrigue = 
	#learning = 
	religion = "buddhist"
	culture = "eastern_kanto"
	father =2071420	#Date Tadatsune
	1266.1.1 = {
		birth = yes
	}
	1316.1.1 = {
		death = yes
	}
}

2071425={
	name = "Tsunemori"
	dynasty = 6124	#Yabe
	#dna = ""
	#properties = ""
	#martial = 
	#diplomacy = 
	#stewardship = 
	#intrigue = 
	#learning = 
	religion = "buddhist"
	culture = "eastern_kanto"
	father =2071420	#Date Tadatsune
	1267.1.1 = {
		birth = yes
	}
	1317.1.1 = {
		death = yes
	}
}

2071450={
	name = "Tametoki"
	dynasty = 6121	#Tsukame
	#dna = ""
	#properties = ""
	#martial = 
	#diplomacy = 
	#stewardship = 
	#intrigue = 
	#learning = 
	religion = "buddhist"
	culture = "eastern_kanto"
	mother=2121013	#Date Tameko
	1230.1.1 = {
		birth = yes
	}
	1280.1.1 = {
		death = yes
	}
}

2071451={
	name = "Iemasa"
	dynasty = 6121	#Tsukame
	#dna = ""
	#properties = ""
	#martial = 
	#diplomacy = 
	#stewardship = 
	#intrigue = 
	#learning = 
	religion = "buddhist"
	culture = "eastern_kanto"
	father =2071450	#Tsukame Tametoki
	1260.1.1 = {
		birth = yes
	}
	1310.1.1 = {
		death = yes
	}
}

2071452={
	name = "Ietsuna"
	dynasty = 6121	#Tsukame
	#dna = ""
	#properties = ""
	#martial = 
	#diplomacy = 
	#stewardship = 
	#intrigue = 
	#learning = 
	religion = "buddhist"
	culture = "eastern_kanto"
	father =2071450	#Tsukame Tametoki
	1265.1.1 = {
		birth = yes
	}
	1315.1.1 = {
		death = yes
	}
}

2071453={
	name = "Ienobu"
	dynasty = 6121	#Tsukame
	#dna = ""
	#properties = ""
	#martial = 
	#diplomacy = 
	#stewardship = 
	#intrigue = 
	#learning = 
	religion = "buddhist"
	culture = "eastern_kanto"
	father =2071452	#Tsukame Ietsuna
	1285.1.1 = {
		birth = yes
	}
	1335.1.1 = {
		death = yes
	}
}

2071454={
	name = "Masanobu"
	dynasty = 6122	#Izaka
	#dna = ""
	#properties = ""
	#martial = 
	#diplomacy = 
	#stewardship = 
	#intrigue = 
	#learning = 
	religion = "buddhist"
	culture = "eastern_kanto"
	father =2071452	#Tsukame Ietsuna
	1286.1.1 = {
		birth = yes
	}
	1336.1.1 = {
		death = yes
	}
}

2071500={
	name = "Sukemitsu"
	dynasty = 6127	#Iida
	#dna = ""
	#properties = ""
	#martial = 
	#diplomacy = 
	#stewardship = 
	#intrigue = 
	#learning = 
	religion = "buddhist"
	culture = "eastern_kanto"
	father = 2121003 # Isa Suketsuna
	1195.1.1 = {
		birth = yes
	}
	1245.1.1 = {
		death = yes
	}
}

#----------------------------------------------------------
## Isawa & Rusu Clan
#----------------------------------------------------------

2080000={
	name="Kanenobu"
	dynasty=1000 # Fujiwara
	father=1005860 # Fujiwara Kanenaka
#	mother=
	religion="buddhist"
	culture="aristocrats"
	1080.1.1={
		birth=yes
	}
	1150.1.1={
		death=yes
	}
}
2080005={
	name="Iekage"
	dynasty=7259 # Isawa
	father=2080000 # Fujiwara Kanenobu
#	mother=
	religion="buddhist"
	culture="aristocrats"
	add_trait="charismatic_negotiator"
	1140.1.1={
		birth=yes
	}
	1180.5.18={
		employer = 41059 # Emperor Antoku
	}
	1187.1.1={
		employer = 120075 # Minamoto Yoritomo
	}
	1190.1.1={
		culture="southern_oshu"
	}
	1221.10.29={
		death=yes
	}
}
2080010={
	name="Iemoto"
	dynasty=7259 # Isawa
	father=2080005 # Isawa Iekage
#	mother=
	religion="buddhist"
	culture="aristocrats"
	1180.1.1={
		birth=yes
	}
	1190.1.1={
		culture="southern_oshu"
	}
	1240.1.1={
		death=yes
	}
}

2080015={
	name="Iehiro"
	dynasty=64 # Rusu
	father=2080010 # Rusu Iemoto
#	mother=
	religion="buddhist"
	culture="southern_oshu"
	1200.1.1={
		birth=yes
	}
	1285.1.1={
		death=yes
	}
}

2080020={
	name="Tsuneie"
	dynasty=64 # Rusu
	father=2080015 # Rusu Iehiro
#	mother=
	religion="buddhist"
	culture="southern_oshu"
	1220.1.1={
		birth=yes
	}
	1290.1.1={
		death=yes
	}
}

2080025={
	name="Ienobu"
	dynasty=64 # Rusu
	father=2080020 # Rusu Tsuneie
#	mother=
	religion="buddhist"
	culture="southern_oshu"
	1240.1.1={
		birth=yes
	}
	1300.1.1={
		death=yes
	}
}

2080030={
	name="Iesuke"
	dynasty=64 # Rusu
	father=2080025 # Rusu Ienobu
#	mother=
	religion="buddhist"
	culture="southern_oshu"
	1260.1.1={
		birth=yes
	}
	1320.1.1={
		death=yes
	}
}

2080035={
	name="Ietaka"
	dynasty=64 # Rusu
	father=2080030 # Rusu Iesuke
#	mother=
	religion="buddhist"
	culture="southern_oshu"
	1280.1.1={
		birth=yes
	}
	1340.1.1={
		death=yes
	}
}

2080040={
	name="Iefuyu"
	dynasty=64 # Rusu
	father=2080035 # Rusu Ietaka
#	mother=
	religion="buddhist"
	culture="southern_oshu"
	1300.1.1={
		birth=yes
	}
	1351.3.18={
		death=yes
	}
}

2080045={
	name="Ieto"
	dynasty=64 # Rusu
	father=2080040 # Rusu Iefuyu
#	mother=
	religion="buddhist"
	culture="southern_oshu"
	1320.1.1={
		birth=yes
	}
	1380.1.1={
		death=yes
	}
}

2080050={
	name="Iemasa"
	dynasty=64 # Rusu
	father=2080045 # Rusu Ieto
#	mother=
	religion="buddhist"
	culture="southern_oshu"
	1340.1.1={
		birth=yes
	}
	1390.1.1={
		death=yes
	}
}

2080055={
	name="Ieaki"
	dynasty=64 # Rusu
	father=2080050 # Rusu Iemasa
#	mother=
	religion="buddhist"
	culture="southern_oshu"
	1360.1.1={
		birth=yes
	}
	1400.1.1={
		death=yes
	}
}

2080060={
	name="Akiie"
	dynasty=64 # Rusu
	father=2080055 # Rusu Ieaki
#	mother=
	religion="buddhist"
	culture="southern_oshu"
	1380.1.1={
		birth=yes
	}
	1410.1.1={
		death=yes
	}
}

2080061={
	name="Mochiie"
	dynasty=64 # Rusu
	father=2080055 # Rusu Ieaki
#	mother=
	religion="buddhist"
	culture="southern_oshu"
	1390.1.1={
		birth=yes
	}
	1470.1.1={
		death=yes
	}
}

#----------------------------------------------------------
## Mutsu=Ujiie Clan
#----------------------------------------------------------

2081000={
	name="Munetsugu"
	dynasty=273 # Ujiie
	father=2131006 # Ujiie Kimitsugu
#	mother=
	religion="buddhist"
	culture="northern_kanto"
	1270.1.1={
		birth=yes
	}
	1330.1.1={
		death=yes
	}
}

2081001={
	name="Sadatsugu"
	dynasty=273 # Ujiie
	father=2081000 # Ujiie Munetsugu
#	mother=
	religion="buddhist"
	culture="northern_kanto"
	1300.1.1={
		birth=yes
	}
	1350.1.1={
		death=yes
	}
}

2081005={
	name="Akitsugu"
	dynasty=273 # Ujiie
	father=2081001 # Ujiie Sadatsugu
#	mother=
	religion="buddhist"
	culture="northern_kanto"
	1325.1.1={
		birth=yes
	}
	1385.1.1={
		death=yes
	}
}

2081010={
	name="Naotsugu"
	dynasty=273 # Ujiie
	father=2081005 # Ujiie Akitsugu
#	mother=
	religion="buddhist"
	culture="southern_oshu"
	1350.1.1={
		birth=yes
	}
	1410.1.1={
		death=yes
	}
}

2081015={
	name="Naotaka"
	dynasty=273 # Ujiie
	father=2081010 # Ujiie Naotsugu
#	mother=
	religion="buddhist"
	culture="southern_oshu"
	1375.1.1={
		birth=yes
	}
	1435.1.1={
		death=yes
	}
}

2081020={
	name="Takatsugu"
	dynasty=273 # Ujiie
	father=2081015 # Ujiie Naotaka
#	mother=
	religion="buddhist"
	culture="southern_oshu"
	1400.1.1={
		birth=yes
	}
	1460.1.1={
		death=yes
	}
}

2081021={
	name="Munetaka"
	dynasty=273 # Ujiie
	father=2081015 # Ujiie Naotaka
#	mother=
	religion="buddhist"
	culture="southern_oshu"
	1402.1.1={
		birth=yes
	}
	1460.1.1={
		death=yes
	}
}

2081025={
	name="Takanaga"
	dynasty=273 # Ujiie
	father=2081020 # Ujiie Takatsugu
#	mother=
	religion="buddhist"
	culture="southern_oshu"
	1425.1.1={
		birth=yes
	}
	1455.1.1={
		death=yes
	}
}

2081026={
	name="Takatoki"
	dynasty=273 # Ujiie
	father=2081020 # Ujiie Takatsugu
#	mother=
	religion="buddhist"
	culture="southern_oshu"
	1427.1.1={
		birth=yes
	}
	1485.1.1={
		death=yes
	}
}

2081027={
	name="Hidetaka"
	dynasty=273 # Ujiie
	father=2081020 # Ujiie Takatsugu
#	mother=
	religion="buddhist"
	culture="southern_oshu"
	1429.1.1={
		birth=yes
	}
	1485.1.1={
		death=yes
	}
}

2081030={
	name="Naotoshi"
	dynasty=273 # Ujiie
	father=2081026 # Ujiie Takatoki
#	mother=
	religion="buddhist"
	culture="southern_oshu"
	1450.1.1={
		birth=yes
	}
	1510.1.1={
		death=yes
	}
}

2081031={
	name="Yasutsugu"
	dynasty=273 # Ujiie
	father=2081026 # Ujiie Takatoki
#	mother=
	religion="buddhist"
	culture="southern_oshu"
	1452.1.1={
		birth=yes
	}
	1510.1.1={
		death=yes
	}
}

2081032={
	name="Hisataka"
	dynasty=273 # Ujiie
	father=2081026 # Ujiie Takatoki
#	mother=
	religion="buddhist"
	culture="southern_oshu"
	1454.1.1={
		birth=yes
	}
	1510.1.1={
		death=yes
	}
}

2081033={
	name="Hirotaka"
	dynasty=273 # Ujiie
	father=2081026 # Ujiie Takatoki
#	mother=
	religion="buddhist"
	culture="southern_oshu"
	1456.1.1={
		birth=yes
	}
	1510.1.1={
		death=yes
	}
}

2081035={
	name="Naomasu"
	dynasty=273 # Ujiie
	father=2081030 # Ujiie Naotoshi
#	mother=
	religion="buddhist"
	culture="southern_oshu"
	1480.1.1={
		birth=yes
	}
	1540.1.1={
		death=yes
	}
}

2081036={
	name="Hirotsugu"
	dynasty=273 # Ujiie
	father=2081030 # Ujiie Naotoshi
#	mother=
	religion="buddhist"
	culture="southern_oshu"
	1482.1.1={
		birth=yes
	}
	1540.1.1={
		death=yes
	}
}

2081037={
	name="Kagetsugu"
	dynasty=273 # Ujiie
	father=2081030 # Ujiie Naotoshi
#	mother=
	religion="buddhist"
	culture="southern_oshu"
	1482.1.1={
		birth=yes
	}
	1540.1.1={
		death=yes
	}
}

2081040={
	name="Takatsugu"
	dynasty=273 # Ujiie
	father=2081035 # Ujiie Naomasu
#	mother=
	religion="buddhist"
	culture="southern_oshu"
	diplomacy=8
	add_trait="charismatic_negotiator"
	1510.1.1={
		birth=yes
	}
	1580.1.1={
		death=yes
	}
}

2081041={
	name="Naoaki"
	dynasty=273 # Ujiie
	father=2081035 # Ujiie Naomasu
#	mother=
	religion="buddhist"
	culture="southern_oshu"
	1512.1.1={
		birth=yes
	}
	1580.1.1={
		death=yes
	}
}

2081042={
	name="Tokitsugu"
	dynasty=273 # Ujiie
	father=2081035 # Ujiie Naomasu
#	mother=
	religion="buddhist"
	culture="southern_oshu"
	1514.1.1={
		birth=yes
	}
	1580.1.1={
		death=yes
	}
}

2081043={
	name="Kagetsugu"
	dynasty=273 # Ujiie
	father=2081035 # Ujiie Naomasu
#	mother=
	religion="buddhist"
	culture="southern_oshu"
	1516.1.1={
		birth=yes
	}
	1580.1.1={
		death=yes
	}
}

2081044={
	name="Tsunetsugu"
	dynasty=273 # Ujiie
	father=2081035 # Ujiie Naomasu
#	mother=
	religion="buddhist"
	culture="southern_oshu"
	1518.1.1={
		birth=yes
	}
	1580.1.1={
		death=yes
	}
}

2081050={
	name="Yoshitsugu"
	dynasty=273 # Ujiie
	father=2081040 # Ujiie Takatsugu
#	mother=
	religion="buddhist"
	culture="southern_oshu"
	diplomacy=8
	add_trait="charismatic_negotiator"
	1530.1.1={
		birth=yes
	}
	1591.1.1={
		death=yes
	}
}

2081055={
	name="Yoshi"
	female=yes
	dynasty=273 # Ujiie
	father=2081050 # Ujiie Yoshitsugu
#	mother=
	religion="buddhist"
	culture="southern_oshu"
	1560.1.1={
		birth=yes
	}
	1620.1.1={
		death=yes
	}
}

2081060={
	name="Naotoki"
	dynasty=273 # Ujiie
	father=2081041 # Ujiie Naoaki
#	mother=
	religion="buddhist"
	culture="southern_oshu"
	1532.1.1={
		birth=yes
	}
	1590.1.1={
		death=yes
	}
}

2081065={
	name="Naoyoshi"
	dynasty=273 # Ujiie
	father=2081060 # Ujiie Naotoki
#	mother=
	religion="buddhist"
	culture="southern_oshu"
	1562.1.1={
		birth=yes
	}
	1620.1.1={
		death=yes
	}
}

#----------------------------------------------------------
## Katta=Fujiwara Clan
#----------------------------------------------------------
2082000={
	name="Motokane"
	dynasty=7323 # Katta
	father=2030001 # Fujiwara Tsunemoto
#	mother=
	religion="buddhist"
	culture="southern_oshu"
	1080.1.1={
		birth=yes
	}
	1146.1.1={
		death=yes
	}
}

2082001={
	name="Mototsugu"
	dynasty=7323 # Katta
	father=2082000 # Katta Motokane
#	mother=
	religion="buddhist"
	culture="southern_oshu"
	1106.1.1={
		birth=yes
	}
	1159.1.1={
		death=yes
	}
}

2082005={
	name="Hidetsugu"
	dynasty=7323 # Katta
	father=2082001 # Katta Mototsugu
#	mother=
	religion="buddhist"
	culture="southern_oshu"
	1128.1.1={
		birth=yes
	}
	1185.1.1={
		death=yes
	}
}

2082010={
	name="Hidenobu"
	dynasty=7323 # Katta
	father=2082005 # Katta Hidetsugu
#	mother=
	religion="buddhist"
	culture="southern_oshu"
	1159.1.1={
		birth=yes
	}
	1189.10.1={
		death=yes
	}
}

2082011={
	name="Hidenaga"
	dynasty=7323 # Katta
	father=2082005 # Katta Hidetsugu
#	mother=
	religion="buddhist"
	culture="southern_oshu"
	1175.1.1={
		birth=yes
	}
	1244.1.1={
		death=yes
	}
}

2082015={
	name="Nagamasa"
	dynasty=7323 # Katta
	father=2082011 # Katta Hidenaga
#	mother=
	religion="buddhist"
	culture="southern_oshu"
	1203.1.1={
		birth=yes
	}
	1269.1.1={
		death=yes
	}
}

2082020={
	name="Nagatoshi"
	dynasty=7323 # Katta
	father=2082015 # Katta Nagamasa
#	mother=
	religion="buddhist"
	culture="southern_oshu"
	1231.1.1={
		birth=yes
	}
	1276.1.1={
		death=yes
	}
}
