# Aki

100.1.1={
law = agnatic_succession
law = succ_primogeniture
}
764.11.6={
	holder=41023 # Empress Koken/Shotoku
}
1000.1.1={
	liege="k_western_chugoku"
}
1470.1.1={
	holder=56401 # Hiraga Hiroyori
}
1499.1.1={
	holder= 56400 # Hiraga Hiroyasu
}
1535.1.1={
	holder = 56403 # Hironaka Takamune
}
1555.10.28={
	holder = 56404 # Hiraga Hirosuke
}
1567.4.26={
	holder = 56421 # Hiraga Motosuke
}
