1000.1.1={
law = agnatic_succession
law = succ_primogeniture
}
1000.1.1={
	holding_dynasty = 682
	liege="c_mikasa"
}
1488.1.1={
	holder=67921 # 	Kawakami Toshikatsu
}
1540.9.1={
	holder=67920 # 	Kawakami Mokuzaemon
}