# Hitachi

100.1.1={
law = agnatic_succession
law = succ_primogeniture
}
1493.1.1={
	name=B_HITACHI_NAKA2_1493 # "Mijo"
	adjective=B_HITACHI_NAKA2_1493_adj # "Mijo"
	holder=10813 # Satake [Higashi] Masayoshi
}
1534.10.10={
	holder=10844 # Satake [Higashi] Yoshikata
}
1570.1.1={
	holder=10846 # Satake [Higashi] Yoshihisa
}
