# Mutsu

100.1.1={
law = agnatic_succession
law = succ_primogeniture
}
1360.1.1={
	holder=4009 # Namioka Akishige
}
1386.3.28={
	holder=4008 # Namioka Akimoto
}
1440.1.1={
	holder=4007 # Namioka Akikuni
}
