# Kazusa
# Otaki

100.1.1={
law = agnatic_succession
law = succ_primogeniture
}
1544.1.1={
	holder=11851 # Masaki Tokishige
}
1561.5.29={
	holder=11854 # Masaki Nobushige
}
1564.2.20={
	holder=11862 # Masaki Noritoki
}
1581.10.26={
	holder=11913 # Masaki(Satomi) Tokishige
}