# Awa
# Bando / Kizu

100.1.1={
law = agnatic_succession
law = succ_primogeniture
}
#764.11.6={
#	holder=41023 # Empress Koken/Shotoku
#}
1180.1.1={
	liege="c_itano"
	holder=2690104 # Kondo Hironaga
}
1182.1.1={
	holder=2690105 # Kondo Chikaie
}
1210.1.1={
	holder=0 # 
}

1331.1.1={
	name=B_ITANO3_1331 # "Kizu"
	adjective=B_ITANO3_1331_adj # "Kizu"
}
1400.1.1={
	liege="c_itano"
}
1490.1.1={
	liege="c_nakata"
	holder=45450 # Shinonara Nagamasa
}
1550.1.1={
	liege="c_nakata"
	holder=45453 # Shinonara Sanenaga
}