# Totomi
# Kuno

100.1.1={
law = agnatic_succession
law = succ_primogeniture
}
1493.1.1={
	liege="c_iwata"
	holder=2400100 # Kuno Munetaka
}
1510.1.1={
	holder=2400101 # Kuno Munetada
}
1530.1.1={
	holder=2400105 # Kuno Muneshige
}
1550.1.1={
	holder=2400110 # Kuno Motomune
}
1560.6.12={
	holder=2400112 # Kuno Muneyoshi
}
