# Iwami

100.1.1={
law = agnatic_succession
law = succ_primogeniture
}

1000.1.1={
	liege="c_iwami-naka"
}
1483.1.1={
	holder = 55801 # Sufu Okikane
}
1524.1.1={
	holder = 55800 # Sufu Takekane
}
1562.1.1={
	holder = 55802 # Sufu Motokane
}
1572.1.1={
	holder = 55830 # Sufu Motomori
}
