# Iyo
# Oyoke

100.1.1={
law = agnatic_succession
law = succ_primogeniture
}
1471.1.1={
	name=B_IYO2_1471 # "Oyoke"
	adjective=B_IYO2_1471_adj # "Oyoke"
	liege="c_onsen"
	holder=58670 # Ono Naoie
}
1519.1.1={
	holder=58671 # Ono Toshinao
}
1553.1.1={
	holder=58672 # Ono Naoshige
}