# Owari
# Matsuba

100.1.1={
law = agnatic_succession
law = succ_primogeniture
}
1170.1.1={
	liege="c_kaito"
	holder=2390550 # Matsuba Munemasu
}
1181.12.14={
	holder=2390551 # Matsuba Sukemune
}
1266.2.12={
	holder=0
}
1493.1.1={
	liege="c_kaito"
	holder=29125 # Oda Yoshinobu
}
1520.1.1={
	holder=29118 # Oda Nobusada
}
1527.1.1={
	holder=29130 # Oda Nobutsugu
}
1555.5.10={
	holder=0
}