# Settsu
# Ibaraki

100.1.1={
law = agnatic_succession
law = succ_primogeniture
}
1500.1.1={
	liege="c_mishima"
	holder=40820 # Ibaraki Nagataka
}
1555.1.1={
	holder=40821 # Ibaraki Shigechika
}
1571.9.17={
	holder=45761 # Nakagawa Kiyohide
}
1573.4.20={
	liege="c_teshima"
}