# Shimotsuke

100.1.1={
#add_law = agnatic_succession
law = succ_primogeniture
}
1177.1.1={
    holder=2180151 # Asonuma Hirotsuna
}
1208.1.1={
    holder=2180700 # Asonuma Tomotsuna
}
1238.1.1={
    holder=2180710 # Asonuma Mitsutsuna
}
1258.1.1={
    holder=2180720 # Asonuma Kimitsuna
}
1260.1.1={
    holder=2180730 # Asonuma Kimisato
}
1290.1.1={
    holder=2180740 # Asonuma Ujitsuna
}
1310.1.1={
	holder=0
}