# Shinano
# Mochiduki

100.1.1={
law = agnatic_succession
law = succ_primogeniture
}

950.2.1={
	liege="c_saku"
	holder=260410 # Shigeno Yukitoshi
}
974.1.1={
#	liege="c_saku"
	holder=260411 # Shigeno Yukitsune
}
1000.1.1={
#	liege="c_saku"
	holder=260412 # Shigeno Tamehiro
}
1030.1.1={
#	liege="c_saku"
	holder=260413 # Shigeno Tamemichi
}
1060.1.1={
#	liege="c_saku"
	holder=2380300 # Mochizuki Norishige
}
1110.1.1={
#	liege="c_saku"
	holder=2380303 # Mochizuki Shigetoshi
}
1140.1.1={
#	liege="c_saku"
	holder=2380500 # Mochizuki Hiroshige
}
1150.1.1={
#	liege="c_saku"
	holder=2380505 # Mochizuki Kunishige
}
1170.1.1={
#	liege="c_saku"
	holder=2380511 # Mochiduki Kunichika
}
1184.3.4={
	liege="c_chiisagata"
	holder=2380523 # Mochiduki Shigetaka
}
1220.1.1={
#	liege="c_chiisagata"
	holder=2380540 # Mochiduki Morishige
}
1240.1.1={
#	liege="c_chiisagata"
	holder=2380545 # Mochiduki Muneshige
}
1270.1.1={
#	liege="c_chiisagata"
	holder=2380550 # Mochiduki Shigemasa
}
1300.1.1={
#	liege="c_chiisagata"
	holder=2380555 # Mochiduki Ieshige
}
1325.1.1={
#	liege="c_chiisagata"
	holder=2380563 # Mochiduki Shigenobu
}
1350.1.1={
#	liege="c_chiisagata"
	holder=2380566 # Mochiduki Mitsutsune
}
1380.1.1={
#	liege="c_chiisagata"
	holder=2380570 # Mochiduki Moriyo
}
1410.1.1={
#	liege="c_chiisagata"
	holder=2380573 # Mochiduki Moritsune
}
1440.1.1={
#	liege="c_chiisagata"
	holder=2380576 # Mochiduki Mitsumori
}
1470.1.1={
#	liege="c_chiisagata"
	holder=2380580 # Mochiduki Mitsushige
}
1500.1.1={
#	liege="c_chiisagata"
	holder=2380583 # Mochiduki Morimasa
}
1530.1.1={
#	liege="c_chiisagata"
	holder=2380586 # Mochiduki Masayori
}
1543.10.1={
#	liege="c_chiisagata"
	holder=2380590 # Mochiduki Nobumasa
}
1546.6.1={
	liege=0
#	holder=2380590 # Mochiduki Nobumasa
}
1548.1.1={
	liege="c_saku"
#	holder=2380590 # Mochiduki Nobumasa
}
1561.1.1={
#	liege="c_saku"
	holder=20047 # Mochiduki Nobunaga
}
1575.6.29={
#	liege="c_saku"
	holder=2380590 # Mochiduki Nobumasa
}