# Izu

0100.1.1={
law = agnatic_succession
law = succ_primogeniture
}
1146.1.1={
	liege="c_tagata"
	holder=130050 # Kudo Shigemitsu
}
1180.9.15={
	holder=130084 # Kudo Muneshige
}
1180.10.26={
#	liege=c_tagata
	holder=130084 # Kudo Muneshige
}
1200.1.1={
	holder=2231000 # Kano Masashige
}
1240.1.1={
	holder=2231001 # Kano Yukishige
}
1280.1.1={
	holder=2231002 # Kano Shigemura
}
1300.1.1={
	holder=2231003 # Kano KanoNoSuke
}
1335.1.1={
	holder=2231004 # Kano KanoNoSuke
}
1360.1.1={
	holder=2231005 # Kano KanoNoSuke
}
1390.1.1={
	holder=2231006 # Kano KanoNoSuke
}
1420.1.1={
	holder=2231007 # Kano KanoNoSuke
}
1450.1.1={
	holder=2231008 # Kano KanoNoSuke
}
1480.1.1={
	holder=2231009 # Kano Doitsu
}
1497.12.1={
	holder=0
}
