# Shinano
# Takanashi / Nakano

100.1.1={
law = agnatic_succession
law = succ_primogeniture
}
1184.7.25={
	name=B_TAKAI5_1184 # "Takanashi"
	adjective=B_TAKAI5_1184_adj # "Takanashi"
}
1467.1.1={
	name=B_TAKAI5_1467 # "Nakano"
	adjective=B_TAKAI5_1467_adj # "Nakano"
}