# Yamato
# Yagyu

100.1.1={
law = agnatic_succession
law = succ_primogeniture
}
1490.1.1={
	liege="c_yamabe"
	holder=49000 # Yagyu Shigenaga
}
1530.1.1={
	holder=49001 # Yagyu Ieyoshi
}
1568.1.1={
	holder=49002 # Yagyu Muneyoshi
}