# Kai
# Katsunuma

100.1.1={
law = agnatic_succession
law = succ_primogeniture
}

1508.10.27={
	liege="c_yamanashi"
	holder=20001 # Katsunuma Nobutomo
}
1535.9.19={
#	liege="c_yamanashi"
	holder=20300 # Katsunuma Nobumoto
}
1560.11.3={
#	liege=
	holder=0 # 
}