# Hizen

100.1.1={
law = agnatic_succession
law = succ_primogeniture
}
1000.1.1={
	liege="c_yabu"
}
1490.1.1={
	holder=67702 # Tsukushi Mitsukado
}
1524.1.1={
	holder=67701 # Tsukushi Hidekado
}
1532.1.1={
	holder=67700 # Tsukushi Korekado
}
1559.1.1={
	holder=67704 # Tsukushi Hirokado
}