###############################################################################
#
# Crusader Kings II (developed by Paradox Development Studio) MOD
# Nova Monumenta Iaponiae Historica (NMIH)
#
# Title history data file.
# 
# @param file_name d_otchishi.txt
# @param title d_otchishi
# @param title_name Otchishi
# @param k_kita_ezochi
#
###############################################################################

1170.1.1={
	holder=157600
}
1210.1.1={
	holder=0
}

1270.1.1={
	holder=157220
}
1310.1.1={
	liege=0
	holder=0 # 
}
